%WER 5.23 [ 44 / 841, 3 ins, 7 del, 34 sub ] exp_up/mono/decode/wer_12_0.0
%WER 5.35 [ 45 / 841, 7 ins, 6 del, 32 sub ] exp_up/tri_450_10000/decode/wer_17_0.0
%WER 4.52 [ 38 / 841, 5 ins, 4 del, 29 sub ] exp_up/tri_500_10000/decode/wer_20_0.0
%WER 4.64 [ 39 / 841, 4 ins, 6 del, 29 sub ] exp_up/tri_550_10000/decode/wer_18_0.0
%WER 4.64 [ 39 / 841, 4 ins, 6 del, 29 sub ] exp_up/tri_550_10000/decode/wer_18_0.0
