mal_0001	mal	mal_0001.wav	ഇതു നൂറ്റാണ്ടുകൾ പഴക്കം ഉള്ള ഒരു പുരാതന ക്ഷേത്രമാണ്
mal_0002	mal	mal_0002.wav	കൊല്ലം എന്ന വാക്കാൽ വിവക്ഷിക്കാവുന്ന ഒന്നിലധികം കാര്യങ്ങളുണ്ട്
mal_0003	mal	mal_0003.wav	ഞാൻ ഈ ലേഖനം ഇംഗ്ലീഷ് വിക്കിയിൽ നിന്നും തർജ്ജിമ ചെയ്തതാണ്
mal_0004	mal	mal_0004.wav	പി സ്കൂൾ എന്നീ വിദ്യാഭ്യാസ സ്ഥാപനങ്ങൾ
mal_0005	mal	mal_0005.wav	അതായത് ഒക്ടോബർ മുതൽ ഡിസംബർ വരെ
mal_0006	mal	mal_0006.wav	അന്ത്യോക്യാ സുറിയാനി ഓർത്തഡോക്സ് സഭ ക്രി വ
mal_0007	mal	mal_0007.wav	സുനിൽ ജി പറഞ്ഞത് വളരെ ശരിയാണ് ഋഗ്വേദം ഇതിന്റെ റെഫറൻസ് ഇപ്പോൾ എന്റെ കയ്യിൽ ഇല്ല
mal_0008	mal	mal_0008.wav	ആദ്യ ഗുരു അദ്ദേഹത്തിന്റെ അച്ചന് തന്നെയായിരുന്നു
mal_0009	mal	mal_0009.wav	കാലിക്കൂട്ടർ എന്ന് പറഞ്ഞ് ഒരു ഐ പി
mal_0010	mal	mal_0010.wav	മലയാളം വിക്കിപീഡിയയുടെ ഔദ്യോഗിക നയം കാണുക
mal_0011	mal	mal_0011.wav	അവ ഓർത്തഡോക്സ് പൗരസ്ത്യ സഭ അന്ത്യോക്യാ സുറിയാനി ഓർത്തഡോക്സ് സഭ
mal_0012	mal	mal_0012.wav	ചെറായി എന്ന ലേഖനത്തിൽ നിലവിലുണ്ടായിരുന്ന കണ്ണികൾ
mal_0013	mal	mal_0013.wav	മാർച്ച് മുതൽ ജമാഅത്തെ ഇസ്ലാമി എന്ന സംഘടനയുടെ അഖിലേന്ത്യാ പ്രസിഡന്റ്
mal_0014	mal	mal_0014.wav	ഇത്തരം ഒരു സംവാദം ഇവിടെയും കാണാം
mal_0015	mal	mal_0015.wav	ആണ് മുരളി പഠിച്ച മറ്റൊരു സ്കൂൾ
mal_0016	mal	mal_0016.wav	ചൈനയിൽ ഈ ചെടി അറിയപ്പെടുന്നത് സുവർണ്ണ ഓറഞ്ച് എന്ന പേരിലാണ്
mal_0017	mal	mal_0017.wav	എല്ലാ വർഷവും ഏപ്രിൽ മാസത്തിൽ ഇവിടെ പൂരം നടക്കുന്നു
mal_0018	mal	mal_0018.wav	ഇപ്പോൾ റബ്ബർ കൂടുതലായി കൃഷി ചെയ്യുന്നു
mal_0019	mal	mal_0019.wav	മാഷ് തന്ന ലിങ്കിൽ ആദ്യത്തേത് എന്തായാലും വേണ്ട
mal_0020	mal	mal_0020.wav	പിതാവ് കേശവൻ ആശാൻ മാതാവ് മണി അമ്മ
mal_0021	mal	mal_0021.wav	കോട്ടയം ജില്ലയിലെ കിഴക്കൻ മലയോര മേഖലയിലെ ഒരു പ്രധാന പട്ടണമാണ് പാലാ
mal_0022	mal	mal_0022.wav	കത്തോലിക്കാ സഭ പ്രകാരം ആദ്യ മാർപ്പാപ്പ
mal_0023	mal	mal_0023.wav	ഈ ലേഖനത്തിന്റെ ഇംഗ്ലീഷ് പതിപ്പ് ഇത് ആണോ എന്ന് ദയവായി പറയുക
mal_0024	mal	mal_0024.wav	ഇത് ഇന്ത്യയിലെ തന്നെ ആദ്യത്തെ ഐ
mal_0025	mal	mal_0025.wav	അനുകൂലിക്കുന്നു മലയാളം വിക്കിയുടെ സ്വന്തം ചിത്രങ്ങൾ മാത്രമേ പാടുള്ളൂ എന്നല്ലേ ആ
mal_0026	mal	mal_0026.wav	യൂസർ പേജ് റീഡയറക്റ്റ് ചെയ്യാൻ സാധിക്കില്ല
mal_0027	mal	mal_0027.wav	കേരള ഭാഷാ ഇൻസ്റ്റിറ്റ്യൂട്ട് തിരുവനന്തപുരം കേരള
mal_0028	mal	mal_0028.wav	ഞാൻ കാണുമ്പോൾ മുതൽ ഇതു തന്നെയാണ്
mal_0029	mal	mal_0029.wav	ഉദാ കേരളത്തിന്റെ തലസ്ഥാനം തിരുവനന്തപുരം ആണ്
mal_0030	mal	mal_0030.wav	ഇതേ പോലെ ഒരു സംവിധാനം നമുക്ക് മലയാളം വിക്കിയിലും ഉണ്ടാക്കാൻ പറ്റുമോ
mal_0031	mal	mal_0031.wav	വ്യക്തമായ കാരണങ്ങൾ ഇല്ലാതെ ആരെയും ബ്ലോക്ക് ചെയ്യരുത് എന്ന് അപേക്ഷ
mal_0032	mal	mal_0032.wav	അപ്പോൾ ഇങ്ങനെയുള്ള വിവരം എനിക്ക് വേണ്ട
mal_0033	mal	mal_0033.wav	അതിനു വേറേ അർത്ഥം ഉണ്ടെങ്കിൽ പറയൂ മാഷേ
mal_0034	mal	mal_0034.wav	അമേരിക്കൻ ഐക്യനാടുകളിലെ പടിഞ്ഞാറൻ സംസ്ഥാനങ്ങളിൽ നിന്നും കിഴക്കൻ ആഫ്രിക്കയിലെ
mal_0035	mal	mal_0035.wav	എങ്കിലും മനസ്സിൽ തോന്നുന്നത് പറയാതെ വയ്യ
mal_0036	mal	mal_0036.wav	കേരള ത്തിലെ പാലക്കാട് ജില്ലയിലെ ഒരു വിനോദസഞ്ചാര കേന്ദ്രമാണ് മലമ്പുഴ
mal_0037	mal	mal_0037.wav	ലേഖനങ്ങളുടെ പ്രാധാന്യം അനുസരിച്ച് ചിത്രങ്ങൾ എത്ര വേണമെങ്കിലും ആവാം എന്നായിരുന്നു എന്റെ ധാരണ
mal_0038	mal	mal_0038.wav	എനിക്ക് അങ്ങനെ തോന്നി എന്നല്ല കേട്ടോ
mal_0039	mal	mal_0039.wav	അതിനു ശേഷം വളരെ പതുക്കെ ആയിരുന്നു വിക്കിപീഡിയയുടെ വളർച്ച
mal_0040	mal	mal_0040.wav	എങ്കിലും സുജാത എന്ന് മലയാളത്തിൽ ഗൂഗിളിൽ ടൈപ്പ് ചെയ്തു നോക്കൂ
mal_0041	mal	mal_0041.wav	ദൈവ വിശ്വാസികൾ ആയിരുന്നു ഈ ജനത
mal_0042	mal	mal_0042.wav	ഗണിത ശാസ്ത്ര സംബന്ധമായ ഇത്തരം ലേഖനങ്ങൾ ഇനിയും പ്രതീക്ഷിക്കുന്നു
mal_0043	mal	mal_0043.wav	വിവാദം ഉണ്ടായത് ഗ്രന്ഥം പ്രസിദ്ധീകരിച്ച ശേഷം അല്ലേ
mal_0044	mal	mal_0044.wav	അവയെക്കുറിച്ചറിയാൻ കൊല്ലം നാനാർത്ഥങ്ങൾ എന്ന താൾ കാണുക
mal_0045	mal	mal_0045.wav	കണ്ണൂർ ജില്ലയിലെ മട്ടന്നൂർ എന്ന ചെറിയ ഗ്രാമത്തിലാണ് അദ്ദേഹം ജനിച്ചത്
mal_0046	mal	mal_0046.wav	ലോകത്തിലെ തന്നെ ഏറ്റവും ജനസംഖ്യ ഉള്ള നഗരം ബോംബെ ആണ്
mal_0047	mal	mal_0047.wav	ഇത് വച്ച് യാക്കോബായ സഭയുടെ ഭാഗമാണ് ഓർത്തഡോക്സ് സഭയും
mal_0048	mal	mal_0048.wav	ഒരു ഐ പി താളിൽ എഡിറ്റ് ചെയ്തത് നീക്കി
mal_0049	mal	mal_0049.wav	കൊല്ലങ്കോട് എന്ന വാക്കിനാൽ താഴെപ്പറയുന്ന എന്തിനേയും വിവക്ഷിക്കാം
mal_0050	mal	mal_0050.wav	പഠനത്തിൽ അദ്ദേഹത്തിന് ഏറെ ഗുണം ചെയ്തു
mal_0051	mal	mal_0051.wav	മറ്റ് പലയിടത്തും ഈ പ്രശ്നം ഉണ്ട്
mal_0052	mal	mal_0052.wav	അതിനാൽ തന്നെ മുകളിലെ ലിങ്ക് റെഫറൻസ് ആയി കൊടുക്കാൻ പറ്റില്ല
mal_0053	mal	mal_0053.wav	അതിനാൽ ആ വാചകം ഞാൻ നീക്കം ചെയ്തു
mal_0054	mal	mal_0054.wav	അതു ആധികാരിക സൈറ്റ് ആണെങ്കിലും അതിൽ തെറ്റുകൾ ഉണ്ട്
mal_0055	mal	mal_0055.wav	വിക്കിപീഡിയയിൽ പങ്കാളിയാകാൻ താങ്കൾക്ക് ഏതെങ്കിലും വിധത്തിലുള്ള സഹായം ആവശ്യമുണ്ടോ
mal_0056	mal	mal_0056.wav	വേണാട് എന്ന പ്രയോഗം ആദ്യമായി കാണുന്നത് ക്രി വ
mal_0057	mal	mal_0057.wav	ഇന്ത്യയുടെ സുവർണ്ണ കാലഘട്ടം എന്ന് മഗധ നിലനിന്ന കാലം അറിയപ്പെടുന്നു
mal_0058	mal	mal_0058.wav	ഇന്നും ഇന്ത്യയിൽ കുട്ടികൾക്ക് സ്വർണ്ണം ഔഷധമായി നൽകുന്നുണ്ട്
mal_0059	mal	mal_0059.wav	കേരള കർഷക തൊഴിലാളി ക്ഷേമനിധി ബോർഡ് തൃശ്ശൂർ
mal_0060	mal	mal_0060.wav	രണ്ട് ഔദ്യോഗിക നാമങ്ങൾ സ്വീകരിച്ച ആദ്യ പാപ്പ
mal_0061	mal	mal_0061.wav	ഈ ഗൾഫ് മലയാളി എഴുതിയ ലേഖനങ്ങൾ കാണുക
mal_0062	mal	mal_0062.wav	നമ്മൾ തമ്മിൽ സ്വകാര്യ ചർച്ച ഇക്കാര്യത്തിൽ വേണ്ട
mal_0063	mal	mal_0063.wav	എനിക്കും അതു തന്നെ തോന്നുന്നു പക്ഷേ
mal_0064	mal	mal_0064.wav	സൗകര്യം പോലെ അതിൽ കൂടുതൽ വിവരങ്ങൾ ചേർക്കാൻ ഞാൻ ശ്രമിക്കാം
mal_0065	mal	mal_0065.wav	കേരള ത്തിലെ മലപ്പുറം ജില്ലയിലുള്ള ഒരു ചെറിയ ഗ്രാമമാണ് തിരുനാവായ
mal_0066	mal	mal_0066.wav	ആഗോള സുറിയാനി സഭയുടെ ഭാഗമാണ് ഈ സഭ
mal_0067	mal	mal_0067.wav	കേരള ഘടകമാണ് ജമാഅത്തെ ഇസ്ലാമി കേരള
mal_0068	mal	mal_0068.wav	ശിവൻ ആണ് ഇവിടത്തെ പ്രധാന പ്രതിഷ്ഠ
mal_0069	mal	mal_0069.wav	അത് ഏതെങ്കിലും ബോട്ട് ചെയ്താൽ പോരേ
mal_0070	mal	mal_0070.wav	വിക്കി ഒരു യാത്രാ സഹായി അല്ലല്ലോ
mal_0071	mal	mal_0071.wav	ഇപ്പോൾ ഞാൻ തിരുവനന്തപുരത്ത് ജോലി ചെയ്യുന്നു
mal_0072	mal	mal_0072.wav	ഈ കണ്ണി ഒന്നു ശ്രമിച്ചു നോക്കൂ
mal_0073	mal	mal_0073.wav	ഇതിന്റെ മേൽ ഈ കാര്യത്തിൽ സംവാദം ആവശ്യമില്ല
mal_0074	mal	mal_0074.wav	ഹിന്ദുസ്ഥാൻ എന്ന പേര് രൂപം കൊണ്ടത് ഈ നദിയിൽ നിന്നാണ്
mal_0075	mal	mal_0075.wav	അവൻ അവൾ അത് അവർ അതിന് അതിന്റെ അയാളുടെ അവരുടെ അവന്റെ അവളുടെ അദ്ദേഹത്തെ
mal_0076	mal	mal_0076.wav	കേരള ത്തിലെ പാലക്കാട് ജില്ലയിലെ ഒരു ചെറിയ ഗ്രാമമാണ് കൊല്ലങ്കോട്
mal_0077	mal	mal_0077.wav	കൊല്ലം എന്ന വാക്കിനാൽ താഴെപ്പറയുന്ന എന്തിനേയും വിവക്ഷിക്കാം
mal_0078	mal	mal_0078.wav	ഉപവാസം എന്ന താൾ കണ്ടപ്പോൾ ഉപവാസം നാനാർത്ഥങ്ങൾ എന്ന താൾ സൃഷ്ടിച്ചു എന്നേ ഉള്ളൂ
mal_0079	mal	mal_0079.wav	മട്ടന്നൂർ ശങ്കരൻ കുട്ടി എന്നാണ് അദ്ദേഹം പരക്കെ അറിയപ്പെടുന്നത്
mal_0080	mal	mal_0080.wav	ഈ ലേഖനം പുരോഗമന കലാ സാഹിത്യ സംഘം എന്ന താളുമായി ലയിപ്പിക്കുന്നതിന് ശുപാർശ ചെയ്തിരിക്കുന്നു
mal_0081	mal	mal_0081.wav	അന്ത്യോക്യാ സുറിയാനി ഓർത്തഡോക്സ് സഭ ക്രി വ
mal_0082	mal	mal_0082.wav	അത് അവരെ പറഞ്ഞു മനസ്സിലാക്കുക എന്നതാണ് വിക്കിയുടെ രീതി
mal_0083	mal	mal_0083.wav	ഫ്രഞ്ച് അറബി എന്നിവയാണ് ഔദ്യോഗിക ഭാഷകൾ
mal_0084	mal	mal_0084.wav	ലേഖനവുമായി ബന്ധപ്പെട്ട സംവാദം പ്രസ്തുത ലേഖനത്തിന്റെ സംവാദം താളിൽ മാത്രം ചെയ്യുക
mal_0085	mal	mal_0085.wav	അങ്ങിനെ തന്നെ വേണമെന്നു പഠിപ്പിക്കുന്ന മതവും ആണ്
mal_0086	mal	mal_0086.wav	മഹാവിഷ്ണു ആണ് ഇവിടത്തെ പ്രധാന പ്രതിഷ്ഠ
mal_0087	mal	mal_0087.wav	അതിനു വേണ്ടി വിക്കിയെ പറ്റി ഒരുപാട് പഠിച്ചു
mal_0088	mal	mal_0088.wav	ഏറ്റവും അടുത്തുള്ള വിമാനത്താവളം തിരുവനന്തപുരം അന്താരാഷ്ട്ര വിമാനത്താവളം
mal_0089	mal	mal_0089.wav	വിക്കിപീഡിയയിൽ പങ്കാളിയാകാൻ താങ്കൾക്ക് ഏതെങ്കിലും വിധത്തിലുള്ള സഹായം ആവശ്യമുണ്ടോ ഉ തൽക്കാലം വേണ്ട
mal_0090	mal	mal_0090.wav	ഭൗതികം എന്ന വാക്കിനാൽ താഴെപ്പറയുന്ന എന്തിനേയും വിവക്ഷിക്കാം
mal_0091	mal	mal_0091.wav	അത് എഡിറ്റ് പേജിൽ സ്ക്രിപ്റ്റ് ആയി ഉണ്ടല്ലോ
mal_0092	mal	mal_0092.wav	എന്നാൽ ഇപ്പോൾ ഒരുപാട് മാറ്റങ്ങൾ വന്നിട്ടുണ്ട്
mal_0093	mal	mal_0093.wav	ഗാന്ധിജി എന്ന വ്യക്തിയെ പറ്റി എഴുതുമ്പോൾ വിമർശനം എന്ന ഭാഗം അത്യാവശ്യം തന്നെ
mal_0094	mal	mal_0094.wav	ബൈബിൾ ആണ് ഇവരുടെ വിശുദ്ധ ഗ്രന്ഥം
mal_0095	mal	mal_0095.wav	ഈ പട്ടിക നീക്കം ചെയ്യേണ്ട ആവശ്യമില്ല
mal_0096	mal	mal_0096.wav	കാസർഗോഡ് ജില്ല യിലെ ഒരു മലയോര ഗ്രാമം
mal_0097	mal	mal_0097.wav	ഇത് ഈ ക്ഷേത്രത്തിന്റെ മാത്രം പ്രത്യേകതയാണ്
mal_0098	mal	mal_0098.wav	ഈ സോഫ്റ്റ്വെയർ ഉപയോഗിച്ച് ഒരു പി ഡി എഫ്
mal_0099	mal	mal_0099.wav	ആ പരാമർശം ഞാൻ ലേഖനത്തിൽ നിന്നും നീക്കം ചെയ്തു
mal_0100	mal	mal_0100.wav	കൂലി എന്ന വാക്കാൽ വിവക്ഷിക്കാവുന്ന ഒന്നിലധികം കാര്യങ്ങളുണ്ട്
mal_0101	mal	mal_0101.wav	തമിഴിൽ നിന്നാണ് ഈ പദത്തിന്റെ ഉദ്ഭവം
mal_0102	mal	mal_0102.wav	കാരണം മലയാളം അക്ഷരമാല എന്ന് പറയുന്നത് മലയാളത്തിലെ സ്വരങ്ങൾ
mal_0103	mal	mal_0103.wav	യാക്കോബായ സഭ എന്ന പ്രയോഗം സാധാരണയായി സുറിയാനി ഓർത്തഡോക്സ് സഭയെ വിളിച്ചു വരുന്ന പേരാണ്
mal_0104	mal	mal_0104.wav	കേരളത്തിൽ ആദ്യമായി ഇംഗ്ലീഷ് ഭാഷ പഠിപ്പിച്ചത് ഇവിടെയാണ്
mal_0105	mal	mal_0105.wav	അവയെക്കുറിച്ചറിയാൻ കൂലി നാനാർത്ഥങ്ങൾ എന്ന താൾ കാണുക
mal_0106	mal	mal_0106.wav	ഇതു മലയാളം വിക്കിയുടെ ഔദ്യോഗിക നയം ആയി ചേർക്കണം
mal_0107	mal	mal_0107.wav	ആ ലേഖനത്തിന്റെ സംവാദം താളിൽ മതി
mal_0108	mal	mal_0108.wav	കൃഷ്ണൻ നായർ എന്ന വാക്കാൽ വിവക്ഷിക്കാവുന്ന ഒന്നിലധികം കാര്യങ്ങളുണ്ട്
mal_0109	mal	mal_0109.wav	ഈ വാക്കിന്റെ ഏറ്റവും വ്യാപകമായ ഉപയോഗം ഈ അർത്ഥത്തിലാണ്
mal_0110	mal	mal_0110.wav	ജനങ്ങൾ അധികവും ഹിന്ദു ക്രിസ്ത്യൻ വിഭാഗങ്ങളിൽ പെടുന്നു
mal_0111	mal	mal_0111.wav	അതിന് അവലംബം എത്ര വേണമെങ്കിലും കൊടുക്കാൻ പറ്റും
mal_0112	mal	mal_0112.wav	റോമാ സാമ്രാജ്യത്തില് നാലു പാത്രിയാര്ക്കീസുമാരാണ് ഉണ്ടായിരുന്നത്
mal_0113	mal	mal_0113.wav	മിക്ക ഇന്ത്യൻ ഭാഷകളിലും ഭൗതികം എന്നാണ്
mal_0114	mal	mal_0114.wav	ഈ താളിൽ നിങ്ങൾക്ക് ആവശ്യമായ ഉപകരണങ്ങൾ കിട്ടും
mal_0115	mal	mal_0115.wav	ഇനി മറ്റേത് വേറെ വല്ല ക്ഷേത്രവും ആണോ
mal_0116	mal	mal_0116.wav	ഇത്തരത്തിൽ പേരു കേട്ട ഒന്നാണ് കണ്ണൂർ ജില്ലയിലെ
mal_0117	mal	mal_0117.wav	കേരള കാർട്ടൂൺ അക്കാദമിയുടെ വൈസ് ചെയർമാൻ
mal_0118	mal	mal_0118.wav	പ്രവീൺ എഴുതിയത് ഇങ്ങനെ മാറ്റി എഴുതിയാൽ അത് കുഴപ്പമില്ല
mal_0119	mal	mal_0119.wav	ഇവർ ധാരാളം പേരെ മത പരിവർത്തനം ചെയ്തു
mal_0120	mal	mal_0120.wav	അപ്പോൾ കഴിവതും മലയാളം വാചകങ്ങൾ തന്നെ ഉപയോഗിക്കുക
mal_0121	mal	mal_0121.wav	മധുര അമേരിക്കൻ കോളെജിൽ അദ്ധ്യാപകനായി അദ്ദേഹം തന്റെ ഔദ്യോഗിക ജീവിതം ആരംഭിച്ചു
mal_0122	mal	mal_0122.wav	ഇന്ത്യൻ സംസ്ഥാനമായ തമിഴ്നാട്ടിലെ ഒരു പട്ടണമാണ് കന്യാകുമാരി
mal_0123	mal	mal_0123.wav	പഴശ്ശി ഡാം അടുത്തുള്ള ഒരു പ്രധാന ആകർഷണമാണ്
mal_0124	mal	mal_0124.wav	എന്തായാലും ഈ ഫോട്ടോ അവിടെ ഉപയോഗിക്കാൻ പറ്റില്ല
mal_0125	mal	mal_0125.wav	ലേഖനം ഇംഗ്ലീഷ് വിക്കിപീഡിയയിൽ നിന്നും തർജ്ജിമ ചെയ്തതാണ്
mal_0126	mal	mal_0126.wav	യൂറോപ്പിലെ പ്രധാനപ്പെട്ട വിനോദ സഞ്ചാര കേന്ദ്രങ്ങളിൽ ഒന്നാണിത്
mal_0127	mal	mal_0127.wav	ഈ പട്ടിക ഇനി ഒരുപാട് സബ് ആക്കി തിരിക്കാം
mal_0128	mal	mal_0128.wav	ഒരു സമ്പൂർണ്ണ കുടുംബ ചാനൽ എന്നറിയപ്പെടുന്ന ജീവൻ ടി വി
mal_0129	mal	mal_0129.wav	ഇന്ന് ഒരു പ്രശസ്തമായ കലാ സാംസ്കാരിക കേന്ദ്രമാണ് ഈ മഠം
mal_0130	mal	mal_0130.wav	ഉദാഹരണത്തിന് ഈ ഓർത്തഡോക്സ് യാക്കോബായ തർക്കം മലയാളം വിക്കിയിൽ വന്നു
mal_0131	mal	mal_0131.wav	മതപരമായ പക്ഷപാതം ഏതെങ്കിലും പ്രത്യേക മതത്തിന്റെ കാഴ്ചപ്പാടിൽ മാത്രം കാര്യങ്ങൾ നോക്കുന്ന തരം പക്ഷപാതം
mal_0132	mal	mal_0132.wav	കൃഷ്ണൻ നായർ നാനാർത്ഥങ്ങൾ എന്ന താൾ കാണുക
mal_0133	mal	mal_0133.wav	ഇനിയും ഒരു ലിങ്ക് താഴെ കൊടുത്തിട്ടുണ്ട്
mal_0134	mal	mal_0134.wav	ഈ താൾ പൗരസ്ത്യ ഓർത്തഡോക്സ് സഭ എന്ന് മതി
mal_0135	mal	mal_0135.wav	പക്ഷേ അതിനു ഒരു പ്രത്യേക തലക്കെട്ട് വേണ്ട ചരിത്രത്തിൽ ഇന്ന് എന്ന തലക്കെട്ട് മാറ്റി ഇന്ന്
mal_0136	mal	mal_0136.wav	താങ്കൾ വിക്കിപീഡിയയിൽ ലേഖനങ്ങൾ തുടങ്ങുവാനോ നിലവിലുള്ളവ
mal_0137	mal	mal_0137.wav	കൂടാതെ ഉപ്പ് നാനാർത്ഥങ്ങൾ ഉണ്ടാക്കുകയും ആവാം
mal_0138	mal	mal_0138.wav	ചള്ളിയൻ ജി നിലവിൽ ഒരു ലേഖനം ഉണ്ടല്ലോ
mal_0139	mal	mal_0139.wav	ആദ്യമായി ഇത് ചേർക്കാം എന്നു കരുതുന്നു
mal_0140	mal	mal_0140.wav	സംവാദം താളുകളിൽ മറ്റുള്ളവരുടെ സംവാദങ്ങൾ എഡിറ്റ് ചെയ്യരുത്
mal_0141	mal	mal_0141.wav	ഏറ്റവും വലിയ നഗരവും ഇതു തന്നെ
mal_0142	mal	mal_0142.wav	ഈ നഗരം ഇന്ത്യയുടെ സാമ്പത്തിക തലസ്ഥാനം കൂടിയാണ്
mal_0143	mal	mal_0143.wav	വിക്കിപീഡിയയിൽ ലേഖനങ്ങൾ താഴെ പറയുന്ന നാലു രീതിയിൽ ടൈപ്പ് ചെയ്യാവുന്നതാണ്
mal_0144	mal	mal_0144.wav	കന്നി എന്ന വാക്കാൽ വിവക്ഷിക്കാവുന്ന ഒന്നിലധികം കാര്യങ്ങളുണ്ട്
mal_0145	mal	mal_0145.wav	ഇംഗ്ലീഷ് വിക്കിപീഡിയയിൽ തമിഴ് തെലുങ്ക് കന്നഡ മറാഠി പേജുകളിൽ ഭാഷയുടെ പേരും പറഞ്ഞ് നല്ല അടി ആണല്ലോ നടക്കുന്നത്
mal_0146	mal	mal_0146.wav	സാവധാനം പി ഡി എഫ് കമ്പ്യൂട്ടർ ലോകത്തിന്റെ ശ്രദ്ധ നേടാൻ തുടങ്ങി
mal_0147	mal	mal_0147.wav	ഈ ലേഖനം കോഴിക്കോട് എന്ന താളുമായി ലയിപ്പിക്കുന്നതിന് ശുപാർശ ചെയ്തിരിക്കുന്നു
mal_0148	mal	mal_0148.wav	അതുകൊണ്ടു തന്നെ മുംബൈ വളരെ ഉയർന്ന ജീവിത നിലവാരം പുലർത്തുന്ന നഗരങ്ങളിൽ ഒന്നാണ്
mal_0149	mal	mal_0149.wav	അദ്ദേഹം ഇംഗ്ലീഷ് മലയാളം തമിഴ് സംസ്കൃതം എന്നീ ഭാഷകളിൽ പ്രാവീണ്യം നേടി
mal_0150	mal	mal_0150.wav	ഒന്ന് പഴയ ഏതെങ്കിലും ഉപയോക്താവിന്റെ താളിൽ നോക്കൂ
mal_0151	mal	mal_0151.wav	അവയെക്കുറിച്ചറിയാൻ കന്നി നാനാർത്ഥങ്ങൾ എന്ന താൾ കാണുക
mal_0152	mal	mal_0152.wav	ഇവിടെ നിന്നാണ് പുസ്തകങ്ങളുടെ പേരുകൾ കിട്ടിയത്
mal_0153	mal	mal_0153.wav	വിക്കിയിലെ തെറ്റുകൾ കണ്ടു പിടിച്ച് ഒരോ ദിവസവും ഓരോ പോസ്റ്റ് ഇട്ടാൽ മതി
mal_0154	mal	mal_0154.wav	കാരണം വിക്കി ഒരു ജനാധിപത്യ സംവിധാനം അല്ല
mal_0155	mal	mal_0155.wav	ഇങ്ങനെ ഒരു ലിങ്ക് എനിക്ക് കിട്ടുന്നില്ല കേട്ടോ
mal_0156	mal	mal_0156.wav	ഒരു ചിത്രം കൂടി ചേർത്താൽ വളരെ നന്നായിരുന്നു
mal_0157	mal	mal_0157.wav	ഈ സഭയുടെ പ്രധാന കേന്ദ്രം ഇപ്പോൾ ഇന്ത്യയിലെ
mal_0158	mal	mal_0158.wav	കന്നട ലിപി ഉപയോഗിച്ചാണ് ഈ ഭാഷ എഴുതുന്നത്
mal_0159	mal	mal_0159.wav	ഇതാണ് പി ഡി എഫ് ഫയൽ ഉണ്ടാക്കാൻ പറ്റുന്ന ഏറ്റവും പ്രധാനപ്പെട്ട സോഫ്റ്റ്വെയർ
mal_0160	mal	mal_0160.wav	കന്നി മാസം കന്നി എന്ന മലയാള മാസം
mal_0161	mal	mal_0161.wav	കോഴിക്കോട് നഗരം എന്ന താൾ ഈ ലേഖനവുമായി ലയിപ്പിക്കുന്നതിന് ശുപാർശ ചെയ്തിരിക്കുന്നു
mal_0162	mal	mal_0162.wav	അവയിൽ നിന്ന് നമുക്ക് ജനങ്ങളെ പറ്റി മനസ്സിലാക്കാൻ സാധിക്കും
mal_0163	mal	mal_0163.wav	അതിൽ നിന്ന് ഒന്നോ രണ്ടോ ഉദാഹരണങ്ങൾ
mal_0164	mal	mal_0164.wav	മൂന്നാമത്തെ ആക്രമണത്തിൽ മലബാർ രാജാക്കന്മാർ തിരുവിതാംകൂറിൽ അഭയം തേടി
mal_0165	mal	mal_0165.wav	മലയാളം ടൈപ്പ് ചെയ്യാന് പഠിച്ചു വരുന്നു
mal_0166	mal	mal_0166.wav	പിന്നെ താങ്കൾ കാണിച്ചു തന്ന ആധാരം ഞാൻ നോക്കി
mal_0167	mal	mal_0167.wav	അവയെക്കുറിച്ചറിയാൻ കേരളത്തിലെ പക്ഷികൾ നാനാർത്ഥങ്ങൾ എന്ന താൾ കാണുക
mal_0168	mal	mal_0168.wav	ഇതിൽ വേറിട്ടു നിൽക്കുന്നത് ഓണം മാത്രം
mal_0169	mal	mal_0169.wav	കേരള സാഹിത്യ അക്കാദമി അവാർഡ് നേടിയ കൃതി
mal_0170	mal	mal_0170.wav	റെഫറൻസ് ഒക്കെ ഇംഗ്ലീഷ് വിക്കിയിൽ ഉണ്ട്
mal_0171	mal	mal_0171.wav	ക്രിസ്തുമത വിശ്വാസികൾ പൊതുവായി ക്രിസ്ത്യാനികൾ എന്ന് കേരളത്തിൽ അറിയപ്പെടുന്നു
mal_0172	mal	mal_0172.wav	ഭാരതത്തിന്റെ സ്വന്തം സസ്യം എന്നതു കൊണ്ട് എന്താണ് ഉദ്ദേശിക്കുന്നത്
mal_0173	mal	mal_0173.wav	വടക്കൻ പറവൂർ എന്ന് ഒരു ലേഖനം ഉണ്ടല്ലോ
mal_0174	mal	mal_0174.wav	എല്ലാ പ്രശ്നങ്ങളും ഇവിടെ ഇതിനു താഴെ സംവാദം ആയി ഇടുക
mal_0175	mal	mal_0175.wav	ഈ തിരുത്തൽ നടത്തിയത് ഞാൻ തന്നെ
mal_0176	mal	mal_0176.wav	ഇത് താങ്കളുടെ സ്വന്തം പേജ് ആണ്
mal_0177	mal	mal_0177.wav	ഇംഗ്ലീഷ് വിക്കിയിൽ ഇതേ താൾ ഉണ്ടോ എന്ന് അറിയില്ല
mal_0178	mal	mal_0178.wav	സ്വന്തം എന്നു പറയാൻ കുറച്ച് വ്യത്യാസം മാത്രം
mal_0179	mal	mal_0179.wav	തലശ്ശേരി ബ്രണ്ണൻ കോളേജിൽ നിന്ന് മലയാള സാഹിത്യത്തിൽ മാസ്റ്റർ ബിരുദം നേടി
mal_0180	mal	mal_0180.wav	ഇവരിൽ തന്നെ പത്തു വിഭാഗങ്ങൾ ഉണ്ട്
mal_0181	mal	mal_0181.wav	ഇല്ല വിക്കിപീഡിയയിൽ പങ്കാളിയാകാൻ താങ്കൾക്ക് ഏതെങ്കിലും വിധത്തിലുള്ള സഹായം ആവശ്യമുണ്ടോ
mal_0182	mal	mal_0182.wav	മേൽ പറഞ്ഞത് ന്യായം സംസ്കൃതം എന്ന താളിൽ കൊടുക്കണം
mal_0183	mal	mal_0183.wav	ദൈവം നമ്മൾ തന്നെയാണ് എന്നാണ് എന്റെ വിശ്വാസം
mal_0184	mal	mal_0184.wav	ഇന്ന് അതിന്റെ സ്ഥാനത്ത് സാധാരണ നിറങ്ങൾ ഉപയോഗിക്കുന്നു
mal_0185	mal	mal_0185.wav	വിവിധ വിഷയങ്ങൾ വിശദമായി പഠിക്കാൻ ഇത് അദ്ദേഹത്തെ സഹായിച്ചു
mal_0186	mal	mal_0186.wav	ഓർത്തഡോക്സ് സുറിയാനി സഭ യുടെ ഒരു വിഭാഗം
mal_0187	mal	mal_0187.wav	കേരളത്തിലെ സ്ഥലങ്ങൾ എന്ന പേരിൽ പുതിയ ഫലകം ഉണ്ടാക്കി
mal_0188	mal	mal_0188.wav	എറ്റവും പുതുമുഖം എന്നു വേണമെങ്കിൽ പറയാം
mal_0189	mal	mal_0189.wav	കവിത എഴുതുന്ന വ്യക്തിയെ കവി എന്നു വിളിക്കുന്നു
mal_0190	mal	mal_0190.wav	കേരള ത്തിലെ കണ്ണൂർ ജില്ലയിലെ ഒരു ചെറിയ പട്ടണമാണ് മട്ടന്നൂർ
mal_0191	mal	mal_0191.wav	എന്റെ സംവാദം താൾ പ്രൊട്ടക്റ്റ് ചെയ്തിരിക്കുന്നു
mal_0192	mal	mal_0192.wav	കോഴിക്കോട് ജില്ലയിലെ രണ്ടാമത്തെ വലിയ പട്ടണമാണ്
mal_0193	mal	mal_0193.wav	ഇവയിൽ ഏറ്റവും പ്രധാനമാണ് വയനാട് ജില്ലയിലെ
mal_0194	mal	mal_0194.wav	ഇതു വിക്കിക്കു വേണ്ടി എഴുതിയ ലേഖനം അല്ല
mal_0195	mal	mal_0195.wav	പാർട്ടി എന്നീ പേരിലും ഈ വിഭാഗം ചിലയിടങ്ങളിൽ അറിയപ്പെടുന്നു
mal_0196	mal	mal_0196.wav	ക്രിക്കറ്റ് ലോകകപ്പ് എന്ന വിഷയത്തെക്കുറിച്ച് അറിയണമെങ്കിൽ ക്രിക്കറ്റ് ലോകകപ്പ് എന്ന താൾ കാണുക
mal_0197	mal	mal_0197.wav	പുതിയ ഒരു തെളിവ് ലഭിക്കും വരെ മാത്രം
mal_0198	mal	mal_0198.wav	എന്ന വാക്കാൽ വിവക്ഷിക്കാവുന്ന ഒന്നിലധികം കാര്യങ്ങളുണ്ട്
mal_0199	mal	mal_0199.wav	സിന്ധു നദീതട സംസ്കാരം നിലനിന്നിരുന്ന കാലം മുതൽക്കേ ആരാധന ചെയ്തിരുന്ന പ്രത്യേകം സ്ഥലങ്ങൾ ഉണ്ടായിരുന്നു
mal_0200	mal	mal_0200.wav	വിക്കിപീഡിയയിൽ പങ്കാളിയാകാൻ താങ്കൾക്ക് ഏതെങ്കിലും വിധത്തിലുള്ള സഹായം ആവശ്യമുണ്ടോ നന്ദി
mal_0201	mal	mal_0201.wav	ഈ സമയത്താണ് തന്റെ സാഹിത്യ ജീവിതം അദ്ദേഹം ആരംഭിക്കുന്നത്
mal_0202	mal	mal_0202.wav	ഇത് മലബാറിലെ ബ്രിട്ടീഷുകാരുടെ ഒരു പ്രധാന സൈനിക കേന്ദ്രമായി മാറി
mal_0203	mal	mal_0203.wav	ലേഖനത്തിലെ ഭാഷ എന്ന ഭാഗം മിക്കവാറും തിരുത്തി എഴുതിയിട്ടുണ്ട്
mal_0204	mal	mal_0204.wav	തെളിവ് ലേഖനത്തിന്റെ സംവാദം താളിൽ കാണുക
mal_0205	mal	mal_0205.wav	ചില സ്ഥലങ്ങളിൽ ഭരണകൂടം നേരിട്ട് കൃഷി നടത്തി
mal_0206	mal	mal_0206.wav	ഈ ക്ഷേത്രത്തിലെ പ്രധാന പ്രതിഷ്ഠ വിഷ്ണു ആണ്
mal_0207	mal	mal_0207.wav	ഓക്സിജൻ വളരെ ചെറിയ അളവിൽ ജലത്തിൽ ലയിക്കുന്നു
mal_0208	mal	mal_0208.wav	നാനാർത്ഥങ്ങൾ എന്ന പേരിൽ ഒരു ഫലകം നിലവിലുണ്ട്
mal_0209	mal	mal_0209.wav	അതിന്റെ മലയാളം പേർ ഞാൻ ചേർത്തു എന്നതു മാത്രമാണ് ഇവിടെ വരുത്തിയ വ്യത്യാസം
mal_0210	mal	mal_0210.wav	ഇങ്ങനെ ഒരു പട്ടിക കൊണ്ട് എന്തു ഗുണം
mal_0211	mal	mal_0211.wav	ഷിജു പറഞ്ഞ താളുകളിൽ മലയാളം ഇല്ല എന്നത് ശരി തന്നെ
mal_0212	mal	mal_0212.wav	ഞാൻ സ്വയം വരച്ച ചിത്രങ്ങൾ തന്നെയാണ്
mal_0213	mal	mal_0213.wav	ചെയ്തു കഴിഞ്ഞു എങ്കിലും ചിത്രങ്ങളുടെ കാറ്റഗറി യന്ത്രം ഉപയോഗിച്ച് മാറ്റം വരുന്നില്ല
mal_0214	mal	mal_0214.wav	കേരളത്തിലെ പക്ഷികൾ എന്ന വാക്കാൽ വിവക്ഷിക്കാവുന്ന ഒന്നിലധികം കാര്യങ്ങളുണ്ട്
mal_0215	mal	mal_0215.wav	താങ്കൾ എന്റെ സംവാദത്തിൽ ഇപ്പോൾ എഴുതിയത് ലേഖനത്തിന്റെ സംവാദം താളിൽ ഇടുക
mal_0216	mal	mal_0216.wav	സാംസ്കാരിക രംഗത്തും ഗണ്യമായ സംഭാവനകൾ നൽകിയിട്ടുണ്ട്
mal_0217	mal	mal_0217.wav	പ്രപഞ്ചത്തിൽ ഏറ്റവും കൂടുതലുള്ള മൂന്നാമത്തെ മൂലകമാണ് ഓക്സിജൻ
mal_0218	mal	mal_0218.wav	ഈ ക്ഷേത്രത്തിലെ പ്രതിഷ്ഠ കൃഷ്ണൻ ആണ്
mal_0219	mal	mal_0219.wav	ഇപ്പോൾ കേരള സാഹിത്യ അക്കാദമിയുടെ പ്രസിഡന്റ്
mal_0220	mal	mal_0220.wav	എന്ന വിഭാഗം ആവശ്യമില്ല എന്ന് തോന്നുന്നു
mal_0221	mal	mal_0221.wav	നീക്കം ചെയ്യരുത് എന്നതാണ് എന്റെ അഭിപ്രായം
mal_0222	mal	mal_0222.wav	സെന്റ് ജോർജ്ജ് ഫോർട്ട് എന്നായിരുന്നു അതിന്റെ പേർ
mal_0223	mal	mal_0223.wav	കനത്ത അക്ഷരങ്ങൾ നിരവധി തെളിവുകൾ ഉണ്ട് എന്ന് സൂചിപ്പിക്കുന്നു
mal_0224	mal	mal_0224.wav	അക്ബർ എന്ന വാക്കാൽ വിവക്ഷിക്കാവുന്ന ഒന്നിലധികം കാര്യങ്ങളുണ്ട്
mal_0225	mal	mal_0225.wav	അവയെക്കുറിച്ചറിയാൻ ക്ഷേത്രം നാനാർത്ഥങ്ങൾ എന്ന താൾ കാണുക
mal_0226	mal	mal_0226.wav	കൊല്ലം ജില്ലയിലെ ഒരു ചെറിയ ഗ്രാമമാണ്
mal_0227	mal	mal_0227.wav	അതിനെ വെറും ഫുട്ബോൾ എന്നല്ല അമേരിക്കൻ ഫുട്ബോൾ എന്നാണ് വിളിക്കുന്നത് തന്നെ
mal_0228	mal	mal_0228.wav	ഇത് അറബി ഭാഷയുടെ ഒരു പ്രത്യേകതയാണ്
mal_0229	mal	mal_0229.wav	മുഗൾ സാമ്രാജ്യത്തിന്റെ ഭാഗമായിരുന്ന ഹൈദരാബാദ് സ്വാതന്ത്ര്യം പ്രാപിച്ചു
mal_0230	mal	mal_0230.wav	പരിസ്ഥിതി പ്രശ്നങ്ങൾ ഇവിടെ ഇതുവരെ ഇല്ല
mal_0231	mal	mal_0231.wav	ചെയ്തു കഴിഞ്ഞു തലക്കെട്ട് മാറ്റി സാലിം അലി എന്നാക്കി
mal_0232	mal	mal_0232.wav	കുരുമുളക് എന്ന് രണ്ട് പേജുകൾ കാണപ്പെടുന്നു
mal_0233	mal	mal_0233.wav	കേരള സാഹിത്യ അക്കാദമി കേന്ദ്ര സാഹിത്യ അക്കാദമി പുരസ്കാരങ്ങൾ അദ്ദേഹത്തിനു ലഭിച്ചിട്ടുണ്ട്
mal_0234	mal	mal_0234.wav	മലയാളത്തിൽ എഴുതാൻ മൊഴി സോഫ്റ്റ്വെയറുകൾ ഉപയോഗിക്കാം
mal_0235	mal	mal_0235.wav	സ്വദേശം കേരളത്തിന്റെ സാംസ്കാരിക തലസ്ഥാനമായ തൃശൂർ
mal_0236	mal	mal_0236.wav	ക്ഷേത്രം എന്ന വാക്കാൽ വിവക്ഷിക്കാവുന്ന ഒന്നിലധികം കാര്യങ്ങളുണ്ട്
mal_0237	mal	mal_0237.wav	ഇടുക്കി ജില്ലയുടെ ഭാഗമായ ഒരു ചെറിയ പട്ടണമാണ് മൂന്നാർ
mal_0238	mal	mal_0238.wav	അത്തരം തെളിവുകൾ ഉള്ള ഭാഗമാണ് ഞാൻ നീക്കം ചെയ്തത്
mal_0239	mal	mal_0239.wav	രണ്ടു ലേഖനങ്ങളും രണ്ടായി തന്നെ മതി
mal_0240	mal	mal_0240.wav	മലയാളം വിക്കിപീഡിയയിൽ മലയാളത്തിൽ മാത്രം എഴുതുക
mal_0241	mal	mal_0241.wav	ഈ സാമ്രാജ്യത്തിന്റെ അതിർത്തി ഗംഗ ആണ്
mal_0242	mal	mal_0242.wav	ഇവയ്ക്ക് അവർ മഠം എന്നാണ് വിളിക്കുന്നത്
mal_0243	mal	mal_0243.wav	അതിൽ മിക്കവയും ഓരോ ചാറ്റ് പേജുകൾ ആണ്
mal_0244	mal	mal_0244.wav	രാജ്യത്തെ ഏറ്റവും വലിയ നഗരവും ഇത് തന്നെയാണ്
mal_0245	mal	mal_0245.wav	അവയെക്കുറിച്ചറിയാൻ അക്ബർ നാനാർത്ഥങ്ങൾ എന്ന താൾ കാണുക
mal_0246	mal	mal_0246.wav	ഈ താളിലെ സംവാദം ദയവായി ശ്രദ്ധിക്കുക
mal_0247	mal	mal_0247.wav	അതോടൊപ്പം ചെറിയൊരു കാര്യവും കൂടി പറയട്ടെ
mal_0248	mal	mal_0248.wav	രണ്ടാമത്തെ ഏറ്റവും കുറഞ്ഞ വാക്യങ്ങൾ ഉള്ള ലേഖനവും ഏറ്റവും കുറച്ചു വാക്കുകൾ ഉള്ള ലേഖനവും ഇതാണ്
mal_0249	mal	mal_0249.wav	വിക്കിയിൽ ആയുധങ്ങൾ സ്ഥലങ്ങൾ ഹൈന്ദവ ലേഖനങ്ങൾ എന്നിവ തർജ്ജമ ചെയ്യുന്നു
mal_0250	mal	mal_0250.wav	എനിക്ക് അടി തുടങ്ങാൻ താല്പര്യം ഇല്ല
mal_0251	mal	mal_0251.wav	ക്ഷേത്രം എന്ന വാക്കിനാൽ താഴെപ്പറയുന്ന എന്തിനേയും വിവക്ഷിക്കാം
mal_0252	mal	mal_0252.wav	കൂടാതെ മറ്റ് ധാരാളം വിദ്യാഭ്യാസ സ്ഥാപനങ്ങൾ ഇവിടെയുണ്ട്
mal_0253	mal	mal_0253.wav	ഈ ക്ഷേത്രത്തിലെ പ്രധാന പ്രതിഷ്ഠ ശ്രീ രാമൻ ആണെങ്കിലും ഈ ക്ഷേത്രം ഹനുമാൻ ക്ഷേത്രം എന്നാണ് പരക്കെ അറിയപ്പെടുന്നത്
mal_0254	mal	mal_0254.wav	ദില്ലി സംസ്ഥാനത്തെ മൂന്നു മേഖലകളിൽ ഒന്നാണ് ന്യൂ ഡെൽഹി
mal_0255	mal	mal_0255.wav	അതെ സാമ്പാർ എന്നു തന്നെയാണ് ശരിയായ ഉപയോഗം
mal_0256	mal	mal_0256.wav	താങ്കൾ ഉപയോഗിക്കുന്നത് വരമൊഴി എന്ന ഫോണ്ട് ആണെന്ന് കരുതുന്നു
mal_0257	mal	mal_0257.wav	ഇംഗ്ലീഷ് ഭാഷയിൽ ബിരുദാനന്തര ബിരുദം നേടിയിട്ടുണ്ട്
mal_0258	mal	mal_0258.wav	ഇത് ചാലക്കുടി പുഴയുടെ തീരത്താണ് സ്ഥിതിചെയ്യുന്നത്
mal_0259	mal	mal_0259.wav	കാരണം ഇപ്പോൾ തന്നെ ഇംഗ്ലീഷ് വിക്കിയിൽ ലോഗിൻ ചെയ്യാതെ താൾ സൃഷ്ടിക്കാൻ പറ്റില്ല
mal_0260	mal	mal_0260.wav	ഓട് എന്ന വാക്കിനാൽ താഴെപ്പറയുന്ന എന്തിനേയും വിവക്ഷിക്കാം
mal_0261	mal	mal_0261.wav	ഇവിടെയും താങ്കളുടെ നല്ല സംഭാവനകൾ ഏറെ പ്രതീക്ഷിക്കുന്നു
mal_0262	mal	mal_0262.wav	പൊതുവായ വിവരങ്ങൾ ഇവിടെ ഞെക്കിയാൽ കാണാം
mal_0263	mal	mal_0263.wav	കേരളത്തിലെ ഒരു ജില്ല തലസ്ഥാനം കോട്ടയം നഗരം
mal_0264	mal	mal_0264.wav	അതിനാൽ എന്റെ ജാതി എന്റെ ജോലി എന്റെ
mal_0265	mal	mal_0265.wav	കാരണം അദ്ദേഹം ഇതിന്റെ ഉസ്താദ് ആണ്
mal_0266	mal	mal_0266.wav	സംസ്ഥാനത്തെ രണ്ടാമത്തെ വലിയ പട്ടണമാണ് മൈസൂർ
mal_0267	mal	mal_0267.wav	അവയെക്കുറിച്ചറിയാൻ മൂലം നാനാർത്ഥങ്ങൾ എന്ന താൾ കാണുക
mal_0268	mal	mal_0268.wav	എല്ലാ താളുകളും ഇന്നു രാത്രിയിൽ മാറ്റാം
mal_0269	mal	mal_0269.wav	മൂവാറ്റുപുഴ കേരളത്തിലെ ഒരു പ്രധാന പട്ടണമാണ്
mal_0270	mal	mal_0270.wav	പഴയ തിരുവിതാംകൂർ രാജ്യത്തിന്റെ ഭാഗമായിരുന്നു കോട്ടയം ജില്ലയുടെ ഭാഗങ്ങൾ
mal_0271	mal	mal_0271.wav	ഈ ലേഖനം അരി എന്ന താളുമായി ലയിപ്പിക്കുന്നതിന് ശുപാർശ ചെയ്തിരിക്കുന്നു
mal_0272	mal	mal_0272.wav	എല്ലാ വർഷവും ഫെബ്രുവരി മാർച്ച് കാലയളവിൽ ആണ് ഈ ഉത്സവം നടക്കുന്നത്
mal_0273	mal	mal_0273.wav	യഥാർത്ഥ നാമം അല്ലേ ഇംഗ്ലീഷ് വിക്കിയിൽ
mal_0274	mal	mal_0274.wav	ഈ ക്ഷേത്രത്തിലെ പ്രതിഷ്ഠ മഹാവിഷ്ണു ആണ്
mal_0275	mal	mal_0275.wav	ഇതിൽ ഏതു വേണം എന്നൊരു ചർച്ച ഇവിടെ നടക്കുന്നുണ്ട്
mal_0276	mal	mal_0276.wav	ആദ്യ കാലത്ത് ഹിന്ദി ചിത്രങ്ങൾ മാത്രമാണ് വിതരണം ചെയ്തിരുന്നത്
mal_0277	mal	mal_0277.wav	ഞാൻ ആ ലേഖനത്തിൽ ഒന്നും കാര്യമായി ചെയ്തിട്ടില്ല
mal_0278	mal	mal_0278.wav	ഓട് എന്ന വാക്കാൽ വിവക്ഷിക്കാവുന്ന ഒന്നിലധികം കാര്യങ്ങളുണ്ട്
mal_0279	mal	mal_0279.wav	ഇംഗ്ലീഷ് വിക്കിയിലെ നയം വളരെ കൃത്യമായി പറയുന്നു
mal_0280	mal	mal_0280.wav	സിമി ഇതു പാലക്കാട് ജില്ലയിൽ ഉള്ള ഒരു ഡാം ആണ്
mal_0281	mal	mal_0281.wav	എതിർക്കുന്നു മേൽ പറഞ്ഞ കാരണം തന്നെ
mal_0282	mal	mal_0282.wav	ലേഖനം നല്ല ഒരു ആശയം ആണ്
mal_0283	mal	mal_0283.wav	മൈസൂർ എന്ന വാക്കിനാൽ താഴെപ്പറയുന്ന എന്തിനേയും വിവക്ഷിക്കാം
mal_0284	mal	mal_0284.wav	അലി ആണ് ഇവിടെ നിന്നുള്ള പ്രതിനിധി
mal_0285	mal	mal_0285.wav	സൂര്യൻ എന്ന നക്ഷത്രം എന്ന വിഷയത്തെക്കുറിച്ച് അറിയണമെങ്കിൽ സൂര്യൻ എന്ന താൾ കാണുക
mal_0286	mal	mal_0286.wav	കോട്ടയം എന്ന വാക്കിനാൽ താഴെപ്പറയുന്ന എന്തിനേയും വിവക്ഷിക്കാം
mal_0287	mal	mal_0287.wav	വിക്കിയിൽ നമ്മൾ ഒരു താൾ ഉണ്ടാക്കി കഴിഞ്ഞാൽ ആ പേരു മാത്രമല്ല ലേഖനത്തിലേക്ക് പോകാൻ ഉപയോഗിക്കുക
mal_0288	mal	mal_0288.wav	വിക്കിപീഡിയയിലേക്ക് ലേഖനങ്ങളിൽ ഉപയോഗിക്കുവാൻ അനുയോജ്യമായ ഫയലുകൾ മാത്രം അപ്ലോഡ് ചെയ്യുക
mal_0289	mal	mal_0289.wav	വരെ കോഴിക്കോട് ചേര സാമ്രാജ്യത്തിന്റെ കീഴിലായിരുന്നു
mal_0290	mal	mal_0290.wav	ഇതിന്റെ നീളം ഏകദേശം ഒരു മീറ്റർ കാണും
mal_0291	mal	mal_0291.wav	ഈ വിഭാഗത്തിലെ പ്രധാന ലേഖനം വൃത്തം
mal_0292	mal	mal_0292.wav	അവയെക്കുറിച്ചറിയാൻ ഓട് നാനാർത്ഥങ്ങൾ എന്ന താൾ കാണുക
mal_0293	mal	mal_0293.wav	മുഹമ്മദ് ഖുർആനിലെ മുഹമ്മദ് എന്ന അദ്ധ്യായം
mal_0294	mal	mal_0294.wav	മൂലം എന്ന വാക്കാൽ വിവക്ഷിക്കാവുന്ന ഒന്നിലധികം കാര്യങ്ങളുണ്ട്
mal_0295	mal	mal_0295.wav	പ്രതിഷ്ഠ എന്ന വാക്കാൽ വിവക്ഷിക്കാവുന്ന ഒന്നിലധികം കാര്യങ്ങളുണ്ട്
mal_0296	mal	mal_0296.wav	പത്തൊമ്പതാം നൂറ്റാണ്ടിൽ തിരുവിതാംകൂർ ഭരിച്ചിരുന്ന രാജാവ്
mal_0297	mal	mal_0297.wav	സിറിയൻ മലബാർ ക്രിസ്ത്യാനികൾ സെന്റ് തോമസ് ക്രിസ്ത്യാനികൾ സുറിയാനി ക്രിസ്ത്യാനികൾ എന്ന പല പേരുകളിൽ ഇവർ അറിയപ്പെടുന്നു
mal_0298	mal	mal_0298.wav	അനുകൂലിക്കുന്നു വളരെ നല്ല ചിത്രം തന്നെ
mal_0299	mal	mal_0299.wav	ഇക്കാര്യത്തിൽ എന്റെ എളിയ നിർദ്ദേശം ഇതാണ്
mal_0300	mal	mal_0300.wav	മൈസൂർ കർണാടക സംസ്ഥാനത്തെ ഒരു പട്ടണം
mal_0301	mal	mal_0301.wav	എന്താണ് ഈ പരിപാടി എന്നു മനസ്സിലായില്ല
mal_0302	mal	mal_0302.wav	പത്താം വയസിൽ ശാസ്ത്രീയ സംഗീതം അഭ്യസിച്ചു തുടങ്ങി
mal_0303	mal	mal_0303.wav	അവർ ഇവിടെ ഒരു കോട്ട പണിതു
mal_0304	mal	mal_0304.wav	ഇക്കാലത്ത് കോഴിക്കോട് സാമൂതിരി രാജാക്കന്മാരുടെ ഭരണത്തിൻ കീഴിലായിരുന്നു
mal_0305	mal	mal_0305.wav	സ്റ്റേറ്റ് ബാങ്ക് ഓഫ് ഇന്ത്യയുടെ ഒരു വലിയ ശാഖ ഫോർട്ട് റോഡിൽ ഉണ്ട്
mal_0306	mal	mal_0306.wav	താങ്കൾ വിവർത്തനം ചെയ്യുന്ന പദങ്ങൾ ഇവിടെ അല്ലെങ്കിൽ ഇവിടെ എഴുതാം
mal_0307	mal	mal_0307.wav	അവയെക്കുറിച്ചറിയാൻ പ്രതിഷ്ഠ നാനാർത്ഥങ്ങൾ എന്ന താൾ കാണുക
mal_0308	mal	mal_0308.wav	വിക്ടർ എന്ന ഉച്ചാരണം ഫ്രഞ്ച് അല്ല
mal_0309	mal	mal_0309.wav	വൃത്തം എന്ന വാക്കിനാൽ താഴെപ്പറയുന്ന എന്തിനേയും വിവക്ഷിക്കാം
mal_0310	mal	mal_0310.wav	നഗരത്തിലെ ഏറ്റവും പ്രശസ്തമായ വിനോദസഞ്ചാര കേന്ദ്രങ്ങളിൽ ഒന്ന്
mal_0311	mal	mal_0311.wav	ഞാൻ ഹിന്ദി ബംഗാളി എന്നീ ഭാഷകളും താരതമ്യം ചെയ്തു
mal_0312	mal	mal_0312.wav	നമുക്ക് എഡിറ്റു ചെയ്യുമ്പോൾ നോക്കി ചെയ്യാനും സാധിക്കും
mal_0313	mal	mal_0313.wav	ഇതു കൊണ്ട് നല്ല ഉപയോഗം ഉണ്ട്
mal_0314	mal	mal_0314.wav	വാൻ എന്ന സ്ഥലത്ത് വച്ച് നടന്ന ഇതിനെ വാൻ പ്രതിരോധം എന്നാണ് വിളിച്ചിരുന്നത്
mal_0315	mal	mal_0315.wav	കണ്ണൂർ കോട്ട എന്നും ഈ കോട്ട അറിയപ്പെടുന്നു
mal_0316	mal	mal_0316.wav	ഇപ്പോൾ പാർട്ടി സംസ്ഥാന സമിതി അംഗമാണ്
mal_0317	mal	mal_0317.wav	ഇതിൽ കൂടുതലും ഗൾഫ് മേഖലയിൽ ആണ്
mal_0318	mal	mal_0318.wav	പിറന്നാൾ സമിതി നല്ലൊരു ആശയം തന്നെ
mal_0319	mal	mal_0319.wav	കർണാടക സംസ്ഥാനത്തിന്റെ പഴയ പേര് മൈസൂർ എന്നായിരുന്നു
mal_0320	mal	mal_0320.wav	അവസാന വാക്ക് ആരോ അവർ ആണ് നമ്പൂതിരി
mal_0321	mal	mal_0321.wav	ആർ നായർ എന്ന പേരാണ് ഉപയോഗിച്ചിരുന്നത്
mal_0322	mal	mal_0322.wav	കാർത്തിക നാൾ മുതൽ എട്ടു ദിവസം നടത്തുന്നു
mal_0323	mal	mal_0323.wav	സി ഭാഷ സ്വാധീനം ചെലുത്തിയ മറ്റു കമ്പ്യൂട്ടർ ഭാഷകൾ ഇവയാണ്
mal_0324	mal	mal_0324.wav	വോട്ടെടുപ്പ് ആകാം എന്നൊരു യൂസർ പറഞ്ഞതു ശ്രദ്ധിച്ചിരുന്നു
mal_0325	mal	mal_0325.wav	അത് ഞാൻ ഓർത്തഡോക്സ് സഭകൾ എന്ന ലേഖനത്തിൽ കൊടുത്തിട്ടുണ്ട്
mal_0326	mal	mal_0326.wav	കേരളത്തിൽ ഇടുക്കി ജില്ലയിലെ ഒരു ഗ്രാമമാണ്
mal_0327	mal	mal_0327.wav	അതാണ് ഏറ്റവും കൂടുതൽ ഉപയോഗിക്കപ്പെടുന്ന പൂവ് എന്നു തോന്നുന്നു
mal_0328	mal	mal_0328.wav	എന്ന് താങ്കൾ മരണം എന്ന താളിൽ എഴുതിയത് നീക്കം ചെയ്തിരിക്കുന്നു
mal_0329	mal	mal_0329.wav	മറാഠി എന്ന വാക്കാൽ വിവക്ഷിക്കാവുന്ന ഒന്നിലധികം കാര്യങ്ങളുണ്ട്
mal_0330	mal	mal_0330.wav	നീലഗിരി ജില്ലയിലെ കൃഷി മൊത്തത്തിൽ രണ്ടായി തരം തിരിക്കാം
mal_0331	mal	mal_0331.wav	അതിൽ എന്നോട് ഫലകം മാറ്റാൻ പറഞ്ഞു
mal_0332	mal	mal_0332.wav	നായർ എന്നു പറയുന്നത് കേരളത്തിലെ ഒരു ജാതി സമൂഹത്തിന്റെ പേർ ആണ്
mal_0333	mal	mal_0333.wav	കോട്ടയം ജില്ലയിലെ ഒരു ഗ്രാമമാണ് നെടുംകുന്നം
mal_0334	mal	mal_0334.wav	ക്രമേണ ഈ അവയവം പൂർണ്ണ രൂപം പ്രാപിച്ചു
mal_0335	mal	mal_0335.wav	മലബാർ പ്രദേശങ്ങളിൽ മാപ്പിള എന്നും ഉപയോഗിച്ചു കാണാറുണ്ട്
mal_0336	mal	mal_0336.wav	സേലം ജില്ലയുടെ ആസ്ഥാനം സേലം നഗരം
mal_0337	mal	mal_0337.wav	അതായത് ഒന്നിൽ കൂടുതൽ ഉണ്ട് അഥവാ രണ്ട് ഉണ്ട്
mal_0338	mal	mal_0338.wav	ബാക്കി ഒക്കെ മുൻപ് പറഞ്ഞത് തന്നെ
mal_0339	mal	mal_0339.wav	പി ഒ സി ബൈബിൾ ആണു ഒന്നു
mal_0340	mal	mal_0340.wav	അതുപോലെ മംഗലം നദി ആണോ മംഗളം നദി ആണോ ശരി
mal_0341	mal	mal_0341.wav	അങ്ങനെ ഒരു വഴി ഉള്ളതായി അറിവില്ല
mal_0342	mal	mal_0342.wav	അവയെക്കുറിച്ചറിയാൻ സുന്നത്ത് നാനാർത്ഥങ്ങൾ എന്ന താൾ കാണുക
mal_0343	mal	mal_0343.wav	ചില പ്രദേശങ്ങൾ മാത്രം അതും കുറച്ചു കാലം
mal_0344	mal	mal_0344.wav	ദേവൻ എന്ന ഒരു താൾ നിലവിലുണ്ട്
mal_0345	mal	mal_0345.wav	യാക്കോബായ എന്ന പ്രയോഗം സാധാരണയായി സുറിയാനി ഓർത്തഡോക്സ് സഭയെ വിളിച്ചു വരുന്ന പേരാണ്
mal_0346	mal	mal_0346.wav	എന്നാൽ സിമി ഒന്നു ശ്രമിച്ചു നോക്കൂ
mal_0347	mal	mal_0347.wav	എന്റെ ഇംഗ്ലീഷ് വിക്കിപീഡിയ താൾ ഇവിടെ ലഭ്യമാണ്
mal_0348	mal	mal_0348.wav	പക്ഷെ അപ്പോൾ ഒരു പ്രശ്നം ഉണ്ട്
mal_0349	mal	mal_0349.wav	മധു അഭിനയിച്ച ചലച്ചിത്രം ആണ് ഹൃദയം ഒരു ക്ഷേത്രം
mal_0350	mal	mal_0350.wav	ഷിജു ഞാൻ എന്നെ തന്നെ മറന്നു പോകുന്നു
mal_0351	mal	mal_0351.wav	സുന്നത്ത് എന്ന വാക്കാൽ വിവക്ഷിക്കാവുന്ന ഒന്നിലധികം കാര്യങ്ങളുണ്ട്
mal_0352	mal	mal_0352.wav	അവയെക്കുറിച്ചറിയാൻ മുസ്ലിം നാനാർത്ഥങ്ങൾ എന്ന താൾ കാണുക
mal_0353	mal	mal_0353.wav	അവയെക്കുറിച്ചറിയാൻ മറാഠി നാനാർത്ഥങ്ങൾ എന്ന താൾ കാണുക
mal_0354	mal	mal_0354.wav	ഫുട്ബോൾ കളി ഒരുപാട് തരത്തിൽ ഉണ്ട്
mal_0355	mal	mal_0355.wav	ഭൂമിയിൽ ഏറ്റവും കൂടുതലായി കാണപ്പെടുന്ന ലോഹമാണ് ഇരുമ്പ്
mal_0356	mal	mal_0356.wav	അതിനുശേഷം താങ്കൾക്ക് ചിത്രം അപ്ലോഡ് ചെയ്യാൻ സാധിക്കും
mal_0357	mal	mal_0357.wav	ഇനിയും ഒരുപാട് നല്ല ലേഖനങ്ങൾ പ്രതീക്ഷിക്കുന്നു
mal_0358	mal	mal_0358.wav	രാജ്യത്തിന്റെ സാംസ്കാരിക കേന്ദ്രമാണ് ഈ പ്രദേശം
mal_0359	mal	mal_0359.wav	ഒരു പൊതുവായ പേരാണ് സാമാന്യ നാമം
mal_0360	mal	mal_0360.wav	സുറിയാനി എന്ന വാക്കിനാൽ താഴെപ്പറയുന്ന എന്തിനേയും വിവക്ഷിക്കാം
mal_0361	mal	mal_0361.wav	കേരളത്തിന്റെ മുൻ മുഖ്യമന്ത്രി ആയിരുന്ന കെ
mal_0362	mal	mal_0362.wav	എന്നിട്ട് ലൈസൻസ് ഭാഗം അപ്പാടെ നീക്കി ഇത് കൊടുക്കുക
mal_0363	mal	mal_0363.wav	പുതിയ ലേഖനം തുടങ്ങാൻ ലേഖനം തുടങ്ങുക എന്ന ലിങ്ക് ഞെക്കി തുടങ്ങിയാൽ മതി
mal_0364	mal	mal_0364.wav	വേറെ ഒന്നും എനിക്ക് അവതരിപ്പിക്കാൻ തോന്നുന്നില്ല
mal_0365	mal	mal_0365.wav	ഇത് പുരാതന കാലം മുതലേ ഉണ്ടായിരുന്നു
mal_0366	mal	mal_0366.wav	ചിത്രത്തിന്റെ കാര്യത്തിൽ ഒരു ചർച്ച വേണമെന്നു തോന്നി അതിനാലാണ് നീക്കം ചെയ്തത്
mal_0367	mal	mal_0367.wav	ജുമുഅ മുസ്ലിം എന്ന വാക്കാൽ വിവക്ഷിക്കാവുന്ന ഒന്നിലധികം കാര്യങ്ങളുണ്ട്
mal_0368	mal	mal_0368.wav	അതിനാൽ മലയാളം വിക്കിയിൽ പ്രത്യേകമായി ഈ ചിത്രങ്ങൾ അപ്ലോഡ് ചെയ്യേണ്ട ആവശ്യം ഇല്ല
mal_0369	mal	mal_0369.wav	അവിടെ ആരും തെറ്റ് എന്നൊന്നും പറഞ്ഞിട്ടില്ല
mal_0370	mal	mal_0370.wav	ഏറ്റവും കൂടുതലായി ഉപയോഗിക്കുന്ന ലോഹമാണ് ഇരുമ്പ്
mal_0371	mal	mal_0371.wav	എന്നാൽ അതു മാത്രമല്ല അതിന്റെ ഉദ്ദേശ്യം
mal_0372	mal	mal_0372.wav	മറാഠി എന്ന വാക്കിനാൽ താഴെപ്പറയുന്ന എന്തിനേയും വിവക്ഷിക്കാം
mal_0373	mal	mal_0373.wav	പ്രിയ സുഹൃത്തേ താങ്കൾ ഈ താളിൽ നൽകിയ മറുപടി ശ്രദ്ധിച്ചു
mal_0374	mal	mal_0374.wav	ലേഖനങ്ങൾ ഇനിയും നന്നാക്കാൻ ശ്രമിക്കാം ജസീം
mal_0375	mal	mal_0375.wav	അവയെക്കുറിച്ചറിയാൻ നിറം നാനാർത്ഥങ്ങൾ എന്ന താൾ കാണുക
mal_0376	mal	mal_0376.wav	ഇപ്പോൾ വളരെയധികം ചിത്രങ്ങൾ ഓരോ ദിവസവും വരുന്നുണ്ട്
mal_0377	mal	mal_0377.wav	ഇങ്ങനെ നോക്കിയാൽ ഫ്ലൂറിൻ ഉൾക്കൊള്ളുന്ന വളരെയധികം സംയുക്തങ്ങൾ ഉണ്ടാകാം
mal_0378	mal	mal_0378.wav	അതുകൊണ്ട് തലക്കെട്ട് മാറ്റണം എന്നാണെന്റെ അഭിപ്രായം
mal_0379	mal	mal_0379.wav	കൂടുതലും അറബി നാമങ്ങൾ ആയിരുന്നു ഉപയോഗിച്ചിരുന്നത്
mal_0380	mal	mal_0380.wav	അതു വളരെ നല്ല ആശയം തന്നെ
mal_0381	mal	mal_0381.wav	ദൈവത്തിന്റെ അമ്മ എന്നാണ് ഈ പദങ്ങളുടെ അർത്ഥം
mal_0382	mal	mal_0382.wav	ഇത് ചിലത് ഭരണകൂടം നേരിട്ട് നടത്തി
mal_0383	mal	mal_0383.wav	കേരള സംഗീതത്തിന്റെ ചക്രവർത്തി എന്നു അറിയപ്പെടുന്നു
mal_0384	mal	mal_0384.wav	ഈ വാക്യം തിരുത്തി എഴുതണം എന്ന് താല്പര്യം
mal_0385	mal	mal_0385.wav	ഇതിനു പുറമെ ഒട്ടേറെ പുരസ്കാരങ്ങൾ ലഭിച്ചിട്ടുണ്ട്
mal_0386	mal	mal_0386.wav	ഇപ്പോൾ കേരളത്തിലെ മറ്റ് ഏഴ് ജില്ലകളിൽ കൂടി ഈ പദ്ധതി നിലവിലുണ്ട്
mal_0387	mal	mal_0387.wav	ഇവിടത്തെ പ്രധാന ഉത്സവം ഓണം ആണ്
mal_0388	mal	mal_0388.wav	ഇതിനു ഹീലിയം ഫ്ലാഷ് എന്നു പറയുന്നു
mal_0389	mal	mal_0389.wav	പക്ഷേ ഈ ലേഖനം മലയാളം വിക്കിയിൽ വേണമെന്ന് വളരെ ശക്തമായി ഞാൻ അഭിപ്രായപ്പെടുന്നു
mal_0390	mal	mal_0390.wav	ചുരുക്കത്തിൽ ഇന്റർനെറ്റിൽ നിന്ന് അടിച്ചു മാറ്റി അപ്ലോഡ് ചെയ്യരുത്
mal_0391	mal	mal_0391.wav	ഈ നിയമങ്ങൾ ശരിയാണോ എന്നു സംശയം
mal_0392	mal	mal_0392.wav	കൂടുതലായും സംസ്കൃതം ആയിരുന്നു ഇങ്ങനെ ഉപയോഗിച്ചിരുന്നത്
mal_0393	mal	mal_0393.wav	ബോട്ടുകൾ വിക്കി എഡിറ്റുകൾ നടത്തുന്ന ചില പ്രോഗ്രാമുകൾ ആണ്
mal_0394	mal	mal_0394.wav	അതു കൊണ്ട് അത് നീക്കം ചെയ്തിട്ടുണ്ട്
mal_0395	mal	mal_0395.wav	അദ്ദേഹം മദീനയിൽ ഒരു പള്ളി സ്ഥാപിച്ചു
mal_0396	mal	mal_0396.wav	അത് കൊണ്ട് ഇത് ഒരു നല്ല നീക്കം തന്നെ
mal_0397	mal	mal_0397.wav	ഇതൊക്കെ എങ്ങനെ കൈകാര്യം ചെയ്യാം എന്നതിൽ ഒരു ചർച്ച ആവശ്യമാണ്
mal_0398	mal	mal_0398.wav	പണ്ട് ഇവരുടെ മനസ്സ് അറിയാൻ വേണ്ടി പണ്ട് ഞാൻ രണ്ട് താൾ ഉണ്ടാക്കി
mal_0399	mal	mal_0399.wav	പ്രത്യേകിച്ച് ഒരു അഭിപ്രായം എനിക്ക് തോന്നുന്നില്ല
mal_0400	mal	mal_0400.wav	എന്നിട്ട് അത് ചെയ്ത ഉപയോക്താവിന്റെ സംവാദം താളിൽ ഒരു സന്ദേശം നൽകുക
mal_0401	mal	mal_0401.wav	സതി എന്ന വാക്കിനാൽ താഴെപ്പറയുന്ന എന്തിനേയും വിവക്ഷിക്കാം
mal_0402	mal	mal_0402.wav	ഉദാ ഉപ്പ് നാനാർത്ഥങ്ങൾ ഉപ്പ് കവിത എന്നീ താളുകൾ കാണുക
mal_0403	mal	mal_0403.wav	ഇത് ഇന്ത്യൻ ഓർത്തഡോക്സ് സഭയും മലങ്കര സുറിയാനി ഓർത്തഡോക്സ് സഭയും ഉപയോഗിക്കുന്നു
mal_0404	mal	mal_0404.wav	പ്രപഞ്ചത്തിൽ ഏറ്റവും കൂടുതൽ കാണപ്പെടുന്ന മൂലകമാണ് ഹൈഡ്രജൻ
mal_0405	mal	mal_0405.wav	അതിനാൽ ഇക്കാര്യത്തിൽ വ്യക്തമായ ഒരു നയം ആവശ്യമാണ്
mal_0406	mal	mal_0406.wav	ലിജു ദയവായി എല്ലാ ലേഖനങ്ങളും ശരിയായ റെഫറൻസ് കൊടുത്ത് ചെയ്യുക
mal_0407	mal	mal_0407.wav	ബുദ്ധൻ എന്ന വാക്കിനാൽ താഴെപ്പറയുന്ന എന്തിനേയും വിവക്ഷിക്കാം
mal_0408	mal	mal_0408.wav	തൃശ്ശൂർ എന്നാൽ ആ പട്ടണം ആണ് നമ്മൾ ഉദ്ദേശിക്കുന്നത്
mal_0409	mal	mal_0409.wav	ചിത്രം അപ്ലോഡ് ചെയ്യാൻ ഇനിയും സാധിക്കും
mal_0410	mal	mal_0410.wav	ഇതു ചന്ദ്രനിൽ നിന്നു കാണാൻ പറ്റുമോ എന്ന് എനിക്കും ഇപ്പോൾ സംശയം ആയി
mal_0411	mal	mal_0411.wav	തെളിവ് ചേർത്തത് വലിയ പ്രശ്നം കാണുന്നില്ല
mal_0412	mal	mal_0412.wav	ഇനി ഈ പ്രവർത്തനം കുറച്ചു വേഗത്തിൽ ചെയ്യുക
mal_0413	mal	mal_0413.wav	ഇത് എന്താണെന്ന് കൂടി എഴുതിയാൽ നന്നായിരുന്നു
mal_0414	mal	mal_0414.wav	വാസുദേവൻ നായർ എഴുതിയ മലയാള നോവൽ
mal_0415	mal	mal_0415.wav	നിറം എന്ന വാക്കാൽ വിവക്ഷിക്കാവുന്ന ഒന്നിലധികം കാര്യങ്ങളുണ്ട്
mal_0416	mal	mal_0416.wav	മലയാളത്തിലെ എഴുതാൻ വരമൊഴി മൊഴി മുതലായവ ഉപയോഗിക്കുക
mal_0417	mal	mal_0417.wav	ഇങ്ങനെ ഒരു ലേഖനം വേണ്ട എന്നാണ് അഭിപ്രായം
mal_0418	mal	mal_0418.wav	ഇവിടത്തെ പ്രധാന കൃഷി റബ്ബർ ആണ്
mal_0419	mal	mal_0419.wav	സ്വാമി ഇരിക്കുന്ന രൂപത്തിൽ ആണ് പ്രതിമ നിർമ്മിച്ചിരിക്കുന്നത്
mal_0420	mal	mal_0420.wav	ഈ ലേഖനം ബ്ലൂ റേ എന്ന താളുമായി ലയിപ്പിക്കുന്നതിന് ശുപാർശ ചെയ്തിരിക്കുന്നു
mal_0421	mal	mal_0421.wav	പക്ഷേ ഇത്തരം പൊതുവായ വിഷയങ്ങളിൽ വിശാലമായ രീതിയിൽ വരണം
mal_0422	mal	mal_0422.wav	അന്ന് എന്റെ കയ്യിൽ അതിനുള്ള റഫറൻസ് ഇല്ലായിരുന്നു
mal_0423	mal	mal_0423.wav	തെക്കേ ഇന്ത്യയിലെ ഏറ്റവും പ്രശസ്തമായ ഗണപതി ക്ഷേത്രങ്ങളിൽ ഒന്നാണ് ഇത്
mal_0424	mal	mal_0424.wav	വിക്കിയിൽ ചിത്രങ്ങൾ എങ്ങനെ അപ്ലോഡ് ചെയ്യും
mal_0425	mal	mal_0425.wav	അതിൽ ഒരു കാരണം ഞാൻ പറയാം
mal_0426	mal	mal_0426.wav	താങ്കളുടെ ആദ്യ പരീക്ഷണം വളരെ വിജയകരമായിരുന്നു
mal_0427	mal	mal_0427.wav	ഇന്ത്യയുടെ വ്യാവസായിക തലസ്ഥാനം എന്ന പേരിലും അറിയപ്പെടുന്നു
mal_0428	mal	mal_0428.wav	അദ്ദേഹത്തിന്റെ ചില പുസ്തകങ്ങൾ ഇവിടെ ചേർക്കുന്നു
mal_0429	mal	mal_0429.wav	ഈ ലേഖനം ബൈബിൾ എന്ന ലേഖനവുമായി ലയിപ്പിക്കാൻ ശുപാർശ ചെയ്തിരിക്കുന്നു
mal_0430	mal	mal_0430.wav	പിന്നീട് ആ പടം ലിങ്ക് ചെയ്താൽ മതി
mal_0431	mal	mal_0431.wav	എന്റെ കയ്യിൽ അത്തരം പേരിലുള്ള ഒന്നും ഇല്ല
mal_0432	mal	mal_0432.wav	ന്യായം എന്ന വാക്കിനാൽ താഴെപ്പറയുന്ന എന്തിനേയും വിവക്ഷിക്കാം
mal_0433	mal	mal_0433.wav	മുഹമ്മദ് പേര് മുഹമ്മദ് എന്ന പേര്
mal_0434	mal	mal_0434.wav	അറിവു നൽകുന്ന സംവാദങ്ങൾ വിക്കിയിൽ ആവശ്യമുണ്ട്
mal_0435	mal	mal_0435.wav	ചിത്രത്തിനു അനുയോജ്യമായ ഒരു പേരു കൊടുക്കുക
mal_0436	mal	mal_0436.wav	അതു കൊണ്ട് നാലു വർഷത്തിൽ ഒരിക്കൽ ഫെബ്രുവരി മാസത്തിൽ ഒരു ദിവസം അധികം ചേർക്കുന്നു
mal_0437	mal	mal_0437.wav	സിമി ഇതു മംഗലം ഡാം ആണ്
mal_0438	mal	mal_0438.wav	കൂടുതൽ വിവരങ്ങൾ ഈ താളിൽ നിന്നു ലഭിക്കും
mal_0439	mal	mal_0439.wav	ഈ ലേഖനം ഇസ്ലാം എന്ന താളുമായി ലയിപ്പിക്കുന്നതിന് ശുപാർശ ചെയ്തിരിക്കുന്നു
mal_0440	mal	mal_0440.wav	ജോൺ നേതൃത്വം നൽകിയ മന്ത്രിസഭ നിലവിൽ വന്നു
mal_0441	mal	mal_0441.wav	ഏറ്റവും അടുത്ത പട്ടണം കോഴിക്കോട് പട്ടണമാണ്
mal_0442	mal	mal_0442.wav	ഞാൻ കുറച്ച് മലയാള കവിതകൾ എഴുതിയിട്ടുണ്ട്
mal_0443	mal	mal_0443.wav	ഒട്ടനവധി കമ്യൂണിസ്റ്റ് തൊഴിലാളി നേതാക്കൾ ഉയർന്നു വന്നിട്ടുണ്ട്
mal_0444	mal	mal_0444.wav	പ്രവീൺ ഇന്ന് നല്ല ഒരു പരിപാടി ചെയ്തു
mal_0445	mal	mal_0445.wav	അവയെക്കുറിച്ചറിയാൻ മധു നാനാർത്ഥങ്ങൾ എന്ന താൾ കാണുക
mal_0446	mal	mal_0446.wav	ഒന്നുകിൽ സത്യവേദപുസ്തകം എന്നു പറയും അല്ലെങ്കിൽ ബൈബിൾ എന്നു തന്നെ പറയും
mal_0447	mal	mal_0447.wav	അതിനു ഉത്തമ ഉദാഹരണം മലയാളം വിക്കിയിൽ ഈ അടുത്ത് ഉണ്ടായി
mal_0448	mal	mal_0448.wav	എനിക്ക് കൂടുതൽ അതിനെ കുറിച്ച് അറിയില്ല
mal_0449	mal	mal_0449.wav	സിമി അവിടെ കുറച്ചു എഴുതുകയും ചെയ്തിരുന്നു
mal_0450	mal	mal_0450.wav	എന്തെങ്കിലും തെറ്റുകൾ കണ്ടാൽ ദയവായി പറയുക
mal_0451	mal	mal_0451.wav	ലോകത്ത് ഇരുമ്പ് കഴിഞ്ഞാൽ ഏറ്റവും കൂടുതലായി ഉപയോഗിക്കുന്ന ലോഹമാണ് അലൂമിനിയം
mal_0452	mal	mal_0452.wav	താങ്കളെ വിക്കിപീഡിയയിലേക്ക് വീണ്ടും സ്വാഗതം ചെയ്യുന്നു
mal_0453	mal	mal_0453.wav	സംസ്കൃത സാഹിത്യത്തിൽ ബിരുദാനന്തര ബിരുദവും നേടിയിട്ടുണ്ട് അദ്ദേഹം
mal_0454	mal	mal_0454.wav	എറണാകുളം ജില്ലയിലെ ഒരു സ്ഥലത്തു നിന്നു വരുന്നു
mal_0455	mal	mal_0455.wav	വിക്കിയിലെ ലേഖനത്തിലും ഉണ്ട് വിമർശനങ്ങൾ അത് മൊഴി മാറ്റം ചെയ്താൽ മതിയാവും
mal_0456	mal	mal_0456.wav	കോട്ടയം ജില്ലയിലെ ഒരു പ്രധാന പട്ടണം ആണ് വൈക്കം
mal_0457	mal	mal_0457.wav	മുരളി എന്ന പേരിലാണ് സാധാരണ അറിയപ്പെടുന്നത്
mal_0458	mal	mal_0458.wav	അവിടെ ഞെക്കി പുതിയ ഫലകം തുടങ്ങാം
mal_0459	mal	mal_0459.wav	മധുര തമിഴ്നാട്ടിലെ ഒരു വലിയ പട്ടണമാണ്
mal_0460	mal	mal_0460.wav	കൂടുതൽ വിവരങ്ങൾ ഇവിടെ നിന്നു ലഭിക്കും
mal_0461	mal	mal_0461.wav	മദ്ദളം എന്ന വാക്കിനാൽ താഴെപ്പറയുന്ന എന്തിനേയും വിവക്ഷിക്കാം
mal_0462	mal	mal_0462.wav	എന്തായാലും മലയാളം വിക്കിക്ക് നല്ല ഒരു ഉപകരണം കൂടി
mal_0463	mal	mal_0463.wav	പക്ഷെ അതിനെ കുറിച്ച് എനിക്കു ഒട്ടും അറിവില്ല
mal_0464	mal	mal_0464.wav	എല്ലായിടത്തും ഈ രീതി തന്നെ കാണുന്നു
mal_0465	mal	mal_0465.wav	അതിന്റെ സംവാദ താളിൽ എങ്ങനെ ചേർക്കണം എന്നു വിശദമായി നൽകിയിട്ടുണ്ട്
mal_0466	mal	mal_0466.wav	ഭാരതപ്പുഴയുടെ തീരത്ത് സ്ഥിതി ചെയ്യുന്ന പട്ടണമാണ് ഒറ്റപ്പാലം
mal_0467	mal	mal_0467.wav	അവിടത്തെ ഫയൽ നെയിം ഇവിടെയും ഉപയോഗിച്ചാൽ മതി
mal_0468	mal	mal_0468.wav	ഏറ്റവും അടുത്തുള്ള റെയിൽവേ സ്റ്റേഷൻ പാലക്കാട് തൃശ്ശൂർ
mal_0469	mal	mal_0469.wav	വിശുദ്ധ ജലം എന്നാണ് ഈ വാക്കിന്റെ അർത്ഥം
mal_0470	mal	mal_0470.wav	പുതിയ മാറ്റങ്ങൾ ശ്രദ്ധിക്കുക മറ്റുള്ളവരുടെ പ്രവർത്തനങ്ങൾ മനസിലാക്കാൻ സാധിക്കും
mal_0471	mal	mal_0471.wav	താങ്കൾ വിക്കിപീഡിയക്ക് മികച്ച സേവനം ആണ് നൽകുന്നത്
mal_0472	mal	mal_0472.wav	ബംഗാളി എന്ന വാക്കിനാൽ താഴെപ്പറയുന്ന എന്തിനേയും വിവക്ഷിക്കാം
mal_0473	mal	mal_0473.wav	കേരളത്തിലെ ഒരു പ്രധാന വിനോദ സഞ്ചാര ആകർഷണമാണ് മലമ്പുഴ അണക്കെട്ട്
mal_0474	mal	mal_0474.wav	അത് താങ്കളെ സഹായിക്കും എന്ന് കരുതുന്നു
mal_0475	mal	mal_0475.wav	അന്നു മുതൽ ഇന്നു വരെയും ഇതൊരു കമ്മ്യൂണിസ്റ്റ് ശക്തി കേന്ദ്രമാണ്
mal_0476	mal	mal_0476.wav	ൽ കൂടുതൽ ലേഖനങ്ങളിൽ തിരുത്തലുകൾ ഉണ്ട്
mal_0477	mal	mal_0477.wav	അല്ലാഹു എന്നതിന്റെ അറബി പദം ദൈവം എന്നു തന്നെ യാണ്
mal_0478	mal	mal_0478.wav	പക്ഷെ ഇതിന്റെ ഒന്നും പരിഭാഷ ചരിത്രം അറിയില്ല
mal_0479	mal	mal_0479.wav	മാഷെ താങ്കൾ വരുത്തിയ മാറ്റങ്ങൾ ശ്രദ്ധിച്ചു
mal_0480	mal	mal_0480.wav	പുതിയ സംവാദം തുടങ്ങാൻ ഇവിടെ ക്ലിക്ക് ചെയ്യുക
mal_0481	mal	mal_0481.wav	ദയവായി ആ വിവരങ്ങൾ എത്രയും പെട്ടെന്ന് ചേർക്കുക
mal_0482	mal	mal_0482.wav	യൂറോപ്പിലെ ചില ഭാഗങ്ങളിലും കൃഷി ചെയ്യുന്ന ഒരു സസ്യമാണ് കറുപ്പ്
mal_0483	mal	mal_0483.wav	മലയാളം വിക്കി ഇതു വരെയുള്ള ലേഖനങ്ങളുടെ കാര്യത്തിൽ അങ്ങനെയാണ്
mal_0484	mal	mal_0484.wav	താങ്കളുടെ ശ്രദ്ധ പ്രസ്തുത ലേഖനത്തിലേക്ക് ക്ഷണിക്കുന്നു
mal_0485	mal	mal_0485.wav	ഇവിടെ ഉള്ള ഫലകങ്ങൾ ഇറക്കുമതി ചെയ്യണം എന്നു തോന്നുന്നില്ല
mal_0486	mal	mal_0486.wav	ആലപ്പുഴ ജില്ലയിലെ ഒരു പട്ടണം ആണ് ചെങ്ങന്നൂർ
mal_0487	mal	mal_0487.wav	ഏതു കാര്യത്തിലും വിക്കിയുടെ നയം ഇതാണ്
mal_0488	mal	mal_0488.wav	ബംഗാളി എന്ന വാക്കാൽ വിവക്ഷിക്കാവുന്ന ഒന്നിലധികം കാര്യങ്ങളുണ്ട്
mal_0489	mal	mal_0489.wav	പിന്നെ പടം ഷിജു എഡിറ്റ് ചെയ്തിട്ടുണ്ട്
mal_0490	mal	mal_0490.wav	ഇത് ഒരു വിനോദ സഞ്ചാര ആകർഷണമാണ്
mal_0491	mal	mal_0491.wav	മലയാളം എന്ന ലേഖനം പ്രൊട്ടക്റ്റ് ചെയ്യണം
mal_0492	mal	mal_0492.wav	ഇതു അദ്ദേഹത്തിന്റെ മികച്ച ചിത്രങ്ങളിൽ ഒന്നായി കണക്കാക്കപ്പെടുന്നു
mal_0493	mal	mal_0493.wav	കോട്ടയം ആസ്ഥാനം ആക്കി ആണ് പത്രം പ്രവർത്തിക്കുന്നത്
mal_0494	mal	mal_0494.wav	അതേ പ്രവീൺ എനിക്കും അങ്ങനെ തോന്നുന്നു
mal_0495	mal	mal_0495.wav	ഈ ഇതെല്ലാം എവിടെ പോകുന്നു എന്ന്
mal_0496	mal	mal_0496.wav	വേൾഡ് വൈഡ് വെബ് ഇന്റർനെറ്റ് വഴിയാണ് നമുക്ക് ലഭിക്കുന്നത് എന്നു വേണമെങ്കിൽ പറയാം
mal_0497	mal	mal_0497.wav	പക്ഷെ വിക്കിപീഡിയയെ സംബന്ധിച്ചിടത്തോളം അതല്ല സ്ഥിതി
mal_0498	mal	mal_0498.wav	ലേഖനത്തിനു അത്യാവശ്യം വേണ്ട ചിത്രങ്ങൾ മാത്രം ഇതിൽ ഇട്ടാൽ മതി എന്നാണ് എന്റെ അഭിപ്രായം
mal_0499	mal	mal_0499.wav	മധു എന്ന വാക്കാൽ വിവക്ഷിക്കാവുന്ന ഒന്നിലധികം കാര്യങ്ങളുണ്ട്
mal_0500	mal	mal_0500.wav	കുറഞ്ഞ കാലം കൊണ്ട് അദ്ദേഹത്തിന്റെ ഭരണ പരിഷ്കാരങ്ങൾ ശ്രദ്ധിക്കപ്പെട്ടു
mal_0501	mal	mal_0501.wav	അവയെക്കുറിച്ചറിയാൻ മംഗളം നാനാർത്ഥങ്ങൾ എന്ന താൾ കാണുക
mal_0502	mal	mal_0502.wav	വിക്കിയിൽ എങ്ങനെയാണ് ലേഖനം എഴുതുന്നത് എന്ന് മനസ്സിലാക്കാം
mal_0503	mal	mal_0503.wav	അപ്പോൾ ഫ്രഞ്ച് ഉച്ചാരണം ആണ് വേണ്ടത്
mal_0504	mal	mal_0504.wav	വേണമെങ്കിൽ ഞാൻ ഉണ്ടാക്കിയ പേജ് ഡിലീറ്റ് ചെയ്യാവുന്നതാണ്
mal_0505	mal	mal_0505.wav	ഏത് ടെമ്പ്ലേറ്റ് ആണ് നല്ലത് എന്ന് ദയവായി പറയുക
mal_0506	mal	mal_0506.wav	അവയെക്കുറിച്ചറിയാൻ ബംഗാളി നാനാർത്ഥങ്ങൾ എന്ന താൾ കാണുക
mal_0507	mal	mal_0507.wav	ശരി മാഷെ പേര് മാത്രം കണ്ടു
mal_0508	mal	mal_0508.wav	ലിങ്ക് ഇങ്ങനെ തന്നെയാണോ ഇടുക അല്ലെങ്കിൽ തിരുത്തുക
mal_0509	mal	mal_0509.wav	ദയവായി ഈ സംവാദം താൾ കാണുക
mal_0510	mal	mal_0510.wav	കേരളത്തിൽ കോട്ടയം ജില്ലയിലെ വൈക്കം ആണ് നാട്
mal_0511	mal	mal_0511.wav	തിരുവനന്തപുരം ജില്ലയിലെ ഒരു ഗ്രാമമാണ് വേളി
mal_0512	mal	mal_0512.wav	ഞാൻ ചില ഉദാഹരണങ്ങൾ പറഞ്ഞു എന്നേ ഉള്ളൂ
mal_0513	mal	mal_0513.wav	പിന്നെ ലേഖനത്തിൽ വിവരങ്ങൾ ചേർക്കുന്നത് ലേഖനം തുടങ്ങിയ ആൾക്ക് മാത്രമല്ല
mal_0514	mal	mal_0514.wav	പിന്നെ ഇത് എങ്ങനെ എല്ലാവർക്കും കാണാൻ സാധിക്കും
mal_0515	mal	mal_0515.wav	അവയുടെ കേന്ദ്ര താപനില താരതമ്യേന കുറഞ്ഞതും
mal_0516	mal	mal_0516.wav	ലോകത്തിലെ ഏറ്റവും നീളം കൂടിയ നദി നൈൽ ആണ്
mal_0517	mal	mal_0517.wav	ദില്ലി എന്ന താളിലെ താങ്കളുടെ ഈ തിരുത്തൽ ശ്രദ്ധിക്കുക
mal_0518	mal	mal_0518.wav	പ്രധാന താളിലെ ചുവന്ന കണ്ണികൾ കഴിവതും ഒഴിവാക്കുക
mal_0519	mal	mal_0519.wav	വർഷം തോറും നടക്കുന്ന നെഹ്രു ട്രോഫി വള്ളംകളി പ്രസിദ്ധമാണ്
mal_0520	mal	mal_0520.wav	അയൽ രാജ്യങ്ങളുമായി ചേര രാജാക്കന്മാർ തുടർച്ചയായി യുദ്ധം ചെയ്തിരുന്നു
mal_0521	mal	mal_0521.wav	സീറോ മലബാർ കത്തോലിക്കാ സഭയുടെ തലവൻ
mal_0522	mal	mal_0522.wav	വരമൊഴി എന്ന വാക്കാൽ വിവക്ഷിക്കാവുന്ന ഒന്നിലധികം കാര്യങ്ങളുണ്ട്
mal_0523	mal	mal_0523.wav	പുതുമുഖം പേജിൽ സഹായം വേണമെന്നു കണ്ടു
mal_0524	mal	mal_0524.wav	ഇംഗ്ലീഷ് വിക്കിപീഡിയയിലെ ഈ താൾ കൂടി വായിക്കുക
mal_0525	mal	mal_0525.wav	വള്ളത്തോൾ നഗർ എന്നാണ് ഈ റെയിൽവേ സ്റ്റേഷൻ നാമകരണം ചെയ്തിരിക്കുന്നത്
mal_0526	mal	mal_0526.wav	അവയെക്കുറിച്ചറിയാൻ ദേശാഭിമാനി നാനാർത്ഥങ്ങൾ എന്ന താൾ കാണുക
mal_0527	mal	mal_0527.wav	മംഗളം എന്ന വാക്കാൽ വിവക്ഷിക്കാവുന്ന ഒന്നിലധികം കാര്യങ്ങളുണ്ട്
mal_0528	mal	mal_0528.wav	അവിടെ നിന്ന് പുതിയ നയങ്ങൾ ഉണ്ടാകും
mal_0529	mal	mal_0529.wav	ഞാൻ ആ പേജിൽ പോയി നോക്കി
mal_0530	mal	mal_0530.wav	ഒരു പുതിയ പ്രശ്നം ഞാൻ ഉണ്ടാക്കാൻ ആഗ്രഹിക്കുന്നില്ല
mal_0531	mal	mal_0531.wav	എങ്കിലും എനിക്ക് ഒരു ചെറിയ സംശയം ഉണ്ട്
mal_0532	mal	mal_0532.wav	അദ്ദേഹം സ്ഥാപിച്ച ഏഴു പള്ളികൾ ഇവയാണ്
mal_0533	mal	mal_0533.wav	അതുമായി ബന്ധപ്പെട്ട ഒരു പി ഡി എഫ് ഫയൽ ഉണ്ടായിരുന്നു
mal_0534	mal	mal_0534.wav	അവിടെ നയം ഉണ്ടെങ്കിൽ ചിത്രം നമുക്ക് മാറ്റാം
mal_0535	mal	mal_0535.wav	കാനഡ മെക്സിക്കോ എന്നിവയാണ് അമേരിക്കയുടെ അയൽ രാജ്യങ്ങൾ
mal_0536	mal	mal_0536.wav	ദക്ഷിണ യൂറോപ്പിലെ ഒരു രാജ്യമാണ് ഇറ്റലി
mal_0537	mal	mal_0537.wav	പെരിയാർ തടാകം ഇതിന് തെക്കു ഭാഗത്തായി കാണപ്പെടുന്നു
mal_0538	mal	mal_0538.wav	ഈ ലേഖനത്തിൽ എവിടെ തെളിവ് ഉള്ളത്
mal_0539	mal	mal_0539.wav	അവയെക്കുറിച്ചറിയാൻ ചെമ്മീൻ നാനാർത്ഥങ്ങൾ എന്ന താൾ കാണുക
mal_0540	mal	mal_0540.wav	ആദിമ ക്രൈസ്തവ സഭ എന്നോ മറ്റോ തലക്കെട്ട് മാറ്റാം
mal_0541	mal	mal_0541.wav	അവയെക്കുറിച്ചറിയാൻ വരമൊഴി നാനാർത്ഥങ്ങൾ എന്ന താൾ കാണുക
mal_0542	mal	mal_0542.wav	ഞാൻ ഈ താളിൽ എന്റെ അഭിപ്രായം രേഖപ്പെടുത്തിയിട്ടുണ്ട്
mal_0543	mal	mal_0543.wav	പക്ഷേ സുഗീഷ് ചെയ്തത് ഒട്ടും ശരിയല്ല
mal_0544	mal	mal_0544.wav	ഇതേ പേരിൽ വേറെ ഒരു പ്രമാണം നിലവിലുണ്ട്
mal_0545	mal	mal_0545.wav	അത്ര വ്യാപകമായി ഇല്ല എന്നാണ് ഉദ്ദേശിച്ചത്
mal_0546	mal	mal_0546.wav	ദേശാഭിമാനി എന്ന വാക്കാൽ വിവക്ഷിക്കാവുന്ന ഒന്നിലധികം കാര്യങ്ങളുണ്ട്
mal_0547	mal	mal_0547.wav	പിന്നീട് അദ്ദേഹം വിവിധ സ്ഥലങ്ങൾ സന്ദർശിച്ചു
mal_0548	mal	mal_0548.wav	ഇപ്പോൾ പാലക്കാട് ആണ് ഏറ്റവും വലിയ ജില്ല എന്നാണ് എന്റെ അറിവ്
mal_0549	mal	mal_0549.wav	വളരെ വലിയ ഒരു പഴം ആണ് ചക്ക
mal_0550	mal	mal_0550.wav	ഈ ലേഖനം നീക്കം ചെയ്യാൻ താല്പര്യം
mal_0551	mal	mal_0551.wav	മലയാളം വിക്കിപീഡിയയിൽ എന്ന പേരിൽ താങ്കൾ ലോഗിൻ ചെയ്തിരിക്കുന്നു
mal_0552	mal	mal_0552.wav	അമ്മയുടെ ജനം എന്റെ ജനം അമ്മയുടെ ദൈവം എന്റെ ദൈവം
mal_0553	mal	mal_0553.wav	ഇതു പിന്നീടു യൂറോപ്പിലും പ്രചാരം നേടി
mal_0554	mal	mal_0554.wav	അതു എന്തു കൊണ്ട് ചെയ്തു എന്ന വിശദീകരണം ആണ് ഇത്
mal_0555	mal	mal_0555.wav	ബ്ലോക്ക് വേണം എന്നു തന്നെ എന്റെ അഭിപ്രായം
mal_0556	mal	mal_0556.wav	ജില്ലയിലെ ഒരു പ്രധാന വിനോദസഞ്ചാര ആകർഷണമാണ് ഈ സ്ഥലം
mal_0557	mal	mal_0557.wav	അതിനാൽ ഇതു വലിയ പ്രശ്നം അല്ല
mal_0558	mal	mal_0558.wav	ദേശാഭിമാനി എന്ന വാക്കിനാൽ താഴെപ്പറയുന്ന എന്തിനേയും വിവക്ഷിക്കാം
mal_0559	mal	mal_0559.wav	ചെമ്മീൻ എന്ന വാക്കാൽ വിവക്ഷിക്കാവുന്ന ഒന്നിലധികം കാര്യങ്ങളുണ്ട്
mal_0560	mal	mal_0560.wav	അതിനു മുൻപ് ഇടുക്കി ജില്ല ആയിരുന്നു കേരളത്തിലെ ഏറ്റവും വലിയ ജില്ല
mal_0561	mal	mal_0561.wav	ഈ ലേഖനം അരി എന്ന ലേഖനവുമായി ലയിപ്പിക്കാൻ ശുപാർശ ചെയ്തിരിക്കുന്നു
mal_0562	mal	mal_0562.wav	ഒന്നു രണ്ട് പേർ കൂടി അഡ്മിൻ ആയി വന്നു എങ്കിൽ നന്നായിരുന്നു എന്നു തോന്നുന്നു
mal_0563	mal	mal_0563.wav	ചെറിയ ഒരു ഉദാഹരണം താഴെ കൊടുക്കുന്നു
mal_0564	mal	mal_0564.wav	വർഷത്തിൽ രണ്ടു പ്രാവശ്യം ഇവിടെ ഉത്സവം
mal_0565	mal	mal_0565.wav	തൽക്കാലം ഒരു ബ്യൂറോക്രാറ്റ് മതി എന്നാണ് എന്റെ അഭിപ്രായം
mal_0566	mal	mal_0566.wav	കിഴക്കൻ പാക്കിസ്ഥാൻ എന്നു തന്നെയായിരുന്നു തുടക്കത്തിൽ പേര്
mal_0567	mal	mal_0567.wav	എന്റെ കയ്യിൽ ഇല്ല എന്നാണ് തോന്നുന്നത്
mal_0568	mal	mal_0568.wav	ഈ ടെമ്പ്ലേറ്റ് ഞാൻ ചാലക്കുടി അങ്കമാലി എന്നീ പേജുകളിൽ ഉപയോഗിച്ചു
mal_0569	mal	mal_0569.wav	ഭഗവതി ഈ പ്രദേശത്തെ പ്രധാന ദേവി ആണ്
mal_0570	mal	mal_0570.wav	വിക്കിപീഡിയയിൽ പങ്കാളിയാകാൻ താങ്കൾക്ക് ഏതെങ്കിലും വിധത്തിലുള്ള സഹായം ആവശ്യമുണ്ടോ മലയാളത്തിൽ എങ്ങനെ ടൈപ്പ് ചെയ്യണം എന്നറിയില്ല
mal_0571	mal	mal_0571.wav	ഇംഗ്ലീഷ് സാഹിത്യത്തിൽ മാസ്റ്റർ ബിരുദവും നേടി
mal_0572	mal	mal_0572.wav	അതിനാൽ തന്നെ ചിത്രത്തിന്റെ താൾ തിരുത്തി ഇവിടെ നിന്നും അനുയോജ്യമായ പകർപ്പവകാശ വിവരങ്ങൾ ചിത്രത്തിന്റെ താളിലേക്ക് ചേർക്കുക
mal_0573	mal	mal_0573.wav	ശിവന്റെ മകൻ ആണ് അയ്യപ്പൻ എന്നാണ് വിശ്വാസം
mal_0574	mal	mal_0574.wav	ശക്തൻ തമ്പുരാന്റെ കാലത്താണ് ചാലക്കുടിയിൽ വികസന പ്രവർത്തനങ്ങൾ കൂടുതലും നടന്നത്
mal_0575	mal	mal_0575.wav	വിശുദ്ധ ഗ്രന്ഥം ക്രിസ്തുമതം എന്ന താൾ ഈ ലേഖനവുമായി ലയിപ്പിക്കുന്നതിന് ശുപാർശ ചെയ്തിരിക്കുന്നു
mal_0576	mal	mal_0576.wav	ഈ ലേഖനത്തിൽ നിന്നും ചെങ്ങന്നൂർ താലൂക്കിലെ ഏതാനും ഗ്രാമങ്ങൾ ചേർന്നതാണ് പന്തളം എന്ന ഭാഗം ഒഴിവാക്കി
mal_0577	mal	mal_0577.wav	ഞാൻ നേരിട്ട് തന്നെ അല്ലെ പറഞ്ഞത്
mal_0578	mal	mal_0578.wav	ചന്ദ്രനിൽ അന്തരീക്ഷം ഇല്ല എന്നു തന്നെ പറയാം
mal_0579	mal	mal_0579.wav	ഒരു ബോട്ട് പ്രോഗ്രാം ഉണ്ടെങ്കിൽ നന്നായിരിക്കും
mal_0580	mal	mal_0580.wav	ഡിലീറ്റ് ചെയ്ത ഭാഗങ്ങൾ ഇവിടെ ചേർക്കുന്നു
mal_0581	mal	mal_0581.wav	എന്റെ ഒരു ആഗ്രഹം പറഞ്ഞു എന്നു മാത്രം
mal_0582	mal	mal_0582.wav	അല്ലാതെ നമ്മൾ എഴുതുന്നത് കൊണ്ട് എന്തു പ്രയോജനം
mal_0583	mal	mal_0583.wav	എന്റെ അഭിപ്രായങ്ങൾ സംവാദം പേജിൽ രേഖപ്പെടുത്തിയിട്ടുണ്ട്
mal_0584	mal	mal_0584.wav	മനുഷ്യൻ ചന്ദ്രനിൽ പോയ ശേഷമാണ് ഈ ധാരണ മാറിയത്
mal_0585	mal	mal_0585.wav	ബൈബിൾ പരിഭാഷ ആണ് കേരളത്തിൽ കത്തോലിക്കാ സഭ ഉപയോഗിക്കുന്നത്
mal_0586	mal	mal_0586.wav	ഇതിൽ ഒരു പൊതുവായ തീരുമാനം എടുക്കാൻ പറ്റില്ല
mal_0587	mal	mal_0587.wav	അവയെക്കുറിച്ചറിയാൻ വെള്ളി നാനാർത്ഥങ്ങൾ എന്ന താൾ കാണുക
mal_0588	mal	mal_0588.wav	ഈ താളിൽ കുറച്ച് വിവരം ചേർക്കണം
mal_0589	mal	mal_0589.wav	മംഗലാട്ട് മാഷെ ഇവിടെ നോക്കുക ചുവന്ന നിറത്തിൽ രേഖപ്പെടുത്തിയിട്ടുണ്ട്
mal_0590	mal	mal_0590.wav	അതെ വിക്കിപീഡിയയിൽ പങ്കാളിയാകാൻ താങ്കൾക്ക് ഏതെങ്കിലും വിധത്തിലുള്ള സഹായം ആവശ്യമുണ്ടോ ഇല്ല
mal_0591	mal	mal_0591.wav	മുംബൈ ഗവണ്മെന്റ് ലാ കോളെജിൽ നിന്ന് നിയമ ബിരുദവും പ്രതിഭ നേടി
mal_0592	mal	mal_0592.wav	എന്റെ അഭിപ്രായം പറഞ്ഞു എന്നു മാത്രം
mal_0593	mal	mal_0593.wav	അതിൽ സൂചന എന്നാണ് അർത്ഥം കൊടുത്തിരിക്കുന്നത്
mal_0594	mal	mal_0594.wav	ചില വ്യത്യസ്ത അഭിപ്രായങ്ങൾ ഉയർന്നു വന്നിട്ടുണ്ട്
mal_0595	mal	mal_0595.wav	അത് ഇപ്പോഴും അങ്ങനെ തന്നെ തുടരുന്നു
mal_0596	mal	mal_0596.wav	മാഷെ ഒരു സം വാദം ഇവിടെ നടക്കുന്നുണ്ട്
mal_0597	mal	mal_0597.wav	അവയെക്കുറിച്ചറിയാൻ പറവൂർ നാനാർത്ഥങ്ങൾ എന്ന താൾ കാണുക
mal_0598	mal	mal_0598.wav	പുതിയ കാമറ വാങ്ങി എന്ന് തോന്നുന്നു
mal_0599	mal	mal_0599.wav	ഇല്ല വിക്കിപീഡിയയിൽ പങ്കാളിയാകാൻ താങ്കൾക്ക് ഏതെങ്കിലും വിധത്തിലുള്ള സഹായം ആവശ്യമുണ്ടോ ഇപ്പോൾ ആവശ്യമില്ല
mal_0600	mal	mal_0600.wav	ഒരു സാംസ്കാരിക കേന്ദ്രമാണ് ഈ ഗ്രാമം
mal_0601	mal	mal_0601.wav	മറ്റുള്ള അഭിപ്രായങ്ങൾ ഉണ്ടോ എന്ന് നോക്കാം
mal_0602	mal	mal_0602.wav	മേനോൻ ആയിരുന്നു ഈ ചിത്രം സംവിധാനം ചെയ്തത്
mal_0603	mal	mal_0603.wav	അറബി എന്ന വാക്കാൽ വിവക്ഷിക്കാവുന്ന ഒന്നിലധികം കാര്യങ്ങളുണ്ട്
mal_0604	mal	mal_0604.wav	എഴുതിയ ദിവസം ലേഖനം പ്രസിദ്ധീകരിച്ച ദിവസവും സമയവും
mal_0605	mal	mal_0605.wav	എന്നിട്ട് എന്ത് കൊണ്ട് ഇങ്ങനെ സംഭവിച്ചു എന്ന് പറയുക
mal_0606	mal	mal_0606.wav	പക്ഷെ അതേ പേരിൽ ഒരു റീഡയറക്ട് പേജ് നിലവിൽ ഉണ്ട്
mal_0607	mal	mal_0607.wav	അതിനായി ഞാൻ ചെയ്തത് പരമാവധി ചിത്രങ്ങൾ ഇല്ലാത്ത ലേഖനങ്ങളിൽ ചിത്രം ചേർക്കുക
mal_0608	mal	mal_0608.wav	എതിർക്കുന്നു ചെക്ക് യൂസർ നടപടി ഇപ്പോൾ ആവശ്യമില്ല എന്നാണ് എന്റെ അഭിപ്രായം
mal_0609	mal	mal_0609.wav	കേരള കാർഷിക സർവ്വകലാശാല ഇവിടെയാണ് സ്ഥിതിചെയ്യുന്നത്
mal_0610	mal	mal_0610.wav	ഇവിടെ നിന്നുള്ള വൈദ്യുതി ഉപയോഗിച്ച് ബാംഗ്ലൂർ
mal_0611	mal	mal_0611.wav	ലോകത്തിലെ നീളം കൂടിയ നദികളിൽ ഒന്നാണ്
mal_0612	mal	mal_0612.wav	കൂടുതൽ വിവരങ്ങൾ വരുമ്പോൾ തിരിച്ചു ചേർക്കാം
mal_0613	mal	mal_0613.wav	ഇത് എന്റെ ഒരു സംശയം മാത്രമാണ്
mal_0614	mal	mal_0614.wav	വിക്കിപീഡിയയിൽ പങ്കാളിയാകാൻ താങ്കൾക്ക് ഏതെങ്കിലും വിധത്തിലുള്ള സഹായം ആവശ്യമുണ്ടോ ആവശ്യമുണ്ട്
mal_0615	mal	mal_0615.wav	ആ താളിൽ ഈ വിവരങ്ങൾ ചേർത്ത് ഒരു ആമുഖം ഉണ്ടാക്കുകയും ചെയ്യാം
mal_0616	mal	mal_0616.wav	ഞാൻ ഇത് കുറേ കാലം മുന്ന് പറഞ്ഞിരുന്നു
mal_0617	mal	mal_0617.wav	അവയെക്കുറിച്ചറിയാൻ വിമാനം നാനാർത്ഥങ്ങൾ എന്ന താൾ കാണുക
mal_0618	mal	mal_0618.wav	എങ്കിലും അവരുടെ പേരുകൾ കൂടെ നിർദ്ദേശിക്കുന്നു
mal_0619	mal	mal_0619.wav	എറണാകുളം ജില്ലയിലെ ഒരു പ്രാചീന നഗരമാണ് പറവൂർ
mal_0620	mal	mal_0620.wav	അവയെക്കുറിച്ചറിയാൻ അറബി നാനാർത്ഥങ്ങൾ എന്ന താൾ കാണുക
mal_0621	mal	mal_0621.wav	മലമുകളിൽ ഒരു പഴയ ഡച്ച് കോട്ടയുടെ അവശിഷ്ടങ്ങൾ ഉണ്ട്
mal_0622	mal	mal_0622.wav	ഉദാഹരണത്തിന് കൊറിയ എന്നു സെർച്ച് ചെയ്യുക
mal_0623	mal	mal_0623.wav	അതിൽ നിന്നാണ് മുകളിലെ പരാമർശങ്ങൾ വന്നത്
mal_0624	mal	mal_0624.wav	നിങ്ങളുടെ അഭിപ്രായങ്ങൾ പറയൂ എങ്ങനെ വേണം എന്ന്
mal_0625	mal	mal_0625.wav	വെള്ളി എന്ന വാക്കാൽ വിവക്ഷിക്കാവുന്ന ഒന്നിലധികം കാര്യങ്ങളുണ്ട്
mal_0626	mal	mal_0626.wav	ഇല്ലെങ്കിൽ ധൈര്യമായി പുതിയ ലേഖനം തുടങ്ങാം
mal_0627	mal	mal_0627.wav	താങ്കളുടെ മനസ്സിൽ എന്താണ് എന്ന് മനസ്സിലായി
mal_0628	mal	mal_0628.wav	ഈ വിഷയത്തെക്കുറിച്ച് എനിക്ക് ഒന്നും അറിയില്ല
mal_0629	mal	mal_0629.wav	ഇങ്ങനെ ഒരു താളിന്റെ ആവശ്യം പ്രത്യേകമായി ഇല്ല എന്നു തോന്നുന്നു
mal_0630	mal	mal_0630.wav	നേരത്തേ ഉപയോഗിച്ചിരുന്നു അത് ഇപ്പോഴും സാധിക്കുന്നു
mal_0631	mal	mal_0631.wav	ഈ ലേഖനത്തിന് കൂടുതൽ വിവരങ്ങൾ ആവശ്യമുണ്ട്
mal_0632	mal	mal_0632.wav	വർഷം എന്ന വാക്കിനാൽ താഴെപ്പറയുന്ന എന്തിനേയും വിവക്ഷിക്കാം
mal_0633	mal	mal_0633.wav	വിക്കിപീഡിയയിൽ പങ്കാളിയാകാൻ താങ്കൾക്ക് ഏതെങ്കിലും വിധത്തിലുള്ള സഹായം ആവശ്യമുണ്ടോ തൽക്കാലം ഇല്ല
mal_0634	mal	mal_0634.wav	തെറ്റ് കണ്ടു പിടിക്കാൻ തന്നെയാണ് താങ്കൾ വരുന്നത് എന്നാണോ എന്നാണ് എന്റെ ചോദ്യം
mal_0635	mal	mal_0635.wav	അഞ്ചാമത്തെ വ്യവസ്ഥകൾ ഒഴിവാക്കാം എന്നു കരുതുന്നു
mal_0636	mal	mal_0636.wav	പിന്നെ ഇതിൽ കേരളത്തിലെ ബുദ്ധമത ചരിത്രം വേണമെങ്കിൽ പറയൂ
mal_0637	mal	mal_0637.wav	ഇപ്പോൾ പേജിന്റെ നീളം വളരെ കൂടുതൽ ആണ്
mal_0638	mal	mal_0638.wav	ഇതിനു നമ്മൾ പരമാവധി പരസ്യം കൊടുക്കണം
mal_0639	mal	mal_0639.wav	എനിക്ക് അഭിപ്രായ സ്വാതന്ത്ര്യം ഇല്ല എങ്കിൽ ഇത്രയും ഈ താളിൽ നിന്നും മാറ്റാൻ അപേക്ഷിക്കുന്നു
mal_0640	mal	mal_0640.wav	ഞാൻ ഇപ്പോൾ ഇന്ത്യയുടെ ദേശീയ പതാക എന്ന ഒരു ലേഖനം ഉണ്ടാക്കി
mal_0641	mal	mal_0641.wav	കൂട്ടത്തിൽ ഇതു കൂടി ചേർത്തു വായിക്കുക
mal_0642	mal	mal_0642.wav	പറവൂർ എന്ന വാക്കാൽ വിവക്ഷിക്കാവുന്ന ഒന്നിലധികം കാര്യങ്ങളുണ്ട്
mal_0643	mal	mal_0643.wav	ഇല്ല വിക്കിപീഡിയയിൽ പങ്കാളിയാകാൻ താങ്കൾക്ക് ഏതെങ്കിലും വിധത്തിലുള്ള സഹായം ആവശ്യമുണ്ടോ തൽക്കാലം ഇല്ല നന്ദി
mal_0644	mal	mal_0644.wav	ജ്യോതിശാസ്ത്ര ലേഖനങ്ങൾക്ക് ഞാൻ അത് ഉപയോഗിച്ചിരുന്നു
mal_0645	mal	mal_0645.wav	ജോർജ്ജ് ബുഷ് എന്ന വാക്കിനാൽ താഴെപ്പറയുന്ന എന്തിനേയും വിവക്ഷിക്കാം
mal_0646	mal	mal_0646.wav	അവയെക്കുറിച്ചറിയാൻ വിഷ്ണു നാനാർത്ഥങ്ങൾ എന്ന താൾ കാണുക
mal_0647	mal	mal_0647.wav	അപ്പോൾ എന്താണ് മാഷെ വിക്കിയുടെ മാനദണ്ഡം
mal_0648	mal	mal_0648.wav	പ്രധാന താളിൽ കണ്ണി കൊടുക്കുക തന്നെ വേണം
mal_0649	mal	mal_0649.wav	പിന്നെ ഉണ്ടാക്കിയ ആൾ അയാളുടെ അഭിപ്രായം പറയുന്നു
mal_0650	mal	mal_0650.wav	ഈ പ്രശ്നം ഇന്നലെ രാത്രി മുതൽ ഉണ്ട്
mal_0651	mal	mal_0651.wav	അംഗത്വം നീക്കം ചെയ്യുക എന്നത് സാധ്യമല്ല
mal_0652	mal	mal_0652.wav	വിമാനം എന്ന വാക്കാൽ വിവക്ഷിക്കാവുന്ന ഒന്നിലധികം കാര്യങ്ങളുണ്ട്
mal_0653	mal	mal_0653.wav	ചെക്ക് യൂസർ പാടില്ല എന്ന് പറയുന്നത് തന്നെ തെറ്റാണ്
mal_0654	mal	mal_0654.wav	വിക്കിപീഡിയയിൽ പങ്കാളിയാകാൻ താങ്കൾക്ക് ഏതെങ്കിലും വിധത്തിലുള്ള സഹായം ആവശ്യമുണ്ടോ ഇപ്പോൾ തൽക്കാലം ഇല്ല
mal_0655	mal	mal_0655.wav	ഈ ലേഖനം സെമി പ്രൊട്ടക്റ്റ് ചെയ്യാൻ ആഗ്രഹിക്കുന്നു
mal_0656	mal	mal_0656.wav	മുഹമ്മദ് അലി ഇന്ത്യാ ചരിത്രം ഒന്നാം ഭാഗം
mal_0657	mal	mal_0657.wav	ജോർജ് ബുഷ് എന്ന വാക്കാൽ വിവക്ഷിക്കാവുന്ന ഒന്നിലധികം കാര്യങ്ങളുണ്ട്
mal_0658	mal	mal_0658.wav	അതിൽ ഞാൻ എന്റെ ചില നിർദ്ദേശങ്ങൾ വച്ചു എന്നേ ഉള്ളൂ
mal_0659	mal	mal_0659.wav	വിക്കിപീഡിയ ലോകത്ത് എന്തു നടക്കുന്നു എന്ന് കാണുക
mal_0660	mal	mal_0660.wav	അവയെക്കുറിച്ചറിയാൻ വേളി നാനാർത്ഥങ്ങൾ എന്ന താൾ കാണുക
mal_0661	mal	mal_0661.wav	എങ്കിൽ കുഴപ്പം ഇല്ല എന്നു തോന്നുന്നു
mal_0662	mal	mal_0662.wav	മാഷെ എന്റെ കയ്യിൽ ഇത്രയും കിട്ടി
mal_0663	mal	mal_0663.wav	പലരും വിക്കി വിട്ട് പോവുകയും ചെയ്യും
mal_0664	mal	mal_0664.wav	എനിക്ക് തെറ്റു പറ്റി എല്ലാവരും എന്നോട് ക്ഷമിക്കണം
mal_0665	mal	mal_0665.wav	ഇംഗ്ലീഷ് വിക്കിയിൽ പ്രധാന താളിൽ ഇങ്ങനെ ഒരു പരിപാടി ഉണ്ട്
mal_0666	mal	mal_0666.wav	നെല്ല് എന്ന താൾ ഈ ലേഖനവുമായി ലയിപ്പിക്കുന്നതിന് ശുപാർശ ചെയ്തിരിക്കുന്നു
mal_0667	mal	mal_0667.wav	അവയെക്കുറിച്ചറിയാൻ ജോർജ് ബുഷ് നാനാർത്ഥങ്ങൾ എന്ന താൾ കാണുക
mal_0668	mal	mal_0668.wav	ഇതിന്റെ പുറത്ത് ധാരാളം ചർച്ച നടന്നു കഴിഞ്ഞു
mal_0669	mal	mal_0669.wav	ആവശ്യമെങ്കിൽ മാപ്പിള മലയാളം എന്നൊരു ലേഖനം കൂടി ആവാം
mal_0670	mal	mal_0670.wav	മഹാനായ അശോകൻ ഈ രാജവംശത്തിന്റെ ഭാഗമായിരുന്നു
mal_0671	mal	mal_0671.wav	ഇതിൽ പിന്നാലെ പൂർണ്ണ രാഷ്ട്രീയ നിയന്ത്രണം കമ്പനി ഏറ്റെടുത്തു
mal_0672	mal	mal_0672.wav	ഈ നഗരം പിന്നീട് ന്യൂ ഡെൽഹി എന്ന് അറിയപ്പെട്ടു
mal_0673	mal	mal_0673.wav	ദയവായി വ്യാകരണം എന്ന ലേഖനം നോക്കുക
mal_0674	mal	mal_0674.wav	എന്നാൽ ഇതു ശരിയാണോ എന്നു സംശയമുണ്ട്
mal_0675	mal	mal_0675.wav	സാംസ്കാരിക രംഗത്തെ മഹത്തായ സംഭാവനകൾ നൽകിയിട്ടുണ്ട് അങ്കമാലി
mal_0676	mal	mal_0676.wav	ആ മട്ടിൽ വിജ്ഞാനകോശത്തിൽ എഴുതുന്നത് ശരിയല്ല
mal_0677	mal	mal_0677.wav	മലയാളം വിക്കി വളരെ വേഗത്തിൽ വളരുന്നു
mal_0678	mal	mal_0678.wav	കാരണം അവരുടെ ലിപി തന്നെ ലാറ്റിൻ ആണ്
mal_0679	mal	mal_0679.wav	അവർ നേരിടുന്ന ചില പ്രശ്നങ്ങൾ ആണ് ഞാൻ മുകളിൽ ലിസ്റ്റ് ചെയ്തത്
mal_0680	mal	mal_0680.wav	ഇത് അദ്ദേഹത്തിന് ഏറെ പ്രശസ്തി നേടിക്കൊടുത്തു
mal_0681	mal	mal_0681.wav	അത് പലപ്പോഴും എന്തെങ്കിലും പരീക്ഷണം ആവാം
mal_0682	mal	mal_0682.wav	അത് ഒക്കെ തന്നെ യാക്കോബായ സഭ ഉപയോഗിക്കുന്ന പേരുകൾ ആണ്
mal_0683	mal	mal_0683.wav	കൂടുതൽ വിവരങ്ങൾക്ക് ഈ ചർച്ച കാണുക
mal_0684	mal	mal_0684.wav	ദേശീയ അവാർഡ് നാലു തവണ ലഭിച്ചു
mal_0685	mal	mal_0685.wav	ആ പരാമർശം ലേഖനത്തിൽ നിന്നു മാറ്റണം
mal_0686	mal	mal_0686.wav	അവയെക്കുറിച്ചറിയാൻ വയലാർ നാനാർത്ഥങ്ങൾ എന്ന താൾ കാണുക
mal_0687	mal	mal_0687.wav	വയലാർ ആലപ്പുഴ ജില്ലയിലെ ഒരു ഗ്രാമം
mal_0688	mal	mal_0688.wav	വിഷ്ണു എന്ന വാക്കാൽ വിവക്ഷിക്കാവുന്ന ഒന്നിലധികം കാര്യങ്ങളുണ്ട്
mal_0689	mal	mal_0689.wav	വളരെയധികം പള്ളികൾ ഉള്ള സ്ഥലമാണ് അങ്കമാലി
mal_0690	mal	mal_0690.wav	ഇതിന്റെ പേരിൽ ഒരു തർക്കം ഞാൻ തീരെ ആഗ്രഹിക്കുന്നില്ല
mal_0691	mal	mal_0691.wav	നല്ല ഒരു ഉപകരണം ആണ് അത്
mal_0692	mal	mal_0692.wav	മലയാളം വിക്കിയിൽ ഉള്ളടക്കം മലയാളത്തിൽ തന്നെ വേണം
mal_0693	mal	mal_0693.wav	എതിർക്കുന്നു വിക്കിപീഡിയയിലേക്ക് സിമി ഏറെ സംഭാവനകൾ നൽകുന്നുണ്ട്
mal_0694	mal	mal_0694.wav	കോളേജിൽ മലയാളം അദ്ധ്യാപകനായി ജോലി ചെയ്യുന്നു
mal_0695	mal	mal_0695.wav	വളരെ നാൾ കഴിഞ്ഞ് വീണ്ടും ഒരു പുതിയ ഭാഗം കൂടി ചേർത്തു
mal_0696	mal	mal_0696.wav	ഖുർആൻ ആണ് ഈ മതത്തിന്റെ അടിസ്ഥാനം
mal_0697	mal	mal_0697.wav	താങ്കൾ പറയുന്ന ആശയം തന്നെയാണ് എനിക്കും ഉള്ളത്
mal_0698	mal	mal_0698.wav	ഇതിന് ഒരു പരിഹാരം തന്നെ പറ്റൂ
mal_0699	mal	mal_0699.wav	ഇതു സൂചിപ്പിക്കുന്ന യൂസർ ബോക്സ് ലഭ്യമാണ്
mal_0700	mal	mal_0700.wav	നമ്മൾ അതിനെ വെള്ള കുള്ളൻ എന്ന് നാമകരണം ചെയ്തു
mal_0701	mal	mal_0701.wav	കോഴിക്കോട് ആണ് അടുത്തുള്ള മറ്റൊരു വിമാനത്താവളം
mal_0702	mal	mal_0702.wav	വേളി എന്ന വാക്കാൽ വിവക്ഷിക്കാവുന്ന ഒന്നിലധികം കാര്യങ്ങളുണ്ട്
mal_0703	mal	mal_0703.wav	പുതിയ വിവരങ്ങൾ ചേർത്ത എല്ലാവർക്കും നന്ദി
mal_0704	mal	mal_0704.wav	ലേഖനത്തിന്റെ ഇടക്ക് ഇംഗ്ലീഷ് പദങ്ങൾ ചേർക്കുന്നത് ശരിയല്ല
mal_0705	mal	mal_0705.wav	അതേ പോലെ നിങ്ങൾ കാണുന്ന പ്രശ്നങ്ങൾ ഒക്കെ താഴേക്ക് ലിസ്റ്റ് ചെയ്യുക
mal_0706	mal	mal_0706.wav	കാരണം മലയാളത്തിൽ ഉപയോഗിക്കുന്ന പദം അതാണ്
mal_0707	mal	mal_0707.wav	എന്തായാലും പ്രശ്നങ്ങൾ ഒക്കെ ലിസ്റ്റ് ചെയ്യൂ
mal_0708	mal	mal_0708.wav	കൊച്ചി അന്താരാഷ്ട്ര വിമാനത്താവളം ആണ് ഏറ്റവും അടുത്തുള്ള വിമാനത്താവളം
mal_0709	mal	mal_0709.wav	അടൂർ കാസർഗോഡ് കേരള ത്തിലെ കാസർഗോഡ് ജില്ലയിലെ ഒരു പട്ടണം
mal_0710	mal	mal_0710.wav	ഈ താൾ ഭാരതീയ ഭാഷകൾ എന്ന താളുമായി ലയിപ്പിക്കുന്നതിന് ശുപാർശ ചെയ്തിരിക്കുന്നു
mal_0711	mal	mal_0711.wav	അവയെക്കുറിച്ചറിയാൻ പ്രതിരോധം നാനാർത്ഥങ്ങൾ എന്ന താൾ കാണുക
mal_0712	mal	mal_0712.wav	അത് ഉപയോഗിച്ചുള്ള ഒരു ഉദാഹരണം ഇവിടെ കാണാം
mal_0713	mal	mal_0713.wav	അഭിനന്ദനങ്ങൾ ഈ നക്ഷത്ര ബഹുമതി നൽകിയത് ജിഗേഷ്
mal_0714	mal	mal_0714.wav	ഈ ലേഖനം എന്താണെന്ന് വ്യക്തമല്ല എന്നതാണ് വിഷയം
mal_0715	mal	mal_0715.wav	ഞാൻ ഈ പറയുന്ന പട്ടികയിൽ നല്ല മലയാളം വാക്കുകൾ ഇപ്പോൾ തന്നെ ഉണ്ടെങ്കിൽ എന്നെ തിരുത്തുക
mal_0716	mal	mal_0716.wav	വയലാർ എന്ന വാക്കിനാൽ താഴെപ്പറയുന്ന എന്തിനേയും വിവക്ഷിക്കാം
mal_0717	mal	mal_0717.wav	എന്നീ മേഖലകളിൽ അദ്ദേഹം പ്രാവീണ്യം നേടി
mal_0718	mal	mal_0718.wav	എന്നാൽ അവരുടെ മുഴുവൻ ചരിത്രവും നമുക്ക് ലഭ്യമല്ല
mal_0719	mal	mal_0719.wav	സമ്പ്രദായം പാരമ്പര്യം എന്നീ വാക്കുകൾ ഉപയോഗിക്കാം
mal_0720	mal	mal_0720.wav	അവർ ഇപ്പോൾ തന്നെ നന്നായി പ്രവർത്തിക്കുന്നുണ്ട്
mal_0721	mal	mal_0721.wav	ഇവർ അനേകം വിശിഷ്ട ഗാനങ്ങൾ രചിച്ചിട്ടുണ്ട്
mal_0722	mal	mal_0722.wav	വയലാർ എന്ന വാക്കാൽ വിവക്ഷിക്കാവുന്ന ഒന്നിലധികം കാര്യങ്ങളുണ്ട്
mal_0723	mal	mal_0723.wav	അദ്ദേഹം അറിയപ്പെടുന്ന ഒരു കവി ആയിരുന്നു
mal_0724	mal	mal_0724.wav	അതിനാൽ പേരു മാറ്റി അപ്ലോഡ് ചെയ്യുക
mal_0725	mal	mal_0725.wav	ഇതിൽ ഒരു വരി പോലും എഴുതാൻ ലേഖനം തുടങ്ങിയ ആൾ ശ്രമിച്ചു കാണുന്നില്ല
mal_0726	mal	mal_0726.wav	പൂക്കൾ ചെറുതും മഞ്ഞ നിറത്തിലും ഉണ്ടാകുന്നു
mal_0727	mal	mal_0727.wav	സ്ഥിരമായി സംഭാവന നൽകുന്ന ഉപയോക്താക്കളുടെ എണ്ണവും കുറവാണ്
mal_0728	mal	mal_0728.wav	പിന്നീടുള്ള വർഷങ്ങളിൽ കേരളത്തിലെ ബ്രിട്ടീഷ് സ്വാധീനം വർദ്ധിച്ചു
mal_0729	mal	mal_0729.wav	പ്രസാധകർ പ്രസിദ്ധീകരിച്ച വർഷം എന്നിവ കൊടുക്കണം
mal_0730	mal	mal_0730.wav	ഗുജറാത്തി എന്ന വാക്കിനാൽ താഴെപ്പറയുന്ന എന്തിനേയും വിവക്ഷിക്കാം
mal_0731	mal	mal_0731.wav	ഇംഗ്ലീഷ് വിക്കിയിലെ ഈ താൾ ശ്രദ്ധിക്കുക
mal_0732	mal	mal_0732.wav	അദ്ദേഹം അവ പകർത്തി എഴുതാൻ തുടങ്ങി
mal_0733	mal	mal_0733.wav	പ്രതിരോധം എന്ന വാക്കാൽ വിവക്ഷിക്കാവുന്ന ഒന്നിലധികം കാര്യങ്ങളുണ്ട്
mal_0734	mal	mal_0734.wav	അവയെക്കുറിച്ചറിയാൻ ഗുജറാത്തി നാനാർത്ഥങ്ങൾ എന്ന താൾ കാണുക
mal_0735	mal	mal_0735.wav	ഇപ്പോഴും ഇദ്ദേഹം ഈ നിലയിൽ തുടരുന്നു
mal_0736	mal	mal_0736.wav	ഇനി ഇപ്പോൾ കൂടുതൽ വിശദീകരണം ആവശ്യമില്ല എന്നു തോന്നുന്നു
mal_0737	mal	mal_0737.wav	മഹാരാഷ്ട്ര കർണ്ണാടക എന്നിവയാണ് അയൽ സംസ്ഥാനങ്ങൾ
mal_0738	mal	mal_0738.wav	ഉപവാസം എന്ന വാക്കിനാൽ താഴെപ്പറയുന്ന എന്തിനേയും വിവക്ഷിക്കാം
mal_0739	mal	mal_0739.wav	സയ്യിദ് കുടുംബം എന്ന പേരിൽ ഇത് അറിയപ്പെടുന്നു
mal_0740	mal	mal_0740.wav	മേനോൻ ആണ് ഇപ്പോൾ ഇതിന്റെ എഡിറ്റർ
mal_0741	mal	mal_0741.wav	ആ പണം അമ്മയുടെ കയ്യിൽ കൊടുത്തു
mal_0742	mal	mal_0742.wav	കേരള ഭാഷാ ഇൻസ്റ്റിറ്റ്യൂട്ട് തിരുവനന്തപുരം ആണ്
mal_0743	mal	mal_0743.wav	ഇസ്ലാമിക് കലണ്ടർ എന്ന താൾ ഈ ലേഖനവുമായി ലയിപ്പിക്കുന്നതിന് ശുപാർശ ചെയ്തിരിക്കുന്നു
mal_0744	mal	mal_0744.wav	ഞാൻ കുറെ ഒക്കെ തിരുത്തി എഴുതിയിട്ടുണ്ട്
mal_0745	mal	mal_0745.wav	അർത്ഥം ഉച്ചാരണം എന്നിവ കൊടുത്താൽ മതി
mal_0746	mal	mal_0746.wav	ഇംഗ്ലീഷ് വിക്കിയിൽ നടക്കുന്ന കാര്യം എല്ലാം ഇവിടെ ചെയ്യണം എന്നു പറയുന്നത് ശരിയല്ല
mal_0747	mal	mal_0747.wav	ഗുജറാത്തി എന്ന വാക്കാൽ വിവക്ഷിക്കാവുന്ന ഒന്നിലധികം കാര്യങ്ങളുണ്ട്
mal_0748	mal	mal_0748.wav	പക്ഷെ അതല്ല ഇംഗ്ലീഷ് വിക്കിയിൽ പറയുന്നത്
mal_0749	mal	mal_0749.wav	അത് കോടതിയിൽ അന്ന് വീണ്ടും ചോദ്യം ചെയ്യപ്പെട്ടു
mal_0750	mal	mal_0750.wav	അവയെക്കുറിച്ചറിയാൻ ഉപവാസം നാനാർത്ഥങ്ങൾ എന്ന താൾ കാണുക
mal_0751	mal	mal_0751.wav	പ്രത്യേകിച്ച് താങ്കൾക്ക് താങ്കളുടെ തിരുത്തലുകൾ ഒരുമിച്ച് കാണാൻ കഴിയും
mal_0752	mal	mal_0752.wav	അങ്കമാലി രേഖകൾ എന്ന പുസ്തകത്തിൽ നിന്നാണ് ആ വാചകം
mal_0753	mal	mal_0753.wav	കൊച്ചിൻ എന്നു തന്നെയാണ് ക്ലബ് അറിയപ്പെട്ടിരുന്നത്
mal_0754	mal	mal_0754.wav	അതിൽ ക്ലിക്ക് ചെയ്താണ് ഞാൻ റീഡയറക്റ്റ് ഉണ്ടാക്കുന്നത്
mal_0755	mal	mal_0755.wav	അതുകൊണ്ട് ജനങ്ങൾ അദ്ദേഹത്തെ ശക്തൻ തമ്പുരാൻ എന്നു വിളിച്ചു
mal_0756	mal	mal_0756.wav	ഞാൻ പ്രത്യേകിച്ച് ഇനി അഭിപ്രായം പറയുന്നില്ല
mal_0757	mal	mal_0757.wav	ഈ പരിപാടി കുറച്ചു നാൾ ആയി തുടരുന്നു
mal_0758	mal	mal_0758.wav	ദേവസ്വം ഭരണം സർക്കാർ നേരിട്ടു നടത്താൻ തുടങ്ങി
mal_0759	mal	mal_0759.wav	ഉള്ളൂർ എന്ന വാക്കാൽ വിവക്ഷിക്കാവുന്ന ഒന്നിലധികം കാര്യങ്ങളുണ്ട്
mal_0760	mal	mal_0760.wav	ഉപവാസം എന്ന വാക്കാൽ വിവക്ഷിക്കാവുന്ന ഒന്നിലധികം കാര്യങ്ങളുണ്ട്
mal_0761	mal	mal_0761.wav	അവയെക്കുറിച്ചറിയാൻ ഉള്ളൂർ നാനാർത്ഥങ്ങൾ എന്ന താൾ കാണുക
mal_0762	mal	mal_0762.wav	ഈ വിഗ്രഹം പിന്നീട് ക്ഷേത്രത്തിൽ സ്ഥാപിച്ചു
mal_0763	mal	mal_0763.wav	ജേക്കബ് പറഞ്ഞ താൾ ഞാൻ വായിച്ചു
mal_0764	mal	mal_0764.wav	എന്തോ എന്റെ കമ്പ്യൂട്ടറിൽ രണ്ടും ഒരേ പോലെ ആണ് കാണുന്നത്
mal_0765	mal	mal_0765.wav	ഒരാൾ തെറ്റ് എന്നു തോന്നുന്ന കാര്യങ്ങൾ ലേഖനത്തിൽ നിന്നും നീക്കം ചെയ്യുന്നത് വാൻഡലിസം അല്ല
mal_0766	mal	mal_0766.wav	ജഗതി തിരുവനന്തപുരം ജില്ലയിലെ ഒരു പ്രദേശം
mal_0767	mal	mal_0767.wav	കോളേജ് എന്നിവ ഇവിടെയാണ് സ്ഥിതി ചെയ്യുന്നത്
mal_0768	mal	mal_0768.wav	ഞാൻ മലയാളം വിക്കിയുടെ പൊതു നയം പറഞ്ഞു എന്ന് മാത്രം
mal_0769	mal	mal_0769.wav	അല്ലെങ്കിൽ അത് സഭയുടെ താളിലേക്ക് മാറ്റാം
mal_0770	mal	mal_0770.wav	ഉള്ളൂർ എന്ന വാക്കിനാൽ താഴെപ്പറയുന്ന എന്തിനേയും വിവക്ഷിക്കാം
mal_0771	mal	mal_0771.wav	പെരിയാർ എന്ന വിഷയത്തെക്കുറിച്ച് അറിയണമെങ്കിൽ പെരിയാർ നാനാർത്ഥങ്ങൾ എന്ന താൾ കാണുക
mal_0772	mal	mal_0772.wav	കേരള സർവകലാശാല തിരുവിതാംകൂർ സർവകലാശാല മദ്രാസ് സർവകലാശാല എന്നിവയുടെ സെനറ്റ് അംഗമായിരുന്നു
mal_0773	mal	mal_0773.wav	ഭാരതീയ ഗണിത ശാസ്ത്ര സംബന്ധിയായ ലേഖനങ്ങൾ
mal_0774	mal	mal_0774.wav	ആ ഉപയോക്താവിന്റെ ഇംഗ്ലീഷ് വിക്കിയിലെ തിരുത്തലുകൾ ഇവിടെ കാണാം
mal_0775	mal	mal_0775.wav	സംശയങ്ങൾ ഉണ്ടെങ്കിൽ എന്റെ സം വാദം പേജ് എഡിറ്റ് ചെയ്ത് ഒരു കുറിപ്പ് ഇടുക
mal_0776	mal	mal_0776.wav	കർണാടക സംഗീതത്തിലും ഹിന്ദുസ്ഥാനി സംഗീതത്തിലും അദ്ദേഹം പ്രാവീണ്യം തെളിയിച്ചു
mal_0777	mal	mal_0777.wav	ചാലക്കുടി ക്ക് കൊടുത്തിരിക്കുന്ന ടെമ്പ്ലേറ്റ് നോക്കൂ
mal_0778	mal	mal_0778.wav	എന്നാൽ ക്ഷേത്രങ്ങൾ ഇന്നും ഇതേ രീതിയിൽ തന്നെയാണ് നിർമ്മിക്കുന്നത്
mal_0779	mal	mal_0779.wav	ഈ ക്ഷേത്രത്തിലെ നവരാത്രി ഉത്സവം പ്രശസ്തമാണ്
mal_0780	mal	mal_0780.wav	അതിനെ അയാൾ അതിന്റെ വഴിക്ക് വിട്ടു
mal_0781	mal	mal_0781.wav	ഒരു കാര്യം ഞാൻ വ്യക്തമായി പറയാം
mal_0782	mal	mal_0782.wav	പക്ഷേ അതല്ല വിക്കി എന്ന വിജ്ഞാനകോശത്തിന്റെ രീതി
mal_0783	mal	mal_0783.wav	ഇതിനായി വിലയേറിയ ഉപകരണങ്ങൾ ഒന്നും ആവശ്യമില്ല
mal_0784	mal	mal_0784.wav	രൂപ എന്ന വാക്കാൽ വിവക്ഷിക്കാവുന്ന ഒന്നിലധികം കാര്യങ്ങളുണ്ട്
mal_0785	mal	mal_0785.wav	അവയെക്കുറിച്ചറിയാൻ രൂപ നാനാർത്ഥങ്ങൾ എന്ന താൾ കാണുക
mal_0786	mal	mal_0786.wav	നമുക്ക് കൊട്ടാരത്തിൽ ശങ്കുണ്ണി എന്നൊരു ലേഖനം നേരത്തേ തന്നെ ഉണ്ട്
mal_0787	mal	mal_0787.wav	ഈ പ്രദേശത്ത് ഒരു പുരാതന ഗ്രാമത്തിന്റെ അവശിഷ്ടങ്ങൾ ഇപ്പോഴും കാണാം
mal_0788	mal	mal_0788.wav	വിക്കിപീഡിയയിലെ താങ്കളുടെ പ്രവർത്തനങ്ങൾക്ക് വളരെ നന്ദി
mal_0789	mal	mal_0789.wav	മലയാളത്തിൽ ഇന്ത്യയിലെ ഇസ്ലാമിക പ്രസ്ഥാനം എന്നു പറയാം
mal_0790	mal	mal_0790.wav	റബ്ബർ എന്ന വാക്കാൽ വിവക്ഷിക്കാവുന്ന ഒന്നിലധികം കാര്യങ്ങളുണ്ട്
mal_0791	mal	mal_0791.wav	പക്ഷെ ഇന്നത്തെ അവസ്ഥയിൽ ഇത് പൂർണമായും സാധ്യമല്ല
mal_0792	mal	mal_0792.wav	ഭൂമിയിലെ ഒരു മാസം അവർക്ക് ഒരു ദിവസം ആകുന്നു
mal_0793	mal	mal_0793.wav	ഇത് സഹായി താളിൽ നൽകിയാൽ നന്നായിരിക്കും
mal_0794	mal	mal_0794.wav	ജാതി എന്ന വാക്കാൽ വിവക്ഷിക്കാവുന്ന ഒന്നിലധികം കാര്യങ്ങളുണ്ട്
mal_0795	mal	mal_0795.wav	ഞാൻ അതിൽ ചില തിരുത്തലുകൾ വരുത്തി എന്നു മാത്രം
mal_0796	mal	mal_0796.wav	അവർക്ക് മൂന്നോ നാലോ മക്കൾ ഉണ്ടായിരുന്നു
mal_0797	mal	mal_0797.wav	അത് മാറ്റി കേരള എന്ന് തലക്കെട്ട് നൽകണം
mal_0798	mal	mal_0798.wav	ഇംഗ്ലീഷ് എന്ന വാക്കാൽ വിവക്ഷിക്കാവുന്ന ഒന്നിലധികം കാര്യങ്ങളുണ്ട്
mal_0799	mal	mal_0799.wav	ജോർജ്ജ് കുട്ടി എന്ന് ഒരു അംഗത്വം വിക്കിപീഡിയയിൽ ഉള്ളതിനാൽ പേര് മാറ്റുക സാധ്യമല്ല
mal_0800	mal	mal_0800.wav	അവയെക്കുറിച്ചറിയാൻ ഇംഗ്ലീഷ് നാനാർത്ഥങ്ങൾ എന്ന താൾ കാണുക
mal_0801	mal	mal_0801.wav	എങ്കിലും മലയാളത്തിലെ ലേഖനത്തിന്റെ തലക്കെട്ടിൽ മഹാനായ എന്ന് വേണ്ട എന്നാണ് എന്റെ അഭിപ്രായം
mal_0802	mal	mal_0802.wav	ഈ രേഖകൾ പ്രകാരം ആദി ശങ്കരൻ പെരിയാറിന്റെ തീരത്ത് കാലടി എന്ന ഗ്രാമത്തിലാണ് ജനിച്ചത്
mal_0803	mal	mal_0803.wav	അവയെക്കുറിച്ചറിയാൻ റബ്ബർ നാനാർത്ഥങ്ങൾ എന്ന താൾ കാണുക
mal_0804	mal	mal_0804.wav	ഇതുവരെ തിരഞ്ഞെടുത്ത ചിത്രങ്ങൾ ഇവിടെ കാണാം
mal_0805	mal	mal_0805.wav	ഇംഗ്ലീഷ് വിക്കി താളിൽ മലയാളം വിക്കിയിലേക്ക് ഒരു ലിങ്ക് കൊടുക്കുക
mal_0806	mal	mal_0806.wav	ഇംഗ്ലീഷ് എന്ന വാക്കിനാൽ താഴെപ്പറയുന്ന എന്തിനേയും വിവക്ഷിക്കാം
mal_0807	mal	mal_0807.wav	നാലു മൂലകങ്ങ അവിടെ പഞ്ചഭൂതങ്ങളായി എന്നു മാത്രം
mal_0808	mal	mal_0808.wav	ഉണ്ടെങ്കിൽ ഇവിടെ കോപ്പി പേസ്റ്റ് ചെയ്യൂ
mal_0809	mal	mal_0809.wav	റോമൻ കത്തോലിക്കാ മതം ആണ് പ്രധാന മതം
mal_0810	mal	mal_0810.wav	ഇതിനെ കറുത്ത ദ്രവ്യം എന്നു വിളിക്കുന്നു
mal_0811	mal	mal_0811.wav	ഇന്ത്യയിലെ അറിയപ്പെടുന്ന മുസ്ലിം പള്ളികളിൽ ഒന്നാണിത്
mal_0812	mal	mal_0812.wav	അവയെക്കുറിച്ചറിയാൻ ജാതി നാനാർത്ഥങ്ങൾ എന്ന താൾ കാണുക
mal_0813	mal	mal_0813.wav	ഈ ലേഖനത്തിനു റോമാ റിപ്പബ്ലിക്ക് എന്ന പേര് അല്ലേ കൂടുതൽ അനുയോജ്യം
mal_0814	mal	mal_0814.wav	ഗോവിന്ദൻ നായർ ആണ് ഈ പദ്ധതി കൊണ്ടുവന്നത്
mal_0815	mal	mal_0815.wav	താമസിയാതെ സർവ്വകലാശാലയിൽ നിന്നും അദ്ദേഹത്തെ പുറത്താക്കി
mal_0816	mal	mal_0816.wav	എന്നാൽ ഇന്ന് ഇവ എണ്ണത്തിൽ വളരെയധികം കുറഞ്ഞു വരുന്നു
mal_0817	mal	mal_0817.wav	ആംഗലേയ വിക്കിയിലെ അതേ പേര് നേരെ ഉപയോഗിച്ചാൽ മതിയാവും
mal_0818	mal	mal_0818.wav	ജാതി എന്ന വാക്കിനാൽ താഴെപ്പറയുന്ന എന്തിനേയും വിവക്ഷിക്കാം
mal_0819	mal	mal_0819.wav	താങ്കൾ ലോഗിൻ ചെയ്യാതെ ചെയ്യുന്ന എഡിറ്റുകൾ ഒന്നും താങ്കളുടെ പേരിൽ വരില്ല
mal_0820	mal	mal_0820.wav	കാവേരി നദി ദക്ഷിണ ഭാരതത്തിലെ എറ്റവും വലിയ നദികളിൽ ഒന്നാണ്
mal_0821	mal	mal_0821.wav	അത് കാലടി യുടെ ഇംഗ്ലീഷ് ലേഖനത്തിൽ കണ്ടു
mal_0822	mal	mal_0822.wav	ജഗതി എന്ന വാക്കാൽ വിവക്ഷിക്കാവുന്ന ഒന്നിലധികം കാര്യങ്ങളുണ്ട്
mal_0823	mal	mal_0823.wav	ഇതോടെ അദ്ദേഹം കൂടുതൽ അറിയപ്പെടാൻ തുടങ്ങി
mal_0824	mal	mal_0824.wav	അവയെക്കുറിച്ചറിയാൻ ജഗതി നാനാർത്ഥങ്ങൾ എന്ന താൾ കാണുക
mal_0825	mal	mal_0825.wav	ഇംഗ്ലീഷ് വിക്കിയിലും സമാന ചർച്ച ഉണ്ടായിട്ടുണ്ട്
mal_0826	mal	mal_0826.wav	അങ്ങനെ സുറിയാനി സഭയും മലങ്കര സഭയും തമ്മിലുള്ള ബന്ധം തുടങ്ങി എന്ന് കരുതപ്പെടുന്നു
mal_0827	mal	mal_0827.wav	അതുവരെ വരമൊഴി എന്ന ലേഖനം കാണുക
mal_0828	mal	mal_0828.wav	നാമനിർദ്ദേശം ചെയ്യപ്പെടുന്ന ലേഖനത്തിന്റെ തലക്കെട്ട് എന്ന ഭാഗത്ത് നിങ്ങൾ നാമനിർദ്ദേശം ചെയ്ത ലേഖനത്തിന്റെ തലക്കെട്ടു ചേർക്കുക
mal_0829	mal	mal_0829.wav	അതിനെ പ്രത്യേകിച്ച് വേറേ മാനദണ്ഡങ്ങൾ ഒന്നും ഇല്ല
mal_0830	mal	mal_0830.wav	എന്താണ് അതിനു പിന്നിൽ എന്ന് ആർക്കും അറിയില്ല എന്നും മാത്രം
mal_0831	mal	mal_0831.wav	ജഗതി എന്ന വാക്കിനാൽ താഴെപ്പറയുന്ന എന്തിനേയും വിവക്ഷിക്കാം
mal_0832	mal	mal_0832.wav	ഈ ഗ്രാമം തളിപ്പറമ്പ് താലൂക്കിൽ ഉൾപ്പെടുന്നു
mal_0833	mal	mal_0833.wav	എന്തായാലും ഞാൻ അത് മലയാളത്തിലേക്ക് മാറ്റിയിട്ടുണ്ട്
mal_0834	mal	mal_0834.wav	അവരെ ആധാരമാക്കി വരച്ച ചിത്രം നഷ്ടപ്പെട്ടു
mal_0835	mal	mal_0835.wav	ജീവകം എന്ന വാക്കാൽ വിവക്ഷിക്കാവുന്ന ഒന്നിലധികം കാര്യങ്ങളുണ്ട്
mal_0836	mal	mal_0836.wav	ഇങ്ങനെ കുറെ ഒറ്റവരി ലേഖനങ്ങൾ കണ്ടപ്പോൾ എന്റെ അഭിപ്രായം പറഞ്ഞു എന്നു മാത്രം
mal_0837	mal	mal_0837.wav	പിന്നെ ഇതര ഭാഷകളിൽ എന്ന കണ്ണി കൊണ്ട് ഉദ്ദേശിക്കുന്നത് ഈ ലേഖനം മറ്റ് ഭാഷകളിലും ഉണ്ട് എന്ന് മാത്രമാണ്
mal_0838	mal	mal_0838.wav	പഴയ ചിത്രത്തിൽ തന്നെ ടാഗ് ചേർക്കാൻ വഴി കണ്ടില്ല
mal_0839	mal	mal_0839.wav	ഇതിന് കേരള സാഹിത്യ അക്കാദമിയുടെ അവാർഡ് ലഭിച്ചു
mal_0840	mal	mal_0840.wav	ഈ ലേഖനം ആറാട്ടുപുഴ പൂരം എന്ന താളുമായി ലയിപ്പിക്കുന്നതിന് ശുപാർശ ചെയ്തിരിക്കുന്നു
mal_0841	mal	mal_0841.wav	അവയെക്കുറിച്ചറിയാൻ ജീവകം നാനാർത്ഥങ്ങൾ എന്ന താൾ കാണുക
mal_0842	mal	mal_0842.wav	പ്രബോധനം എന്ന വാക്കിനാൽ താഴെപ്പറയുന്ന എന്തിനേയും വിവക്ഷിക്കാം
mal_0843	mal	mal_0843.wav	നമ്മൾ ഇംഗ്ലീഷ് ഭാഷയിലുള്ള ലിങ്ക് മാത്രം നൽകിയാൽ മതി
mal_0844	mal	mal_0844.wav	യന്ത്രം എന്ന വാക്കാൽ വിവക്ഷിക്കാവുന്ന ഒന്നിലധികം കാര്യങ്ങളുണ്ട്
mal_0845	mal	mal_0845.wav	ഒന്നുകിൽ സുനിൽ പറഞ്ഞതുപോലെ തെളിവു നൽകിയാൽ മാത്രം മതിയാവും
mal_0846	mal	mal_0846.wav	പക്ഷേ ചെറിയൊരു കുഴപ്പം ആദ്യമായി ലോഗിൻ ചെയ്യുക
mal_0847	mal	mal_0847.wav	ഞാൻ വിക്കിപീഡിയ ഇംഗ്ലീഷിൽ നിലവിൽ അംഗമാണ്
mal_0848	mal	mal_0848.wav	യൂറോപ്യൻ യൂണിയൻ അംഗമാണ് ഈ രാജ്യം
mal_0849	mal	mal_0849.wav	ഇദ്ദേഹത്തിന്റെ യഥാർത്ഥ പേര് എന്താണ് അതിനെ കുറിച്ചുള്ള വിവരം ഒന്നും ലേഖനത്തിൽ കാണുന്നില്ല
mal_0850	mal	mal_0850.wav	അവയെക്കുറിച്ചറിയാൻ യന്ത്രം നാനാർത്ഥങ്ങൾ എന്ന താൾ കാണുക
mal_0851	mal	mal_0851.wav	അതെ ഇതു തന്നെയാണ് ഞാനും പറയുന്നത്
mal_0852	mal	mal_0852.wav	തിരുവനന്തപുരം ഒരു പ്രമുഖ വിദ്യാഭ്യാസ കേന്ദ്രമാണ്
mal_0853	mal	mal_0853.wav	മഴക്കാലത്ത് പക്ഷേ ഇതിന്റെ ശല്യം കുറവായിരിക്കും
mal_0854	mal	mal_0854.wav	എല്ലാ നിറവും ചേരുമ്പോൾ കറുപ്പ് ഉണ്ടാവുന്നത്
mal_0855	mal	mal_0855.wav	പിന്നീട് പ്രശ്നം ഉണ്ടെങ്കിൽ മാറ്റിയാൽ മതി
mal_0856	mal	mal_0856.wav	ഇതിൽ എന്റെ ഒരു ചെറിയ ഒരു അപേക്ഷ കൂടി സമർപ്പിക്കുന്നു
mal_0857	mal	mal_0857.wav	അവയിൽ പലതും അതാതു രാജ്യങ്ങളുടെ പേരിലാണ് അറിയപ്പെടുന്നത്
mal_0858	mal	mal_0858.wav	വേദങ്ങൾ ഉള്ള കാലത്ത് ഹിന്ദു മതം ഉണ്ടായി എന്ന് പറയാൻ സാധിക്കില്ല
mal_0859	mal	mal_0859.wav	ഒരു പ്രാവശ്യം ഞാൻ ചെയ്തു കാണിച്ചു തരാം ഇവിടെ നോക്കുക
mal_0860	mal	mal_0860.wav	വരമൊഴി അക്ഷരമാല മുതലായ പ്രോഗ്രാമുകൾ മലയാളത്തിൽ എഴുതാൻ സഹായിക്കും
mal_0861	mal	mal_0861.wav	ലേഖനത്തിൽ കൂടുതലും ആദിവാസികൾ എന്നാണ് ഉപയോഗിച്ചിരിക്കുന്നത്
mal_0862	mal	mal_0862.wav	ഈ ഭാഗം ഇവിടെ വേണം എന്നു തോന്നുന്നില്ല
mal_0863	mal	mal_0863.wav	ഇപ്പോൾ ഇത് വെച്ച് അപ്ഡേറ്റ് ചെയ്യാം
mal_0864	mal	mal_0864.wav	അവയെക്കുറിച്ചറിയാൻ തിരുവാതിര നാനാർത്ഥങ്ങൾ എന്ന താൾ കാണുക
mal_0865	mal	mal_0865.wav	ഇംഗ്ലീഷ് വിക്കിയിൽ നിന്ന് തർജ്ജിമ ചെയ്തതാണ്
mal_0866	mal	mal_0866.wav	പിന്നെ ഇംഗ്ലീഷ് വിക്കിയിൽ വന്നു ലേഖനം വായിച്ചു നോക്കി
mal_0867	mal	mal_0867.wav	ഇന്ന് രാവിലെ മുതൽ കുഴപ്പമില്ല എന്ന് തോന്നുന്നു
mal_0868	mal	mal_0868.wav	വിക്കിക്കു അങ്ങനെ ആരുടേയും പക്ഷം പിടിക്കാൻ പറ്റില്ല
mal_0869	mal	mal_0869.wav	കേരള ത്തിലെ പത്തനംതിട്ട ജില്ലയിലുള്ള ഒരു പട്ടണമാണ് അടൂർ
mal_0870	mal	mal_0870.wav	ഉദാഹരണത്തിന് ഇവിടെ ഞെക്കി ഒരു ലേഖനം കാണൂ
mal_0871	mal	mal_0871.wav	ഈ താൾ ഇന്ത്യയിലെ ഭാഷകൾ എന്ന താളുമായി ലയിപ്പിക്കുന്നതിന് ശുപാർശ ചെയ്തിരിക്കുന്നു
mal_0872	mal	mal_0872.wav	ഭാരതപ്പുഴയുടെ തീരത്തുള്ള ഒരു പുരാതനമായ ക്ഷേത്രമാണ് തിരുനാവായ ക്ഷേത്രം
mal_0873	mal	mal_0873.wav	പ്രത്യേകിച്ച് ഇംഗ്ലീഷ് വിക്കിയിൽ നാലു വരി മാത്രമുള്ള സമയത്ത്
mal_0874	mal	mal_0874.wav	എന്റെ അറിവ് അല്ല ഇവിടെ മാനദണ്ഡം
mal_0875	mal	mal_0875.wav	ഞാൻ തൊടുപുഴ എന്ന വിഭാഗം ചെയ്തിട്ടുണ്ട്
mal_0876	mal	mal_0876.wav	ചള്ളിയാൻ പറഞ്ഞത് ഒന്ന് ചെയ്തു നോക്കാം
mal_0877	mal	mal_0877.wav	ഇവ പണ്ട് കർണാടക സംസ്ഥാനത്തിന്റെ ഭാഗമായിരുന്നു
mal_0878	mal	mal_0878.wav	തിരുവാതിര എന്ന വാക്കാൽ വിവക്ഷിക്കാവുന്ന ഒന്നിലധികം കാര്യങ്ങളുണ്ട്
mal_0879	mal	mal_0879.wav	അവർ കൂടുതൽ സഞ്ചാരം നടത്താൻ തുടങ്ങി
mal_0880	mal	mal_0880.wav	മുന്ന് എഴുതിയത് ഒന്നു കൂടെ വായിച്ചു നോക്കുക
mal_0881	mal	mal_0881.wav	അടൂർ പത്തനംതിട്ട കേരള ത്തിലെ പത്തനംതിട്ട ജില്ലയിലെ ഒരു പട്ടണം
mal_0882	mal	mal_0882.wav	എനിക്ക് അതിനെ കുറിച്ച് വലിയ വിവരം ഇല്ല
mal_0883	mal	mal_0883.wav	അതു കൊണ്ടാണ് ഇതിന് പൊട്ടാസ്യം എന്ന പേര് വന്നത്
mal_0884	mal	mal_0884.wav	അതിനു വേണ്ടി നീക്കം ചെയ്യുന്ന ഭാഗങ്ങൾ ഇവിടെ ചേർക്കുന്നു
mal_0885	mal	mal_0885.wav	മലയാളത്തിലെ ആദ്യത്തെ സ്വകാര്യ ടെലിവിഷൻ ചാനൽ
mal_0886	mal	mal_0886.wav	മഹാഭാരതം ലേഖനം വളരെ നിലവാരം പുലർത്തുന്ന ഒന്നായിരുന്നു
mal_0887	mal	mal_0887.wav	അതിന്റെ ഒരു പുതിയ പതിപ്പ് പോലും ഞാൻ കുറെ വർഷം മുൻപ് കണ്ടിട്ടുണ്ട്
mal_0888	mal	mal_0888.wav	ഇതിനു പുറമേ അനവധി ചെറുകിട വ്യവസായ സ്ഥാപനങ്ങളും ജില്ലയിൽ പ്രവർത്തിക്കുന്നു
mal_0889	mal	mal_0889.wav	അവയുടെ വശത്ത് താരകം കണ്ടാൽ മാത്രം
mal_0890	mal	mal_0890.wav	എട്ട് പേരെ പ്രസിഡന്റ് നാമനിർദ്ദേശം ചെയ്യുന്നു
mal_0891	mal	mal_0891.wav	പൊതുവായ ഒരു ആരാധനാ സമ്പ്രദായം ഉണ്ടായിരുന്നില്ല
mal_0892	mal	mal_0892.wav	എന്താണ് ഈ ലേഖനത്തിന്റെ വിഷയം എന്നു മനസ്സിലായില്ല
mal_0893	mal	mal_0893.wav	തുള്ളൽ എന്ന വാക്കിനാൽ താഴെപ്പറയുന്ന എന്തിനേയും വിവക്ഷിക്കാം
mal_0894	mal	mal_0894.wav	വസ്തുതകൾ പറയുക മാത്രം ചെയ്താൽ മതി
mal_0895	mal	mal_0895.wav	അവയെക്കുറിച്ചറിയാൻ തല നാനാർത്ഥങ്ങൾ എന്ന താൾ കാണുക
mal_0896	mal	mal_0896.wav	അവിടെ മലയാളം വിക്കി ലിങ്ക് ഇതുവരെ ഇല്ലായിരുന്നു
mal_0897	mal	mal_0897.wav	മലയാളം വിക്കിപീഡിയയിലെ പ്രവർത്തനങ്ങൾ ജീവിതത്തിൽ ചെയ്ത നല്ല കാര്യങ്ങളിൽ ഒന്നായി ഞാൻ കരുതുന്നു
mal_0898	mal	mal_0898.wav	എന്നതു തെറ്റാണ് എന്നാണ് എനിക്കു തോന്നുന്നത്
mal_0899	mal	mal_0899.wav	ഇങ്ങനെ പന്ത്രണ്ട് മാസം പന്ത്രണ്ട് ദിവസം
mal_0900	mal	mal_0900.wav	കൊച്ചി നിരന്തരം ഇതിനു സാക്ഷ്യം വഹിച്ചു
mal_0901	mal	mal_0901.wav	അതിൽ നിന്നും അനുയോജ്യമായ പകർപ്പവകാശ ടാഗുകൾ നൽകുക
mal_0902	mal	mal_0902.wav	വേല എന്ന മലയാള പദത്തിന്റെ അർത്ഥം ഉത്സവം എന്നാണ്
mal_0903	mal	mal_0903.wav	എതിർക്കുന്നു ഇത് എന്താണെന്ന് ലേഖനത്തിൽ ഒരിടത്തും കാണുന്നില്ല
mal_0904	mal	mal_0904.wav	കോട്ടയം ജില്ലയിലുള്ള ഒരു ചെറിയ പട്ടണമാണ് പൂഞ്ഞാർ
mal_0905	mal	mal_0905.wav	അദ്ദേഹത്തിനെ പറ്റിയുള്ള കൂടുതൽ വിവരങ്ങൾ ലഭ്യമല്ല
mal_0906	mal	mal_0906.wav	ഈ ലേഖനത്തിൽ കുറെ ഭാഗങ്ങളിൽ കരുതപ്പെടുന്നു എന്ന് കാണുന്നു
mal_0907	mal	mal_0907.wav	ശ്രുതി എന്ന വാക്കിനാൽ താഴെപ്പറയുന്ന എന്തിനേയും വിവക്ഷിക്കാം
mal_0908	mal	mal_0908.wav	തല എന്ന വാക്കാൽ വിവക്ഷിക്കാവുന്ന ഒന്നിലധികം കാര്യങ്ങളുണ്ട്
mal_0909	mal	mal_0909.wav	പ്രധാന ലേഖനത്തിലേക്ക് ഒരു ലിങ്ക് ഇട്ടാൽ മതി എനിക്ക് അതിന്റെ കോഡ് അറിയില്ല
mal_0910	mal	mal_0910.wav	ആ വിഷയത്തിൽ ഒരു ലേഖനം നിലവിലുണ്ട്
mal_0911	mal	mal_0911.wav	അതിൽ നല്ലത് ഉണ്ട് എന്ന് തോന്നുന്നു
mal_0912	mal	mal_0912.wav	ഇവിടെ ചില വിവരങ്ങളും ഒരു പുതിയ ചിത്രവും ചേർത്തിരിക്കുന്നു
mal_0913	mal	mal_0913.wav	ഈ ലേഖനം ചന്ദ്രൻ എന്ന താളുമായി ലയിപ്പിക്കുന്നതിന് ശുപാർശ ചെയ്തിരിക്കുന്നു
mal_0914	mal	mal_0914.wav	ആനകൾക്ക് വളരെ അധികം സ്ഥലം വേണം ജീവിക്കാൻ
mal_0915	mal	mal_0915.wav	വളരെ കുറഞ്ഞ കാലം കൊണ്ട് അനേകം എഡിറ്റുകൾ
mal_0916	mal	mal_0916.wav	ഭൂമി യിൽ നിന്നു നോക്കുമ്പോൾ സൂര്യനും
mal_0917	mal	mal_0917.wav	അതുപോലെ വേറെയും ചില തെറ്റുകൾ കാണുന്നുണ്ട്
mal_0918	mal	mal_0918.wav	ഇതേ യാത്രയിൽ അദ്ദേഹം മെക്സിക്കോ യും സന്ദർശിച്ചു
mal_0919	mal	mal_0919.wav	ലേഖനത്തിൽ നിന്നും നീക്കം ചെയ്ത ഭാഗങ്ങൾ തൽക്കാലം ഇവിടെ ചേർത്തിരിക്കുന്നു
mal_0920	mal	mal_0920.wav	അയ്യപ്പൻ എന്ന വാക്കിനാൽ താഴെപ്പറയുന്ന എന്തിനേയും വിവക്ഷിക്കാം
mal_0921	mal	mal_0921.wav	ശിക്ഷ ശ്രുതി എന്ന വാക്കാൽ വിവക്ഷിക്കാവുന്ന ഒന്നിലധികം കാര്യങ്ങളുണ്ട്
mal_0922	mal	mal_0922.wav	കേരളത്തിലെ മലപ്പുറം ജില്ലയിലെ ഒരു പട്ടണമാണ് പൊന്നാനി
mal_0923	mal	mal_0923.wav	അവയെക്കുറിച്ചറിയാൻ ശ്രുതി നാനാർത്ഥങ്ങൾ എന്ന താൾ കാണുക
mal_0924	mal	mal_0924.wav	അപ്പോൾ കൾ ചേർക്കാൻ ന്യായം കാണുന്നില്ല
mal_0925	mal	mal_0925.wav	രണ്ടാമത്തെ ആൾ പുത്രൻ എന്ന് വിളിക്കപ്പെടുന്നു
mal_0926	mal	mal_0926.wav	ആരെങ്കിലും ആ കാരണം ചേർത്താൽ നന്നായിരിക്കും എന്നാണ് ഉദ്ദേശിച്ചത്
mal_0927	mal	mal_0927.wav	അവർക്ക് യോഗ്യത കുറവാണ് എന്നായിരുന്നു കാരണം പറഞ്ഞിരുന്നത്
mal_0928	mal	mal_0928.wav	കാരണം ആ വാൻഡലിസം ഡിലീറ്റ് ചെയ്തു പോയി
mal_0929	mal	mal_0929.wav	കൂടാതെ താങ്കൾക്ക് വിഷയം എന്താണെന്ന് മനസ്സിലായില്ല എങ്കിൽ ദയവായി വ്യാകരണം എന്ന ലേഖനവും നോക്കുക
mal_0930	mal	mal_0930.wav	മറ്റുള്ളവരുടെ സ്വഭാവം നമ്മുക്ക് മാറ്റാൻ സാധിക്കില്ല
mal_0931	mal	mal_0931.wav	ഇപ്പോൾ ഒരു മലയാള പത്രത്തിൽ ജോലി ചെയ്യുന്നു
mal_0932	mal	mal_0932.wav	തർപ്പണം എന്ന പദത്തിന്റെ അർത്ഥം നോക്കാം
mal_0933	mal	mal_0933.wav	ഇവയെ പല പ്രത്യേകതകൾ കൊണ്ടും തരം തിരിച്ചിരിക്കുന്നു
mal_0934	mal	mal_0934.wav	ഇല്ലെങ്കിൽ കുറച്ച് സഹായ ലിങ്കുകൾ തരാം
mal_0935	mal	mal_0935.wav	ഈ താളിൽ ചില വിവരങ്ങൾ ഉണ്ട്
mal_0936	mal	mal_0936.wav	ഇപ്പോഴുള്ള രൂപം വായിച്ചാൽ അങ്ങനെ തോന്നും
mal_0937	mal	mal_0937.wav	എന്നാൽ ഇത് പ്രത്യേക അവസരങ്ങളിൽ മാത്രമാണ്
mal_0938	mal	mal_0938.wav	അതിനാലാണ് തീവണ്ടി എന്ന പേരു കിട്ടിയത്
mal_0939	mal	mal_0939.wav	അതിൽ പറയുന്ന പ്രകാരം ആൾ പ്രശസ്തനാണ്
mal_0940	mal	mal_0940.wav	പടിഞ്ഞാറൻ ഇന്ത്യയിലെ ഒരു നദിയാണ് മാഹി
mal_0941	mal	mal_0941.wav	അശോകൻ എന്ന വാക്കാൽ വിവക്ഷിക്കാവുന്ന ഒന്നിലധികം കാര്യങ്ങളുണ്ട്
mal_0942	mal	mal_0942.wav	ഈ താളിലെ വിവരങ്ങൾ തർജ്ജമ ചെയ്യാൻ പാടില്ല
mal_0943	mal	mal_0943.wav	അവയെക്കുറിച്ചറിയാൻ അശോകൻ നാനാർത്ഥങ്ങൾ എന്ന താൾ കാണുക
mal_0944	mal	mal_0944.wav	മുസ്ലീം മത വിശ്വാസികൾ ആണ് ഈ പ്രദേശത്ത് അധികവും ഉള്ളത്
mal_0945	mal	mal_0945.wav	പകർപ്പവകാശം എന്ന ലേഖനത്തിൽ താങ്കൾ വരുത്തിയ മാറ്റങ്ങൾ കണ്ടു
mal_0946	mal	mal_0946.wav	മലയാളം വിക്കിയിലേക്ക് എന്റെ വ്യക്തിപരമായ സ്വാഗതം
mal_0947	mal	mal_0947.wav	അത് ചരിത്രം എന്ന തലക്കെട്ടിൽ അല്ലല്ലോ കൊടുത്തിരിക്കുന്നത്
mal_0948	mal	mal_0948.wav	എന്റെ അഭിപ്രായത്തിൽ വേണം എന്നു തന്നെയാണ്
mal_0949	mal	mal_0949.wav	അശോകൻ എന്ന വാക്കിനാൽ താഴെപ്പറയുന്ന എന്തിനേയും വിവക്ഷിക്കാം
mal_0950	mal	mal_0950.wav	ശക്തൻ തമ്പുരാൻ ഇവരിൽ നിന്ന് കൂടുതൽ നികുതി ആവശ്യപ്പെട്ടു
mal_0951	mal	mal_0951.wav	പിന്നെ ഒരു കാര്യം പറയാൻ മറന്നു
mal_0952	mal	mal_0952.wav	എനിക്ക് എല്ലായിടത്തും ന്റെ ശരിയായി ആണു കാണുന്നത്
mal_0953	mal	mal_0953.wav	ഇതോടെ രണ്ടാം ദിവസത്തെ പരിപാടികൾ അവസാനിക്കുന്നു
mal_0954	mal	mal_0954.wav	തെറ്റാണെന്ന് തോന്നുന്ന ഭാഗങ്ങൾ തിരുത്തി എഴുതൂ
mal_0955	mal	mal_0955.wav	അതിനാ ഈ ലേഖനം ആന എന്ന ലേഖനവുമായി ലയിപ്പിക്കാൻ ശുപാർശ ചെയ്തിരിക്കുന്നു
mal_0956	mal	mal_0956.wav	പ്രസിദ്ധമായ നിരവധി വിദ്യാഭ്യാസ സ്ഥാപനങ്ങൾ കൊണ്ട് ഈ നഗരം പ്രശസ്തമാണ്
mal_0957	mal	mal_0957.wav	പത്തു വർഷത്തോളം ആ പദവി വഹിച്ചു
mal_0958	mal	mal_0958.wav	എന്നാൽ ഇതിന് ശക്തമായ തെളിവുകൾ ഇല്ല
mal_0959	mal	mal_0959.wav	ഈ താഴെ കാണുന്ന രാജ്യങ്ങളുടെ പേരുകൾ തെറ്റാണ്
mal_0960	mal	mal_0960.wav	അത് കിട്ടിയാൽ ഞാൻ തന്നെ തുടങ്ങാം
mal_0961	mal	mal_0961.wav	താങ്കൾ ചേർത്ത പരസ്യം നീക്കം ചെയ്തിട്ടുണ്ട്
mal_0962	mal	mal_0962.wav	കാരണം എന്റെ കയ്യിൽ ഈ ഒരു പുസ്തകം മാത്രമേ ഉള്ളൂ
mal_0963	mal	mal_0963.wav	തുടങ്ങി ഒട്ടനവധി പ്രസിദ്ധ ഗാനങ്ങൾ പി ഭാസ്കരന്റേതായിട്ടുണ്ട്
mal_0964	mal	mal_0964.wav	അവയെക്കുറിച്ചറിയാൻ ഭരതൻ നാനാർത്ഥങ്ങൾ എന്ന താൾ കാണുക
mal_0965	mal	mal_0965.wav	ശരിയായ പേര് അയ്യപ്പൻ പിള്ള എന്നാണ്
mal_0966	mal	mal_0966.wav	കാരണം മലയാളം പേരുകൾ ആർക്കും അറിയില്ല
mal_0967	mal	mal_0967.wav	പ്രിയ ചള്ളിയാൻ എന്റെ സംവാദത്താളിൽ താങ്കളുടെ ഒരു സന്ദേശം കണ്ടിരുന്നു
mal_0968	mal	mal_0968.wav	എന്റെ അഭിപ്രായം ഞാൻ പറഞ്ഞു എന്ന് മാത്രം
mal_0969	mal	mal_0969.wav	ഇതു കൂടാതെ സാധാരണ ജനങ്ങളെ പ്രതിനിധീകരിക്കുന്ന ഒരു സഭയും ഉണ്ടായിരുന്നു
mal_0970	mal	mal_0970.wav	അദ്ദേഹത്തിന് വിക്കിക്ക് വേണ്ടി ഒരുപാട് കാര്യങ്ങൾ ചെയ്യാൻ കഴിയും
mal_0971	mal	mal_0971.wav	എന്തായാലും ഇപ്പോൾ ഒരു പാട് സംശയം ആണ് ഈ കാര്യങ്ങളിൽ
mal_0972	mal	mal_0972.wav	എന്ത് കൊണ്ട് അതിൻ ചരിത്രത്തിൽ സ്ഥാനം കിട്ടിയില്ല എന്നറിയില്ല
mal_0973	mal	mal_0973.wav	ഗോപി എന്ന പേരു മാത്രം മതിയാകും
mal_0974	mal	mal_0974.wav	കേരളത്തിൽ ആനകൾ എന്ന ലേഖനം വേണമെങ്കിൽ എഴുതാം
mal_0975	mal	mal_0975.wav	മാഷെ ഇവർ മാത്രമല്ല വേറെയും ആളുകൾ വന്നിട്ടുണ്ട്
mal_0976	mal	mal_0976.wav	എതിർ അഭിപ്രായങ്ങൾ ഉണ്ടെങ്കിൽ ദയവായി അറിയിക്കുക
mal_0977	mal	mal_0977.wav	താങ്കൾ പറയുന്നത് ശരിയാണ് എന്ന് തോന്നുന്നു
mal_0978	mal	mal_0978.wav	എന്റെ കയ്യിൽ അവരുടെ പേരുകൾ ഇത്രയും മാത്രമേ ഉള്ളൂ
mal_0979	mal	mal_0979.wav	മുരാരി അങ്ങനെ പറഞ്ഞു എന്നല്ല ഞാൻ പറഞ്ഞത്
mal_0980	mal	mal_0980.wav	ഉദാ പൊന്നാനി കാലടി ഭാരതപ്പുഴയുടെ തീരത്ത്
mal_0981	mal	mal_0981.wav	ഈ ലേഖനം ചേര എന്ന താളുമായി ലയിപ്പിക്കുന്നതിന് ശുപാർശ ചെയ്തിരിക്കുന്നു
mal_0982	mal	mal_0982.wav	മലയാള പത്രങ്ങൾ ഒക്കെ വേറെ ഒരു പേരാണ് സാധാരണ പറയുക
mal_0983	mal	mal_0983.wav	ആംഗലേയ വിക്കിയിലും ഇതേ നിറമാണ് ഉപയോഗിച്ചിരിക്കുന്നത്
mal_0984	mal	mal_0984.wav	പക്ഷേ പലരും അതു ചെയ്തു കണ്ടില്ല
mal_0985	mal	mal_0985.wav	റോമാ സാമ്രാജ്യം എന്ന വാക്കാൽ വിവക്ഷിക്കാവുന്ന ഒന്നിലധികം കാര്യങ്ങളുണ്ട്
mal_0986	mal	mal_0986.wav	അവയെക്കുറിച്ചറിയാൻ ഭീമൻ നാനാർത്ഥങ്ങൾ എന്ന താൾ കാണുക
mal_0987	mal	mal_0987.wav	അതിൽ നിന്ന് വരുമാനം വർദ്ധിച്ചു തുടങ്ങി
mal_0988	mal	mal_0988.wav	ആ പതിപ്പ് തന്നെയാണ് എന്റെ പ്രമാണം
mal_0989	mal	mal_0989.wav	എങ്കിലും ഇപ്പോൾ കഴിവതും ചേർക്കാൻ ശ്രമിക്കാം
mal_0990	mal	mal_0990.wav	എങ്കിലും ഈ പുസ്തകത്തിന്റെ ആധികാരികത പലരും ചോദ്യം ചെയ്യുന്നു
mal_0991	mal	mal_0991.wav	അതോടെ വിപ്ലവം അതിന്റെ ശരിയായ രൂപത്തിൽ ആരംഭിച്ചു
mal_0992	mal	mal_0992.wav	കൊട്ടാരക്കര പട്ടണം എന്ന വിഷയത്തെക്കുറിച്ച് അറിയണമെങ്കിൽ കൊട്ടാരക്കര എന്ന താൾ കാണുക
mal_0993	mal	mal_0993.wav	അവയെക്കുറിച്ചറിയാൻ റോമാ സാമ്രാജ്യം നാനാർത്ഥങ്ങൾ എന്ന താൾ കാണുക
mal_0994	mal	mal_0994.wav	ഇപ്പോഴും പ്രവീൺ വിക്കിയുടെ മികച്ച അംഗമായി തുടരുന്നു
mal_0995	mal	mal_0995.wav	എന്റെ കയ്യിൽ വളരെ കുറച്ച് വിവരങ്ങൾ ഉണ്ട്
mal_0996	mal	mal_0996.wav	ആ സ്വഭാവമുള്ള ലേഖനങ്ങൾ മാത്രം എഴുതുക
mal_0997	mal	mal_0997.wav	അങ്ങനെയാണ് ഞാൻ മലയാളം വിക്കിയിൽ എത്തിയത്
mal_0998	mal	mal_0998.wav	ഭരതൻ എന്ന വാക്കാൽ വിവക്ഷിക്കാവുന്ന ഒന്നിലധികം കാര്യങ്ങളുണ്ട്
mal_0999	mal	mal_0999.wav	കേരളത്തിൽ പരക്കെ കാണപ്പെടുന്ന ഒരു ചെടി
mal_1000	mal	mal_1000.wav	എഴുതിയ ആൾ തന്നെ ചേർക്കണം എന്നില്ല
