അക്കാദമി
അക്കാദമിയുടെ
അക്ബർ
അക്ഷരങ്ങൾ
അക്ഷരമാല
അഖിലേന്ത്യാ
അംഗത്വം
അംഗമാണ്
അംഗമായി
അംഗമായിരുന്നു
അങ്കമാലി
അങ്ങനെ
അങ്ങനെയാണ്
അങ്ങിനെ
അച്ചന്
അഞ്ചാമത്തെ
അടി
അടിച്ചു
അടിസ്ഥാനം
അടുത്ത
അടുത്തുള്ള
അടുത്ത്
അടൂർ
അഡ്മിൻ
അണക്കെട്ട്
അതല്ല
അതാണ്
അതാതു
അതായത്
അതിനാ
അതിനായി
അതിനാലാണ്
അതിനാൽ
അതിനു
അതിനുശേഷം
അതിനുള്ള
അതിനെ
അതിന്
അതിൻ
അതിന്റെ
അതിർത്തി
അതിൽ
അതു
അതും
അതുകൊണ്ടു
അതുകൊണ്ട്
അതുപോലെ
അതുമായി
അതുവരെ
അതെ
അതേ
അതോടെ
അതോടൊപ്പം
അത്
അത്തരം
അത്യാവശ്യം
അത്ര
അഥവാ
അദ്ദേഹം
അദ്ദേഹത്തിനു
അദ്ദേഹത്തിനെ
അദ്ദേഹത്തിന്
അദ്ദേഹത്തിന്റെ
അദ്ദേഹത്തെ
അദ്ധ്യാപകനായി
അദ്ധ്യായം
അധികം
അധികവും
അനവധി
അനുകൂലിക്കുന്നു
അനുയോജ്യം
അനുയോജ്യമായ
അനുസരിച്ച്
അനേകം
അന്തരീക്ഷം
അന്താരാഷ്ട്ര
അന്ത്യോക്യാ
അന്നു
അന്ന്
അപേക്ഷ
അപേക്ഷിക്കുന്നു
അപ്ഡേറ്റ്
അപ്പാടെ
അപ്പോൾ
അപ്ലോഡ്
അഭയം
അഭിനന്ദനങ്ങൾ
അഭിനയിച്ച
അഭിപ്രായ
അഭിപ്രായം
അഭിപ്രായങ്ങൾ
അഭിപ്രായത്തിൽ
അഭിപ്രായപ്പെടുന്നു
അഭ്യസിച്ചു
അമേരിക്കൻ
അമേരിക്കയുടെ
അമ്മ
അമ്മയുടെ
അയൽ
അയാളുടെ
അയാൾ
അയ്യപ്പൻ
അരി
അർത്ഥം
അർത്ഥത്തിലാണ്
അലി
അലൂമിനിയം
അല്ല
അല്ലല്ലോ
അല്ലാതെ
അല്ലാഹു
അല്ലെ
അല്ലെങ്കിൽ
അല്ലേ
അവ
അവതരിപ്പിക്കാൻ
അവൻ
അവന്റെ
അവയവം
അവയിൽ
അവയുടെ
അവയെക്കുറിച്ചറിയാൻ
അവരുടെ
അവരെ
അവർ
അവർക്ക്
അവലംബം
അവശിഷ്ടങ്ങൾ
അവസരങ്ങളിൽ
അവസാന
അവസാനിക്കുന്നു
അവസ്ഥയിൽ
അവളുടെ
അവൾ
അവാർഡ്
അവിടത്തെ
അവിടെ
അശോകൻ
അളവിൽ
അറബി
അറിയണമെങ്കിൽ
അറിയപ്പെടാൻ
അറിയപ്പെടുന്ന
അറിയപ്പെടുന്നത്
അറിയപ്പെടുന്നു
അറിയപ്പെട്ടിരുന്നത്
അറിയപ്പെട്ടു
അറിയാൻ
അറിയിക്കുക
അറിയില്ല
അറിവില്ല
അറിവു
അറിവ്
ആ
ആകർഷണമാണ്
ആകാം
ആകുന്നു
ആക്കി
ആക്രമണത്തിൽ
ആംഗലേയ
ആഗോള
ആഗ്രഹം
ആഗ്രഹിക്കുന്നില്ല
ആഗ്രഹിക്കുന്നു
ആണല്ലോ
ആണു
ആണെങ്കിലും
ആണെന്ന്
ആണോ
ആണ്
ആദി
ആദിമ
ആദിവാസികൾ
ആദ്യ
ആദ്യത്തെ
ആദ്യത്തേത്
ആദ്യമായി
ആധാരം
ആധാരമാക്കി
ആധികാരിക
ആധികാരികത
ആന
ആനകൾ
ആനകൾക്ക്
ആഫ്രിക്കയിലെ
ആമുഖം
ആയി
ആയിരുന്ന
ആയിരുന്നു
ആയുധങ്ങൾ
ആരംഭിക്കുന്നത്
ആരംഭിച്ചു
ആരാധന
ആരാധനാ
ആരും
ആരുടേയും
ആരെങ്കിലും
ആരെയും
ആരോ
ആർ
ആർക്കും
ആലപ്പുഴ
ആവശ്യം
ആവശ്യപ്പെട്ടു
ആവശ്യമാണ്
ആവശ്യമായ
ആവശ്യമില്ല
ആവശ്യമുണ്ടോ
ആവശ്യമുണ്ട്
ആവശ്യമെങ്കിൽ
ആവാം
ആശയം
ആശാൻ
ആസ്ഥാനം
ആളുകൾ
ആൾ
ആൾക്ക്
ആറാട്ടുപുഴ
ഇക്കാര്യത്തിൽ
ഇക്കാലത്ത്
ഇംഗ്ലീഷിൽ
ഇംഗ്ലീഷ്
ഇങ്ങനെ
ഇങ്ങനെയുള്ള
ഇടക്ക്
ഇടുക
ഇടുക്കി
ഇട്ടാൽ
ഇതര
ഇതാണ്
ഇതിനായി
ഇതിനു
ഇതിനെ
ഇതിന്
ഇതിന്റെ
ഇതിൽ
ഇതു
ഇതുവരെ
ഇതെല്ലാം
ഇതേ
ഇതൊക്കെ
ഇതൊരു
ഇതോടെ
ഇത്
ഇത്തരം
ഇത്തരത്തിൽ
ഇത്രയും
ഇദ്ദേഹം
ഇദ്ദേഹത്തിന്റെ
ഇനി
ഇനിയും
ഇന്ത്യൻ
ഇന്ത്യയിലെ
ഇന്ത്യയിൽ
ഇന്ത്യയുടെ
ഇന്ത്യാ
ഇന്നത്തെ
ഇന്നലെ
ഇന്നു
ഇന്നും
ഇന്ന്
ഇൻസ്റ്റിറ്റ്യൂട്ട്
ഇന്റർനെറ്റിൽ
ഇന്റർനെറ്റ്
ഇപ്പോൾ
ഇപ്പോഴും
ഇപ്പോഴുള്ള
ഇരിക്കുന്ന
ഇരുമ്പ്
ഇല്ല
ഇല്ലാതെ
ഇല്ലാത്ത
ഇല്ലായിരുന്നു
ഇല്ലെങ്കിൽ
ഇവ
ഇവയാണ്
ഇവയിൽ
ഇവയെ
ഇവയ്ക്ക്
ഇവരിൽ
ഇവരുടെ
ഇവർ
ഇവിടത്തെ
ഇവിടെ
ഇവിടെയാണ്
ഇവിടെയും
ഇവിടെയുണ്ട്
ഇസ്ലാം
ഇസ്ലാമി
ഇസ്ലാമിക
ഇസ്ലാമിക്
ഇറക്കുമതി
ഇറ്റലി
ഈ
ഉ
ഉച്ചാരണം
ഉണ്ടല്ലോ
ഉണ്ടാകാം
ഉണ്ടാകും
ഉണ്ടാകുന്നു
ഉണ്ടാക്കാൻ
ഉണ്ടാക്കി
ഉണ്ടാക്കിയ
ഉണ്ടാക്കുകയും
ഉണ്ടാക്കുന്നത്
ഉണ്ടായത്
ഉണ്ടായി
ഉണ്ടായിട്ടുണ്ട്
ഉണ്ടായിരുന്നത്
ഉണ്ടായിരുന്നില്ല
ഉണ്ടായിരുന്നു
ഉണ്ടാവുന്നത്
ഉണ്ടെങ്കിൽ
ഉണ്ടോ
ഉണ്ട്
ഉത്തമ
ഉത്സവം
ഉദാ
ഉദാഹരണം
ഉദാഹരണങ്ങൾ
ഉദാഹരണത്തിന്
ഉദ്ദേശിക്കുന്നത്
ഉദ്ദേശിച്ചത്
ഉദ്ദേശ്യം
ഉദ്ഭവം
ഉപകരണം
ഉപകരണങ്ങൾ
ഉപയോക്താക്കളുടെ
ഉപയോക്താവിന്റെ
ഉപയോഗം
ഉപയോഗിക്കപ്പെടുന്ന
ഉപയോഗിക്കാം
ഉപയോഗിക്കാൻ
ഉപയോഗിക്കുക
ഉപയോഗിക്കുന്ന
ഉപയോഗിക്കുന്നത്
ഉപയോഗിക്കുന്നു
ഉപയോഗിക്കുവാൻ
ഉപയോഗിച്ചാണ്
ഉപയോഗിച്ചാൽ
ഉപയോഗിച്ചിരിക്കുന്നത്
ഉപയോഗിച്ചിരുന്നത്
ഉപയോഗിച്ചിരുന്നു
ഉപയോഗിച്ചു
ഉപയോഗിച്ചുള്ള
ഉപയോഗിച്ച്
ഉപവാസം
ഉപ്പ്
ഉയർന്ന
ഉയർന്നു
ഉസ്താദ്
ഉൾക്കൊള്ളുന്ന
ഉൾപ്പെടുന്നു
ഉള്ള
ഉള്ളടക്കം
ഉള്ളതായി
ഉള്ളതിനാൽ
ഉള്ളത്
ഉള്ളൂ
ഉള്ളൂർ
ഋഗ്വേദം
എങ്കിലും
എങ്കിൽ
എങ്ങനെ
എങ്ങനെയാണ്
എടുക്കാൻ
എട്ടു
എട്ട്
എഡിറ്റർ
എഡിറ്റു
എഡിറ്റുകൾ
എഡിറ്റ്
എണ്ണത്തിൽ
എണ്ണവും
എതിർ
എതിർക്കുന്നു
എത്തിയത്
എത്ര
എത്രയും
എനിക്കു
എനിക്കും
എനിക്ക്
എന്താണെന്ന്
എന്താണ്
എന്തായാലും
എന്തിനേയും
എന്തു
എന്തെങ്കിലും
എന്തോ
എന്ത്
എന്ന
എന്നതാണ്
എന്നതിന്റെ
എന്നതിൽ
എന്നതു
എന്നത്
എന്നല്ല
എന്നല്ലേ
എന്നറിയപ്പെടുന്ന
എന്നറിയില്ല
എന്നാക്കി
എന്നാണെന്റെ
എന്നാണോ
എന്നാണ്
എന്നായിരുന്നു
എന്നാൽ
എന്നിട്ട്
എന്നില്ല
എന്നിവ
എന്നിവയാണ്
എന്നിവയുടെ
എന്നീ
എന്നു
എന്നും
എന്നെ
എന്നേ
എന്നൊന്നും
എന്നൊരു
എന്നോ
എന്നോട്
എന്ന്
എന്റെ
എഫ്
എല്ലാ
എല്ലാം
എല്ലായിടത്തും
എല്ലാവരും
എല്ലാവർക്കും
എവിടെ
എളിയ
എഴുതണം
എഴുതാം
എഴുതാൻ
എഴുതിയ
എഴുതിയത്
എഴുതിയാൽ
എഴുതിയിട്ടുണ്ട്
എഴുതുക
എഴുതുകയും
എഴുതുന്ന
എഴുതുന്നത്
എഴുതുമ്പോൾ
എഴുതൂ
എറണാകുളം
എറ്റവും
ഏകദേശം
ഏതാനും
ഏതു
ഏതെങ്കിലും
ഏത്
ഏപ്രിൽ
ഏഴു
ഏഴ്
ഏറെ
ഏറ്റവും
ഏറ്റെടുത്തു
ഐ
ഐക്യനാടുകളിലെ
ഒ
ഒക്കെ
ഒക്ടോബർ
ഒട്ടനവധി
ഒട്ടും
ഒട്ടേറെ
ഒന്നാം
ഒന്നാണിത്
ഒന്നാണ്
ഒന്നായി
ഒന്നായിരുന്നു
ഒന്നിലധികം
ഒന്നിൽ
ഒന്നു
ഒന്നും
ഒന്നുകിൽ
ഒന്നോ
ഒന്ന്
ഒരാൾ
ഒരിക്കൽ
ഒരിടത്തും
ഒരു
ഒരുപാട്
ഒരുമിച്ച്
ഒരേ
ഒരോ
ഒഴിവാക്കാം
ഒഴിവാക്കി
ഒഴിവാക്കുക
ഒറ്റപ്പാലം
ഒറ്റവരി
ഓക്സിജൻ
ഓട്
ഓണം
ഓഫ്
ഓരോ
ഓർത്തഡോക്സ്
ഓറഞ്ച്
ഔദ്യോഗിക
ഔഷധമായി
കണക്കാക്കപ്പെടുന്നു
കണ്ടപ്പോൾ
കണ്ടാൽ
കണ്ടിട്ടുണ്ട്
കണ്ടിരുന്നു
കണ്ടില്ല
കണ്ടു
കണ്ണി
കണ്ണികൾ
കണ്ണൂർ
കത്തോലിക്കാ
കനത്ത
കന്നട
കന്നഡ
കന്നി
കന്യാകുമാരി
കമ്പനി
കമ്പ്യൂട്ടർ
കമ്പ്യൂട്ടറിൽ
കമ്മ്യൂണിസ്റ്റ്
കമ്യൂണിസ്റ്റ്
കയ്യിൽ
കരുതപ്പെടുന്നു
കരുതുന്നു
കർണാടക
കർണ്ണാടക
കർഷക
കലണ്ടർ
കലാ
കവി
കവിത
കവിതകൾ
കളി
കൾ
കഴിഞ്ഞാൽ
കഴിഞ്ഞു
കഴിഞ്ഞ്
കഴിയും
കഴിവതും
കറുത്ത
കറുപ്പ്
കാണപ്പെടുന്ന
കാണപ്പെടുന്നു
കാണാം
കാണാൻ
കാണാറുണ്ട്
കാണിച്ചു
കാണും
കാണുക
കാണുന്ന
കാണുന്നത്
കാണുന്നില്ല
കാണുന്നു
കാണുന്നുണ്ട്
കാണുമ്പോൾ
കാണൂ
കാനഡ
കാമറ
കാരണം
കാരണങ്ങൾ
കാർട്ടൂൺ
കാർത്തിക
കാര്യം
കാര്യങ്ങളിൽ
കാര്യങ്ങളുണ്ട്
കാര്യങ്ങൾ
കാര്യത്തിലും
കാര്യത്തിൽ
കാര്യമായി
കാര്യവും
കാർഷിക
കാലം
കാലഘട്ടം
കാലടി
കാലത്താണ്
കാലത്ത്
കാലയളവിൽ
കാലിക്കൂട്ടർ
കാവേരി
കാസർഗോഡ്
കാഴ്ചപ്പാടിൽ
കാറ്റഗറി
കിട്ടി
കിട്ടിയത്
കിട്ടിയാൽ
കിട്ടിയില്ല
കിട്ടും
കിട്ടുന്നില്ല
കിഴക്കൻ
കീഴിലായിരുന്നു
കുടുംബ
കുടുംബം
കുട്ടി
കുട്ടികൾക്ക്
കുരുമുളക്
കുള്ളൻ
കുഴപ്പം
കുഴപ്പമില്ല
കുറച്ചു
കുറച്ച്
കുറഞ്ഞ
കുറഞ്ഞതും
കുറഞ്ഞു
കുറവാണ്
കുറവായിരിക്കും
കുറിച്ചുള്ള
കുറിച്ച്
കുറിപ്പ്
കുറെ
കുറേ
കൂടാതെ
കൂടി
കൂടിയ
കൂടിയാണ്
കൂടുതലായി
കൂടുതലായും
കൂടുതലും
കൂടുതലുള്ള
കൂടുതൽ
കൂടെ
കൂട്ടത്തിൽ
കൂലി
കൃതി
കൃത്യമായി
കൃഷി
കൃഷ്ണൻ
കെ
കേട്ട
കേട്ടോ
കേന്ദ്ര
കേന്ദ്രം
കേന്ദ്രങ്ങളിൽ
കേന്ദ്രമാണ്
കേന്ദ്രമായി
കേരള
കേരളത്തിന്റെ
കേരളത്തിലെ
കേരളത്തിൽ
കേശവൻ
കൈകാര്യം
കൊച്ചി
കൊച്ചിൻ
കൊടുക്കണം
കൊടുക്കാൻ
കൊടുക്കുക
കൊടുക്കുന്നു
കൊടുത്താൽ
കൊടുത്തിട്ടുണ്ട്
കൊടുത്തിരിക്കുന്ന
കൊടുത്തിരിക്കുന്നത്
കൊടുത്തു
കൊടുത്ത്
കൊട്ടാരക്കര
കൊട്ടാരത്തിൽ
കൊണ്ടത്
കൊണ്ടാണ്
കൊണ്ടും
കൊണ്ടുവന്നത്
കൊണ്ട്
കൊല്ലം
കൊല്ലങ്കോട്
കൊറിയ
കോടതിയിൽ
കോട്ട
കോട്ടയം
കോട്ടയുടെ
കോഡ്
കോപ്പി
കോളെജിൽ
കോളേജിൽ
കോളേജ്
കോഴിക്കോട്
ക്ക്
ക്രമേണ
ക്രി
ക്രിക്കറ്റ്
ക്രിസ്തുമത
ക്രിസ്തുമതം
ക്രിസ്ത്യൻ
ക്രിസ്ത്യാനികൾ
ക്രൈസ്തവ
ക്ലബ്
ക്ലിക്ക്
ക്ഷണിക്കുന്നു
ക്ഷമിക്കണം
ക്ഷേത്രം
ക്ഷേത്രങ്ങളിൽ
ക്ഷേത്രങ്ങൾ
ക്ഷേത്രത്തിന്റെ
ക്ഷേത്രത്തിലെ
ക്ഷേത്രത്തിൽ
ക്ഷേത്രമാണ്
ക്ഷേത്രവും
ക്ഷേമനിധി
ഖുർആനിലെ
ഖുർആൻ
ഗംഗ
ഗണപതി
ഗണിത
ഗണ്യമായ
ഗവണ്മെന്റ്
ഗൾഫ്
ഗാനങ്ങൾ
ഗാന്ധിജി
ഗുജറാത്തി
ഗുണം
ഗുരു
ഗൂഗിളിൽ
ഗോപി
ഗോവിന്ദൻ
ഗ്രന്ഥം
ഗ്രാമം
ഗ്രാമങ്ങൾ
ഗ്രാമത്തിന്റെ
ഗ്രാമത്തിലാണ്
ഗ്രാമമാണ്
ഘടകമാണ്
ചക്ക
ചക്രവർത്തി
ചന്ദ്രനിൽ
ചന്ദ്രൻ
ചരിത്രം
ചരിത്രത്തിൽ
ചരിത്രവും
ചർച്ച
ചലച്ചിത്രം
ചള്ളിയൻ
ചള്ളിയാൻ
ചാനൽ
ചാലക്കുടി
ചാലക്കുടിയിൽ
ചാറ്റ്
ചിത്രം
ചിത്രങ്ങളിൽ
ചിത്രങ്ങളുടെ
ചിത്രങ്ങൾ
ചിത്രത്തിനു
ചിത്രത്തിന്റെ
ചിത്രത്തിൽ
ചിത്രവും
ചില
ചിലത്
ചിലയിടങ്ങളിൽ
ചുരുക്കത്തിൽ
ചുവന്ന
ചെക്ക്
ചെങ്ങന്നൂർ
ചെടി
ചെമ്മീൻ
ചെയർമാൻ
ചെയ്ത
ചെയ്തതാണ്
ചെയ്തത്
ചെയ്താണ്
ചെയ്താൽ
ചെയ്തിട്ടില്ല
ചെയ്തിട്ടുണ്ട്
ചെയ്തിരിക്കുന്നത്
ചെയ്തിരിക്കുന്നു
ചെയ്തിരുന്ന
ചെയ്തിരുന്നത്
ചെയ്തിരുന്നു
ചെയ്തു
ചെയ്ത്
ചെയ്യണം
ചെയ്യപ്പെടുന്ന
ചെയ്യപ്പെട്ടു
ചെയ്യരുത്
ചെയ്യാം
ചെയ്യാതെ
ചെയ്യാനും
ചെയ്യാന്
ചെയ്യാൻ
ചെയ്യാവുന്നതാണ്
ചെയ്യും
ചെയ്യുക
ചെയ്യുന്ന
ചെയ്യുന്നത്
ചെയ്യുന്നു
ചെയ്യുമ്പോൾ
ചെയ്യൂ
ചെയ്യേണ്ട
ചെലുത്തിയ
ചെറായി
ചെറിയ
ചെറിയൊരു
ചെറുകിട
ചെറുതും
ചേര
ചേരുമ്പോൾ
ചേർക്കണം
ചേർക്കാം
ചേർക്കാൻ
ചേർക്കുക
ചേർക്കുന്നത്
ചേർക്കുന്നു
ചേർത്ത
ചേർത്തത്
ചേർത്താൽ
ചേർത്തിരിക്കുന്നു
ചേർത്തു
ചേർത്ത്
ചേർന്നതാണ്
ചൈനയിൽ
ചോദ്യം
ജഗതി
ജനം
ജനങ്ങളെ
ജനങ്ങൾ
ജനത
ജനസംഖ്യ
ജനാധിപത്യ
ജനിച്ചത്
ജമാഅത്തെ
ജലം
ജലത്തിൽ
ജസീം
ജാതി
ജി
ജിഗേഷ്
ജില്ല
ജില്ലകളിൽ
ജില്ലയിലുള്ള
ജില്ലയിലെ
ജില്ലയിൽ
ജില്ലയുടെ
ജീവകം
ജീവൻ
ജീവിക്കാൻ
ജീവിത
ജീവിതം
ജീവിതത്തിൽ
ജുമുഅ
ജേക്കബ്
ജോൺ
ജോർജ്
ജോർജ്ജ്
ജോലി
ജ്യോതിശാസ്ത്ര
ഞാനും
ഞാൻ
ഞെക്കി
ഞെക്കിയാൽ
ടാഗുകൾ
ടാഗ്
ടി
ടെമ്പ്ലേറ്റ്
ടെലിവിഷൻ
ടൈപ്പ്
ട്രോഫി
ഡച്ച്
ഡാം
ഡി
ഡിലീറ്റ്
ഡിസംബർ
ഡെൽഹി
തടാകം
തന്ന
തന്നെ
തന്നെയാണോ
തന്നെയാണ്
തന്നെയായിരുന്നു
തന്റെ
തമിഴിൽ
തമിഴ്
തമിഴ്നാട്ടിലെ
തമ്പുരാൻ
തമ്പുരാന്റെ
തമ്മിലുള്ള
തമ്മിൽ
തരം
തരത്തിൽ
തരാം
തർക്കം
തർജ്ജമ
തർജ്ജിമ
തർപ്പണം
തല
തലക്കെട്ടിൽ
തലക്കെട്ടു
തലക്കെട്ട്
തലവൻ
തലശ്ശേരി
തലസ്ഥാനം
തലസ്ഥാനമായ
തൽക്കാലം
തവണ
തളിപ്പറമ്പ്
താങ്കളുടെ
താങ്കളെ
താങ്കൾ
താങ്കൾക്ക്
താപനില
താമസിയാതെ
താരകം
താരതമ്യം
താരതമ്യേന
താലൂക്കിലെ
താലൂക്കിൽ
താല്പര്യം
താളിന്റെ
താളിലെ
താളിലേക്ക്
താളിൽ
താളുകളിൽ
താളുകളും
താളുകൾ
താളുമായി
താൾ
താഴെ
താഴെപ്പറയുന്ന
താഴേക്ക്
തിരഞ്ഞെടുത്ത
തിരിക്കാം
തിരിച്ചിരിക്കുന്നു
തിരിച്ചു
തിരുത്തലുകൾ
തിരുത്തൽ
തിരുത്തി
തിരുത്തുക
തിരുനാവായ
തിരുവനന്തപുരം
തിരുവനന്തപുരത്ത്
തിരുവാതിര
തിരുവിതാംകൂർ
തിരുവിതാംകൂറിൽ
തീരത്താണ്
തീരത്തുള്ള
തീരത്ത്
തീരുമാനം
തീരെ
തീവണ്ടി
തുടക്കത്തിൽ
തുടങ്ങാം
തുടങ്ങാൻ
തുടങ്ങി
തുടങ്ങിയ
തുടങ്ങിയാൽ
തുടങ്ങുക
തുടങ്ങുവാനോ
തുടരുന്നു
തുടർച്ചയായി
തുള്ളൽ
തൃശൂർ
തൃശ്ശൂർ
തെക്കു
തെക്കേ
തെലുങ്ക്
തെളിയിച്ചു
തെളിവു
തെളിവുകൾ
തെളിവ്
തെറ്റാണെന്ന്
തെറ്റാണ്
തെറ്റു
തെറ്റുകൾ
തെറ്റ്
തേടി
തൊടുപുഴ
തൊഴിലാളി
തോന്നി
തോന്നും
തോന്നുന്ന
തോന്നുന്നത്
തോന്നുന്നില്ല
തോന്നുന്നു
തോമസ്
തോറും
ത്തിലെ
ദക്ഷിണ
ദയവായി
ദില്ലി
ദിവസം
ദിവസത്തെ
ദിവസവും
ദേവൻ
ദേവസ്വം
ദേവി
ദേശാഭിമാനി
ദേശീയ
ദൈവ
ദൈവം
ദൈവത്തിന്റെ
ദ്രവ്യം
ധാരണ
ധാരാളം
ധൈര്യമായി
നക്ഷത്ര
നക്ഷത്രം
നഗരം
നഗരങ്ങളിൽ
നഗരത്തിലെ
നഗരമാണ്
നഗരവും
നഗർ
നടക്കുന്ന
നടക്കുന്നത്
നടക്കുന്നു
നടക്കുന്നുണ്ട്
നടത്താൻ
നടത്തി
നടത്തിയത്
നടത്തുന്ന
നടത്തുന്നു
നടന്ന
നടന്നത്
നടന്നു
നടപടി
നദി
നദികളിൽ
നദിയാണ്
നദിയിൽ
നദീതട
നന്ദി
നന്നാക്കാൻ
നന്നായി
നന്നായിരിക്കും
നന്നായിരുന്നു
നമുക്ക്
നമ്പൂതിരി
നമ്മൾ
നമ്മുക്ക്
നയം
നയങ്ങൾ
നൽകണം
നൽകിയ
നൽകിയത്
നൽകിയാൽ
നൽകിയിട്ടുണ്ട്
നൽകുക
നൽകുന്ന
നൽകുന്നത്
നൽകുന്നുണ്ട്
നല്ല
നല്ലത്
നല്ലൊരു
നവരാത്രി
നഷ്ടപ്പെട്ടു
നാട്
നാനാർത്ഥങ്ങൾ
നാമം
നാമകരണം
നാമങ്ങൾ
നാമനിർദ്ദേശം
നായർ
നാലു
നാലോ
നാൾ
നികുതി
നിങ്ങളുടെ
നിങ്ങൾ
നിങ്ങൾക്ക്
നിന്നാണ്
നിന്നു
നിന്നും
നിന്നുള്ള
നിന്ന്
നിയന്ത്രണം
നിയമ
നിയമങ്ങൾ
നിരന്തരം
നിരവധി
നിർദ്ദേശം
നിർദ്ദേശങ്ങൾ
നിർദ്ദേശിക്കുന്നു
നിർമ്മിക്കുന്നത്
നിർമ്മിച്ചിരിക്കുന്നത്
നിലനിന്ന
നിലനിന്നിരുന്ന
നിലയിൽ
നിലവാരം
നിലവിലുണ്ടായിരുന്ന
നിലവിലുണ്ട്
നിലവിലുള്ളവ
നിലവിൽ
നിൽക്കുന്നത്
നിറം
നിറങ്ങൾ
നിറത്തിലും
നിറത്തിൽ
നിറമാണ്
നിറവും
നീക്കം
നീക്കി
നീലഗിരി
നീളം
നൂറ്റാണ്ടിൽ
നൂറ്റാണ്ടുകൾ
നെടുംകുന്നം
നെയിം
നെല്ല്
നെഹ്രു
നേടാൻ
നേടി
നേടിക്കൊടുത്തു
നേടിയ
നേടിയിട്ടുണ്ട്
നേതാക്കൾ
നേതൃത്വം
നേരത്തേ
നേരിടുന്ന
നേരിട്ടു
നേരിട്ട്
നേരെ
നൈൽ
നോക്കാം
നോക്കി
നോക്കിയാൽ
നോക്കുക
നോക്കുന്ന
നോക്കുമ്പോൾ
നോക്കൂ
നോവൽ
ന്യായം
ന്യൂ
ന്റെ
പകർത്തി
പകർപ്പവകാശ
പകർപ്പവകാശം
പക്ഷം
പക്ഷപാതം
പക്ഷികൾ
പക്ഷെ
പക്ഷേ
പങ്കാളിയാകാൻ
പഞ്ചഭൂതങ്ങളായി
പടം
പടിഞ്ഞാറൻ
പട്ടണം
പട്ടണമാണ്
പട്ടിക
പട്ടികയിൽ
പഠനത്തിൽ
പഠിക്കാൻ
പഠിച്ച
പഠിച്ചു
പഠിപ്പിക്കുന്ന
പഠിപ്പിച്ചത്
പണം
പണിതു
പണ്ട്
പതാക
പതിപ്പ്
പതുക്കെ
പത്തനംതിട്ട
പത്താം
പത്തു
പത്തൊമ്പതാം
പത്രം
പത്രങ്ങൾ
പത്രത്തിൽ
പദം
പദങ്ങളുടെ
പദങ്ങൾ
പദത്തിന്റെ
പദവി
പദ്ധതി
പന്തളം
പന്ത്രണ്ട്
പരക്കെ
പരമാവധി
പരസ്യം
പരാമർശം
പരാമർശങ്ങൾ
പരിപാടി
പരിപാടികൾ
പരിഭാഷ
പരിവർത്തനം
പരിഷ്കാരങ്ങൾ
പരിസ്ഥിതി
പരിഹാരം
പരീക്ഷണം
പല
പലതും
പലപ്പോഴും
പലയിടത്തും
പലരും
പള്ളി
പള്ളികളിൽ
പള്ളികൾ
പഴം
പഴക്കം
പഴയ
പഴശ്ശി
പറഞ്ഞ
പറഞ്ഞതു
പറഞ്ഞതുപോലെ
പറഞ്ഞത്
പറഞ്ഞിട്ടില്ല
പറഞ്ഞിരുന്നത്
പറഞ്ഞിരുന്നു
പറഞ്ഞു
പറഞ്ഞ്
പറയട്ടെ
പറയാം
പറയാതെ
പറയാൻ
പറയും
പറയുക
പറയുന്ന
പറയുന്നത്
പറയുന്നില്ല
പറയുന്നു
പറയൂ
പറവൂർ
പറ്റി
പറ്റിയുള്ള
പറ്റില്ല
പറ്റും
പറ്റുന്ന
പറ്റുമോ
പറ്റൂ
പാക്കിസ്ഥാൻ
പാടില്ല
പാടുള്ളൂ
പാട്
പാത്രിയാര്ക്കീസുമാരാണ്
പാപ്പ
പാരമ്പര്യം
പാർട്ടി
പാലക്കാട്
പാലാ
പി
പിടിക്കാൻ
പിടിച്ച്
പിതാവ്
പിന്നാലെ
പിന്നിൽ
പിന്നീടു
പിന്നീടുള്ള
പിന്നീട്
പിന്നെ
പിള്ള
പിറന്നാൾ
പുതിയ
പുതുമുഖം
പുത്രൻ
പുരസ്കാരങ്ങൾ
പുരാതന
പുരാതനമായ
പുരോഗമന
പുലർത്തുന്ന
പുസ്തകം
പുസ്തകങ്ങളുടെ
പുസ്തകങ്ങൾ
പുസ്തകത്തിന്റെ
പുസ്തകത്തിൽ
പുഴയുടെ
പുറത്താക്കി
പുറത്ത്
പുറമെ
പുറമേ
പൂക്കൾ
പൂഞ്ഞാർ
പൂരം
പൂർണമായും
പൂർണ്ണ
പൂവ്
പെടുന്നു
പെട്ടെന്ന്
പെരിയാർ
പെരിയാറിന്റെ
പേജിന്റെ
പേജിൽ
പേജുകളിൽ
പേജുകൾ
പേജ്
പേരാണ്
പേരിലാണ്
പേരിലും
പേരിലുള്ള
പേരിൽ
പേരു
പേരും
പേരുകളിൽ
പേരുകൾ
പേരെ
പേര്
പേർ
പേസ്റ്റ്
പൊട്ടാസ്യം
പൊതു
പൊതുവായ
പൊതുവായി
പൊന്നാനി
പോകാൻ
പോകുന്നു
പോയ
പോയി
പോരേ
പോലും
പോലെ
പോവുകയും
പോസ്റ്റ്
പൗരസ്ത്യ
പ്രകാരം
പ്രചാരം
പ്രതിനിധി
പ്രതിനിധീകരിക്കുന്ന
പ്രതിഭ
പ്രതിമ
പ്രതിരോധം
പ്രതിഷ്ഠ
പ്രതീക്ഷിക്കുന്നു
പ്രത്യേക
പ്രത്യേകം
പ്രത്യേകതകൾ
പ്രത്യേകതയാണ്
പ്രത്യേകമായി
പ്രത്യേകിച്ച്
പ്രദേശം
പ്രദേശങ്ങളിൽ
പ്രദേശങ്ങൾ
പ്രദേശത്തെ
പ്രദേശത്ത്
പ്രധാന
പ്രധാനപ്പെട്ട
പ്രധാനമാണ്
പ്രപഞ്ചത്തിൽ
പ്രബോധനം
പ്രമാണം
പ്രമുഖ
പ്രയോഗം
പ്രയോജനം
പ്രവർത്തനം
പ്രവർത്തനങ്ങൾ
പ്രവർത്തനങ്ങൾക്ക്
പ്രവർത്തിക്കുന്നത്
പ്രവർത്തിക്കുന്നു
പ്രവർത്തിക്കുന്നുണ്ട്
പ്രവീൺ
പ്രശസ്തനാണ്
പ്രശസ്തമാണ്
പ്രശസ്തമായ
പ്രശസ്തി
പ്രശ്നം
പ്രശ്നങ്ങളും
പ്രശ്നങ്ങൾ
പ്രസാധകർ
പ്രസിഡന്റ്
പ്രസിദ്ധ
പ്രസിദ്ധമാണ്
പ്രസിദ്ധമായ
പ്രസിദ്ധീകരിച്ച
പ്രസ്തുത
പ്രസ്ഥാനം
പ്രാചീന
പ്രാധാന്യം
പ്രാപിച്ചു
പ്രാവശ്യം
പ്രാവീണ്യം
പ്രിയ
പ്രൊട്ടക്റ്റ്
പ്രോഗ്രാം
പ്രോഗ്രാമുകൾ
ഫയലുകൾ
ഫയൽ
ഫലകം
ഫലകങ്ങൾ
ഫുട്ബോൾ
ഫെബ്രുവരി
ഫോട്ടോ
ഫോണ്ട്
ഫോർട്ട്
ഫ്രഞ്ച്
ഫ്ലാഷ്
ഫ്ലൂറിൻ
ബംഗാളി
ബന്ധം
ബന്ധപ്പെട്ട
ബഹുമതി
ബാക്കി
ബാംഗ്ലൂർ
ബാങ്ക്
ബിരുദം
ബിരുദവും
ബിരുദാനന്തര
ബുദ്ധൻ
ബുദ്ധമത
ബുഷ്
ബൈബിൾ
ബോക്സ്
ബോട്ടുകൾ
ബോട്ട്
ബോംബെ
ബോർഡ്
ബ്യൂറോക്രാറ്റ്
ബ്രണ്ണൻ
ബ്രിട്ടീഷുകാരുടെ
ബ്രിട്ടീഷ്
ബ്ലൂ
ബ്ലോക്ക്
ഭഗവതി
ഭരണ
ഭരണം
ഭരണകൂടം
ഭരണത്തിൻ
ഭരതൻ
ഭരിച്ചിരുന്ന
ഭാഗം
ഭാഗങ്ങളിലും
ഭാഗങ്ങളിൽ
ഭാഗങ്ങൾ
ഭാഗത്തായി
ഭാഗത്ത്
ഭാഗമാണ്
ഭാഗമായ
ഭാഗമായിരുന്ന
ഭാഗമായിരുന്നു
ഭാരതത്തിന്റെ
ഭാരതത്തിലെ
ഭാരതപ്പുഴയുടെ
ഭാരതീയ
ഭാഷ
ഭാഷകളിലും
ഭാഷകളിൽ
ഭാഷകളും
ഭാഷകൾ
ഭാഷയിലുള്ള
ഭാഷയിൽ
ഭാഷയുടെ
ഭാഷാ
ഭാസ്കരന്റേതായിട്ടുണ്ട്
ഭീമൻ
ഭൂമി
ഭൂമിയിലെ
ഭൂമിയിൽ
ഭൗതികം
മകൻ
മക്കൾ
മഗധ
മംഗലം
മംഗലാട്ട്
മംഗളം
മഞ്ഞ
മട്ടന്നൂർ
മട്ടിൽ
മഠം
മണി
മത
മതം
മതത്തിന്റെ
മതപരമായ
മതവും
മതി
മതിയാകും
മതിയാവും
മദീനയിൽ
മദ്ദളം
മദ്രാസ്
മധു
മധുര
മനസിലാക്കാൻ
മനസ്സിലാക്കാം
മനസ്സിലാക്കാൻ
മനസ്സിലാക്കുക
മനസ്സിലായി
മനസ്സിലായില്ല
മനസ്സിൽ
മനസ്സ്
മനുഷ്യൻ
മന്ത്രിസഭ
മരണം
മലങ്കര
മലപ്പുറം
മലബാർ
മലബാറിലെ
മലമുകളിൽ
മലമ്പുഴ
മലയാള
മലയാളം
മലയാളത്തിലെ
മലയാളത്തിലേക്ക്
മലയാളത്തിൽ
മലയാളി
മലയോര
മഹത്തായ
മഹാനായ
മഹാഭാരതം
മഹാരാഷ്ട്ര
മഹാവിഷ്ണു
മഴക്കാലത്ത്
മറന്നു
മറാഠി
മറുപടി
മറ്റു
മറ്റുള്ള
മറ്റുള്ളവരുടെ
മറ്റേത്
മറ്റൊരു
മറ്റോ
മറ്റ്
മാതാവ്
മാത്രം
മാത്രമല്ല
മാത്രമാണ്
മാത്രമുള്ള
മാത്രമേ
മാനദണ്ഡം
മാനദണ്ഡങ്ങൾ
മാപ്പിള
മാർച്ച്
മാർപ്പാപ്പ
മാഷെ
മാഷേ
മാഷ്
മാസം
മാസത്തിൽ
മാസ്റ്റർ
മാഹി
മാറി
മാറിയത്
മാറ്റം
മാറ്റങ്ങൾ
മാറ്റണം
മാറ്റാം
മാറ്റാൻ
മാറ്റി
മാറ്റിയാൽ
മാറ്റിയിട്ടുണ്ട്
മാറ്റുക
മികച്ച
മിക്ക
മിക്കവയും
മിക്കവാറും
മീറ്റർ
മുകളിലെ
മുകളിൽ
മുഖ്യമന്ത്രി
മുഗൾ
മുതലായ
മുതലായവ
മുതലേ
മുതൽ
മുതൽക്കേ
മുൻ
മുന്ന്
മുൻപ്
മുംബൈ
മുരളി
മുരാരി
മുസ്ലിം
മുസ്ലീം
മുഹമ്മദ്
മുഴുവൻ
മൂന്നാമത്തെ
മൂന്നാർ
മൂന്നു
മൂന്നോ
മൂലം
മൂലകങ്ങ
മൂലകമാണ്
മൂവാറ്റുപുഴ
മെക്സിക്കോ
മേഖലകളിൽ
മേഖലയിലെ
മേഖലയിൽ
മേനോൻ
മേൽ
മൈസൂർ
മൊത്തത്തിൽ
മൊഴി
യഥാർത്ഥ
യന്ത്രം
യാക്കോബായ
യാണ്
യാത്രയിൽ
യാത്രാ
യിലെ
യിൽ
യും
യുടെ
യുദ്ധം
യൂണിയൻ
യൂസർ
യൂറോപ്പിലും
യൂറോപ്പിലെ
യൂറോപ്യൻ
യോഗ്യത
രംഗത്തും
രംഗത്തെ
രചിച്ചിട്ടുണ്ട്
രണ്ടാം
രണ്ടാമത്തെ
രണ്ടായി
രണ്ടു
രണ്ടും
രണ്ടോ
രണ്ട്
രാജവംശത്തിന്റെ
രാജാക്കന്മാരുടെ
രാജാക്കന്മാർ
രാജാവ്
രാജ്യം
രാജ്യങ്ങളുടെ
രാജ്യങ്ങളുമായി
രാജ്യങ്ങൾ
രാജ്യത്തിന്റെ
രാജ്യത്തെ
രാജ്യമാണ്
രാത്രി
രാത്രിയിൽ
രാമൻ
രാവിലെ
രാഷ്ട്രീയ
രീതി
രീതിയിൽ
രൂപ
രൂപം
രൂപത്തിൽ
രേഖകൾ
രേഖപ്പെടുത്തിയിട്ടുണ്ട്
ലഭിക്കും
ലഭിക്കുന്നത്
ലഭിച്ചിട്ടുണ്ട്
ലഭിച്ചു
ലഭ്യമല്ല
ലഭ്യമാണ്
ലയിക്കുന്നു
ലയിപ്പിക്കാൻ
ലയിപ്പിക്കുന്നതിന്
ലാ
ലാറ്റിൻ
ലിങ്കിൽ
ലിങ്കുകൾ
ലിങ്ക്
ലിജു
ലിപി
ലിസ്റ്റ്
ലേഖനം
ലേഖനങ്ങളിൽ
ലേഖനങ്ങളും
ലേഖനങ്ങളുടെ
ലേഖനങ്ങൾ
ലേഖനങ്ങൾക്ക്
ലേഖനത്തിനു
ലേഖനത്തിന്
ലേഖനത്തിന്റെ
ലേഖനത്തിലും
ലേഖനത്തിലെ
ലേഖനത്തിലേക്ക്
ലേഖനത്തിൽ
ലേഖനവും
ലേഖനവുമായി
ലൈസൻസ്
ലോകകപ്പ്
ലോകത്തിന്റെ
ലോകത്തിലെ
ലോകത്ത്
ലോഗിൻ
ലോഹമാണ്
ൽ
വ
വച്ചു
വച്ച്
വടക്കൻ
വന്നത്
വന്നിട്ടുണ്ട്
വന്നു
വയനാട്
വയലാർ
വയസിൽ
വയ്യ
വരച്ച
വരണം
വരമൊഴി
വരി
വരില്ല
വരുത്തി
വരുത്തിയ
വരുന്ന
വരുന്നത്
വരുന്നില്ല
വരുന്നു
വരുന്നുണ്ട്
വരുമാനം
വരുമ്പോൾ
വരെ
വരെയും
വരെയുള്ള
വർദ്ധിച്ചു
വർഷം
വർഷങ്ങളിൽ
വർഷത്തിൽ
വർഷത്തോളം
വർഷവും
വലിയ
വല്ല
വശത്ത്
വസ്തുതകൾ
വഹിച്ചു
വളരുന്നു
വളരെ
വളരെയധികം
വളർച്ച
വള്ളംകളി
വള്ളത്തോൾ
വഴി
വഴിക്ക്
വഴിയാണ്
വാക്കാൽ
വാക്കിനാൽ
വാക്കിന്റെ
വാക്കുകൾ
വാക്ക്
വാക്യം
വാക്യങ്ങൾ
വാങ്ങി
വാചകം
വാചകങ്ങൾ
വാദം
വാൻ
വാൻഡലിസം
വായിക്കുക
വായിച്ചാൽ
വായിച്ചു
വാസുദേവൻ
വി
വികസന
വിക്കി
വിക്കിക്കു
വിക്കിക്ക്
വിക്കിപീഡിയ
വിക്കിപീഡിയക്ക്
വിക്കിപീഡിയയിലെ
വിക്കിപീഡിയയിലേക്ക്
വിക്കിപീഡിയയിൽ
വിക്കിപീഡിയയുടെ
വിക്കിപീഡിയയെ
വിക്കിയിലും
വിക്കിയിലെ
വിക്കിയിലേക്ക്
വിക്കിയിൽ
വിക്കിയുടെ
വിക്കിയെ
വിക്ടർ
വിഗ്രഹം
വിജയകരമായിരുന്നു
വിജ്ഞാനകോശത്തിന്റെ
വിജ്ഞാനകോശത്തിൽ
വിട്ടു
വിട്ട്
വിതരണം
വിദ്യാഭ്യാസ
വിധത്തിലുള്ള
വിനോദ
വിനോദസഞ്ചാര
വിപ്ലവം
വിഭാഗം
വിഭാഗങ്ങളിൽ
വിഭാഗങ്ങൾ
വിഭാഗത്തിലെ
വിമർശനം
വിമർശനങ്ങൾ
വിമാനം
വിമാനത്താവളം
വിലയേറിയ
വിവക്ഷിക്കാം
വിവക്ഷിക്കാവുന്ന
വിവരം
വിവരങ്ങളും
വിവരങ്ങൾ
വിവരങ്ങൾക്ക്
വിവർത്തനം
വിവാദം
വിവിധ
വിശദമായി
വിശദീകരണം
വിശാലമായ
വിശിഷ്ട
വിശുദ്ധ
വിശ്വാസം
വിശ്വാസികൾ
വിഷയം
വിഷയങ്ങളിൽ
വിഷയങ്ങൾ
വിഷയത്തിൽ
വിഷയത്തെക്കുറിച്ച്
വിഷ്ണു
വിളിക്കപ്പെടുന്നു
വിളിക്കുന്നത്
വിളിക്കുന്നു
വിളിച്ചിരുന്നത്
വിളിച്ചു
വീണ്ടും
വൃത്തം
വെച്ച്
വെബ്
വെള്ള
വെള്ളി
വെറും
വേഗത്തിൽ
വേണം
വേണമെങ്കിലും
വേണമെങ്കിൽ
വേണമെന്നു
വേണമെന്ന്
വേണാട്
വേണ്ട
വേണ്ടത്
വേണ്ടി
വേദങ്ങൾ
വേല
വേളി
വേൾഡ്
വേറിട്ടു
വേറെ
വേറെയും
വേറേ
വൈക്കം
വൈഡ്
വൈദ്യുതി
വൈസ്
വോട്ടെടുപ്പ്
വ്യക്തമല്ല
വ്യക്തമായ
വ്യക്തമായി
വ്യക്തിപരമായ
വ്യക്തിയെ
വ്യത്യസ്ത
വ്യത്യാസം
വ്യവസായ
വ്യവസ്ഥകൾ
വ്യാകരണം
വ്യാപകമായ
വ്യാപകമായി
വ്യാവസായിക
ശക്തൻ
ശക്തമായ
ശക്തമായി
ശക്തി
ശങ്കരൻ
ശങ്കുണ്ണി
ശരി
ശരിയല്ല
ശരിയാണോ
ശരിയാണ്
ശരിയായ
ശരിയായി
ശല്യം
ശാഖ
ശാസ്ത്ര
ശാസ്ത്രീയ
ശിക്ഷ
ശിവൻ
ശിവന്റെ
ശുപാർശ
ശേഷം
ശേഷമാണ്
ശ്രദ്ധ
ശ്രദ്ധിക്കപ്പെട്ടു
ശ്രദ്ധിക്കുക
ശ്രദ്ധിച്ചിരുന്നു
ശ്രദ്ധിച്ചു
ശ്രമിക്കാം
ശ്രമിച്ചു
ശ്രീ
ശ്രുതി
ഷിജു
സം
സംഗീതം
സംഗീതത്തിന്റെ
സംഗീതത്തിലും
സംഘം
സംഘടനയുടെ
സഞ്ചാര
സഞ്ചാരം
സതി
സത്യവേദപുസ്തകം
സന്ദർശിച്ചു
സന്ദേശം
സംബന്ധമായ
സംബന്ധിച്ചിടത്തോളം
സംബന്ധിയായ
സബ്
സഭ
സഭകൾ
സഭയും
സഭയുടെ
സഭയെ
സംഭവിച്ചു
സംഭാവന
സംഭാവനകൾ
സമയത്താണ്
സമയത്ത്
സമയവും
സമർപ്പിക്കുന്നു
സമാന
സമിതി
സമൂഹത്തിന്റെ
സമ്പൂർണ്ണ
സമ്പ്രദായം
സംയുക്തങ്ങൾ
സയ്യിദ്
സർക്കാർ
സർവകലാശാല
സർവ്വകലാശാല
സർവ്വകലാശാലയിൽ
സംവാദ
സംവാദം
സംവാദങ്ങൾ
സംവാദത്താളിൽ
സംവാദത്തിൽ
സംവിധാനം
സംശയം
സംശയങ്ങൾ
സംശയമുണ്ട്
സംസ്കാരം
സംസ്കൃത
സംസ്കൃതം
സംസ്ഥാന
സംസ്ഥാനങ്ങളിൽ
സംസ്ഥാനങ്ങൾ
സംസ്ഥാനത്തിന്റെ
സംസ്ഥാനത്തെ
സംസ്ഥാനമായ
സസ്യം
സസ്യമാണ്
സഹായ
സഹായം
സഹായി
സഹായിക്കും
സഹായിച്ചു
സാക്ഷ്യം
സാധാരണ
സാധാരണയായി
സാധിക്കില്ല
സാധിക്കും
സാധിക്കുന്നു
സാധ്യമല്ല
സാമാന്യ
സാമൂതിരി
സാമ്പത്തിക
സാമ്പാർ
സാമ്രാജ്യം
സാമ്രാജ്യത്തിന്റെ
സാമ്രാജ്യത്തില്
സാലിം
സാവധാനം
സാംസ്കാരിക
സാഹിത്യ
സാഹിത്യത്തിൽ
സി
സിന്ധു
സിമി
സിറിയൻ
സീറോ
സുഗീഷ്
സുജാത
സുനിൽ
സുന്നത്ത്
സുവർണ്ണ
സുഹൃത്തേ
സുറിയാനി
സൂചന
സൂചിപ്പിക്കുന്ന
സൂചിപ്പിക്കുന്നു
സൂര്യനും
സൂര്യൻ
സൃഷ്ടിക്കാൻ
സൃഷ്ടിച്ചു
സെനറ്റ്
സെന്റ്
സെമി
സെർച്ച്
സേലം
സേവനം
സൈനിക
സൈറ്റ്
സോഫ്റ്റ്വെയർ
സോഫ്റ്റ്വെയറുകൾ
സൗകര്യം
സ്കൂൾ
സ്ക്രിപ്റ്റ്
സ്ഥലം
സ്ഥലങ്ങളിൽ
സ്ഥലങ്ങൾ
സ്ഥലത്തു
സ്ഥലത്ത്
സ്ഥലമാണ്
സ്ഥാനം
സ്ഥാനത്ത്
സ്ഥാപനങ്ങളും
സ്ഥാപനങ്ങൾ
സ്ഥാപിച്ച
സ്ഥാപിച്ചു
സ്ഥിതി
സ്ഥിതിചെയ്യുന്നത്
സ്ഥിരമായി
സ്വകാര്യ
സ്വദേശം
സ്വന്തം
സ്വഭാവം
സ്വഭാവമുള്ള
സ്വയം
സ്വരങ്ങൾ
സ്വർണ്ണം
സ്വാഗതം
സ്വാതന്ത്ര്യം
സ്വാധീനം
സ്വാമി
സ്വീകരിച്ച
സ്റ്റേഷൻ
സ്റ്റേറ്റ്
ഹനുമാൻ
ഹിന്ദി
ഹിന്ദു
ഹിന്ദുസ്ഥാനി
ഹിന്ദുസ്ഥാൻ
ഹീലിയം
ഹൃദയം
ഹൈഡ്രജൻ
ഹൈദരാബാദ്
ഹൈന്ദവ
റഫറൻസ്
റബ്ബർ
റിപ്പബ്ലിക്ക്
റീഡയറക്ട്
റീഡയറക്റ്റ്
റെഫറൻസ്
റെയിൽവേ
റേ
റോഡിൽ
റോമൻ
റോമാ
