!sil	1.0	SIL_S
<unk>	1.0	SPN_S
അ	1.0	a_S
അം	1.0	a_B m_E
ആ	1.0	aː_S
ആം	1.0	aː_B m_E
ഇ	1.0	i_S
ഇം	1.0	i_B m_E
ഈ	1.0	iː_S
ഉ	1.0	u_S
ഊ	1.0	uː_S
ഋ	1.0	rɨ_S
എ	1.0	e_S
എം	1.0	e_B m_E
ഏ	1.0	eː_S
ഏം	1.0	eː_B m_E
ഐ	1.0	ai̯_S
ഒ	1.0	o_S
ഓ	1.0	oː_S
ഓം	1.0	oː_B m_E
ഔ	1.0	au̯_S
ക	1.0	k_B a_E
കം	1.0	k_B a_I m_E
കാ	1.0	k_B aː_E #1
കാം	1.0	k_B aː_I m_E
കാഃ	1.0	k_B aː_E #2
കി	1.0	k_B i_E
കിം	1.0	k_B i_I m_E
കീ	1.0	k_B iː_E
കു	1.0	k_B u_E
കും	1.0	k_B u_I m_E
കൂ	1.0	k_B uː_E
കൃ	1.0	k_B rɨ_E
കെ	1.0	k_B e_E
കേ	1.0	k_B eː_E
കൈ	1.0	k_B ai̯_E
കൊ	1.0	k_B o_E
കോ	1.0	k_B oː_E
കൌ	1.0	k_B au̯_E #1
കൗ	1.0	k_B au̯_E #2
ക്	1.0	k_S
ക്ക	1.0	k_B k_I a_E
ക്കം	1.0	k_B k_I a_I m_E
ക്കാ	1.0	k_B k_I aː_E
ക്കാം	1.0	k_B k_I aː_I m_E
ക്കി	1.0	k_B k_I i_E
ക്കീ	1.0	k_B k_I iː_E
ക്കീം	1.0	k_B k_I iː_I m_E
ക്കു	1.0	k_B k_I u_E #1
ക്കും	1.0	k_B k_I u_I m_E
ക്കു്	1.0	k_B k_I u_E #2
ക്കൂ	1.0	k_B k_I uː_E
ക്കൃ	1.0	k_B k_I rɨ_E
ക്കെ	1.0	k_B k_I e_E
ക്കേ	1.0	k_B k_I eː_E
ക്കൈ	1.0	k_B k_I ai̯_E
ക്കൊ	1.0	k_B k_I o_E
ക്കോ	1.0	k_B k_I oː_E
ക്കൌ	1.0	k_B k_I au̯_E #1
ക്കൗ	1.0	k_B k_I au̯_E #2
ക്ക്	1.0	k_B k_E
ക്ക്കി	1.0	k_B k_I k_I i_E
ക്ക്ണ്	1.0	k_B k_I ɳ_E
ക്ക്പൊ	1.0	k_B k_I p_I o_E
ക്ക്പോ	1.0	k_B k_I p_I oː_E
ക്ക്പ്ര	1.0	k_B k_I p_I r_I a_E
ക്ക്യ	1.0	k_B k_I j_I a_E
ക്ക്രോ	1.0	k_B k_I r_I oː_E
ക്ക്വി	1.0	k_B k_I ʋ_I i_E
ക്ചാ	1.0	k_B t͡ʃ_I aː_E
ക്ട	1.0	k_B ʈ_I a_E
ക്ടും	1.0	k_B ʈ_I u_I m_E
ക്ടേ	1.0	k_B ʈ_I eː_E
ക്ടോ	1.0	k_B ʈ_I oː_E
ക്ട്	1.0	k_B ʈ_E
ക്ട്രി	1.0	k_B ʈ_I r_I i_E
ക്ട്രോ	1.0	k_B ʈ_I r_I oː_E
ക്ത	1.0	k_B t̪_I a_E
ക്തം	1.0	k_B t̪_I a_I m_E
ക്താ	1.0	k_B t̪_I aː_E
ക്തി	1.0	k_B t̪_I i_E
ക്തീ	1.0	k_B t̪_I iː_E
ക്തൃ	1.0	k_B t̪_I rɨ_E
ക്തേ	1.0	k_B t̪_I eː_E
ക്തോ	1.0	k_B t̪_I oː_E
ക്ത്യ	1.0	k_B t̪_I j_I a_E
ക്ത്യാ	1.0	k_B t̪_I j_I aː_E
ക്പാ	1.0	k_B p_I aː_E
ക്പൊ	1.0	k_B p_I o_E
ക്ബ	1.0	k_B b_I a_E
ക്മാ	1.0	k_B m_I aː_E
ക്യ	1.0	k_B j_I a_E
ക്യം	1.0	k_B j_I a_I m_E
ക്യാ	1.0	k_B j_I aː_E
ക്യു	1.0	k_B j_I u_E
ക്യൂ	1.0	k_B j_I uː_E
ക്ര	1.0	k_B r_I a_E
ക്രം	1.0	k_B r_I a_I m_E
ക്രാ	1.0	k_B r_I aː_E
ക്രി	1.0	k_B r_I i_E
ക്രീ	1.0	k_B r_I iː_E
ക്രു	1.0	k_B r_I u_E
ക്രൂ	1.0	k_B r_I uː_E
ക്രേ	1.0	k_B r_I eː_E
ക്രൈ	1.0	k_B r_I ai̯_E
ക്രോ	1.0	k_B r_I oː_E
ക്ല	1.0	k_B l_I a_E
ക്ലം	1.0	k_B l_I a_I m_E
ക്ലാ	1.0	k_B l_I aː_E
ക്ലി	1.0	k_B l_I i_E
ക്ലേ	1.0	k_B l_I eː_E
ക്ലോ	1.0	k_B l_I oː_E
ക്വ	1.0	k_B ʋ_I a_E
ക്വാ	1.0	k_B ʋ_I aː_E
ക്ഷ	1.0	k_B ʂ_I a_E
ക്ഷം	1.0	k_B ʂ_I a_I m_E
ക്ഷാ	1.0	k_B ʂ_I aː_E
ക്ഷാം	1.0	k_B ʂ_I aː_I m_E
ക്ഷി	1.0	k_B ʂ_I i_E
ക്ഷീ	1.0	k_B ʂ_I iː_E
ക്ഷു	1.0	k_B ʂ_I u_E
ക്ഷെ	1.0	k_B ʂ_I e_E
ക്ഷേ	1.0	k_B ʂ_I eː_E
ക്ഷോ	1.0	k_B ʂ_I oː_E
ക്ഷൌ	1.0	k_B ʂ_I au̯_E #1
ക്ഷൗ	1.0	k_B ʂ_I au̯_E #2
ക്ഷ്ണ	1.0	k_B ʂ_I ɳ_I a_E
ക്ഷ്മ	1.0	k_B ʂ_I m_I a_E
ക്ഷ്മം	1.0	k_B ʂ_I m_I a_I m_E
ക്ഷ്മാ	1.0	k_B ʂ_I m_I aː_E
ക്ഷ്മി	1.0	k_B ʂ_I m_I i_E
ക്ഷ്മീ	1.0	k_B ʂ_I m_I iː_E
ക്ഷ്യ	1.0	k_B ʂ_I j_I a_E
ക്ഷ്യം	1.0	k_B ʂ_I j_I a_I m_E
ക്ഷ്യാ	1.0	k_B ʂ_I j_I aː_E
ക്ഷ്യേ	1.0	k_B ʂ_I j_I eː_E
ക്ഷ്യോ	1.0	k_B ʂ_I j_I oː_E
ക്സ	1.0	k_B s_I a_E
ക്സാ	1.0	k_B s_I aː_E
ക്സി	1.0	k_B s_I i_E
ക്സ്	1.0	k_B s_E
ക്സ്റേ	1.0	k_B s_I r_I eː_E
ക്റ്റ	1.0	k_B ṯ_I ṯ_I a_E
ക്റ്റ്	1.0	k_B ṯ_I ṯ_E
ഖ	1.0	kʰ_B a_E
ഖം	1.0	kʰ_B a_I m_E
ഖാ	1.0	kʰ_B aː_E
ഖി	1.0	kʰ_B i_E
ഖീ	1.0	kʰ_B iː_E
ഖു	1.0	kʰ_B u_E
ഖും	1.0	kʰ_B u_I m_E
ഖേ	1.0	kʰ_B eː_E
ഖൊ	1.0	kʰ_B o_E
ഖ്	1.0	kʰ_S
ഖ്യ	1.0	kʰ_B j_I a_E
ഖ്യം	1.0	kʰ_B j_I a_I m_E
ഖ്യാ	1.0	kʰ_B j_I aː_E
ഖ്വാ	1.0	kʰ_B ʋ_I aː_E
ഗ	1.0	ɡ_B a_E
ഗം	1.0	ɡ_B a_I m_E
ഗാ	1.0	ɡ_B aː_E
ഗാം	1.0	ɡ_B aː_I m_E
ഗി	1.0	ɡ_B i_E
ഗീ	1.0	ɡ_B iː_E
ഗു	1.0	ɡ_B u_E
ഗൂ	1.0	ɡ_B uː_E
ഗൃ	1.0	ɡ_B rɨ_E
ഗേ	1.0	ɡ_B eː_E
ഗൈ	1.0	ɡ_B ai̯_E
ഗോ	1.0	ɡ_B oː_E
ഗോം	1.0	ɡ_B oː_I m_E
ഗൌ	1.0	ɡ_B au̯_E #1
ഗൗ	1.0	ɡ_B au̯_E #2
ഗ്	1.0	ɡ_S
ഗ്ഗ	1.0	ɡ_B ɡ_I a_E
ഗ്ഗം	1.0	ɡ_B ɡ_I a_I m_E
ഗ്ഗാ	1.0	ɡ_B ɡ_I aː_E
ഗ്ഗി	1.0	ɡ_B ɡ_I i_E
ഗ്ഗീ	1.0	ɡ_B ɡ_I iː_E
ഗ്ഗേ	1.0	ɡ_B ɡ_I eː_E
ഗ്ഗോ	1.0	ɡ_B ɡ_I oː_E
ഗ്ദ	1.0	ɡ_B d̪_I a_E
ഗ്ദാ	1.0	ɡ_B d̪_I aː_E
ഗ്ദോ	1.0	ɡ_B d̪_I oː_E
ഗ്ദ്ധ	1.0	ɡ_B d̪_I d̪ʱ_I a_E
ഗ്ദ്ധാ	1.0	ɡ_B d̪_I d̪ʱ_I aː_E
ഗ്ദ്ധോ	1.0	ɡ_B d̪_I d̪ʱ_I oː_E
ഗ്ദ്ധ്യ	1.0	ɡ_B d̪_I d̪ʱ_I j_I a_E
ഗ്ദ്ധ്യം	1.0	ɡ_B d̪_I d̪ʱ_I j_I a_I m_E
ഗ്ദ്യ	1.0	ɡ_B d̪_I j_I a_E
ഗ്ദ്യം	1.0	ɡ_B d̪_I j_I a_I m_E
ഗ്ധ	1.0	ɡ_B d̪ʱ_I a_E
ഗ്ധം	1.0	ɡ_B d̪ʱ_I a_I m_E
ഗ്ധ്യ	1.0	ɡ_B d̪ʱ_I j_I a_E
ഗ്ധ്യം	1.0	ɡ_B d̪ʱ_I j_I a_I m_E
ഗ്ന	1.0	ɡ_B n̪_I a_E
ഗ്നാ	1.0	ɡ_B n̪_I aː_E
ഗ്നി	1.0	ɡ_B n̪_I i_E
ഗ്നേ	1.0	ɡ_B n̪_I eː_E
ഗ്പൂ	1.0	ɡ_B p_I uː_E
ഗ്ഭ	1.0	ɡ_B bʱ_I a_E
ഗ്മ	1.0	ɡ_B m_I a_E
ഗ്മി	1.0	ɡ_B m_I i_E
ഗ്യ	1.0	ɡ_B j_I a_E
ഗ്യം	1.0	ɡ_B j_I a_I m_E
ഗ്യാ	1.0	ɡ_B j_I aː_E
ഗ്ര	1.0	ɡ_B ɾ_I a_E
ഗ്രം	1.0	ɡ_B ɾ_I a_I m_E
ഗ്രാ	1.0	ɡ_B ɾ_I aː_E
ഗ്രാം	1.0	ɡ_B ɾ_I aː_I m_E
ഗ്രി	1.0	ɡ_B ɾ_I i_E
ഗ്രീ	1.0	ɡ_B ɾ_I iː_E
ഗ്രൂ	1.0	ɡ_B ɾ_I uː_E
ഗ്രൃ	1.0	ɡ_B ɾ_I rɨ_E
ഗ്രെ	1.0	ɡ_B ɾ_I e_E
ഗ്രേ	1.0	ɡ_B ɾ_I eː_E
ഗ്രോ	1.0	ɡ_B ɾ_I oː_E
ഗ്ല	1.0	ɡ_B l_I a_E
ഗ്ലാ	1.0	ɡ_B l_I aː_E
ഗ്ലി	1.0	ɡ_B l_I i_E
ഗ്ലീ	1.0	ɡ_B l_I iː_E
ഗ്ലൂ	1.0	ɡ_B l_I uː_E
ഗ്ലോ	1.0	ɡ_B l_I oː_E
ഗ്വ	1.0	ɡ_B ʋ_I a_E
ഗ്വാ	1.0	ɡ_B ʋ_I aː_E
ഗ്വി	1.0	ɡ_B ʋ_I i_E
ഗ്വേ	1.0	ɡ_B ʋ_I eː_E
ഘ	1.0	ɡʱ_B a_E
ഘം	1.0	ɡʱ_B a_I m_E
ഘാ	1.0	ɡʱ_B aː_E
ഘാം	1.0	ɡʱ_B aː_I m_E
ഘി	1.0	ɡʱ_B i_E
ഘു	1.0	ɡʱ_B u_E
ഘും	1.0	ɡʱ_B u_I m_E
ഘൂ	1.0	ɡʱ_B uː_E
ഘൃ	1.0	ɡʱ_B rɨ_E
ഘോ	1.0	ɡʱ_B oː_E
ഘ്	1.0	ɡʱ_S
ഘ്ന	1.0	ɡʱ_B n̪_I a_E
ഘ്നം	1.0	ɡʱ_B n̪_I a_I m_E
ഘ്നേ	1.0	ɡʱ_B n̪_I eː_E
ഘ്യ	1.0	ɡʱ_B j_I a_E
ഘ്യം	1.0	ɡʱ_B j_I a_I m_E
ഘ്ര	1.0	ɡʱ_B r_I a_E
ഘ്രം	1.0	ɡʱ_B r_I a_I m_E
ഘ്രാ	1.0	ɡʱ_B r_I aː_E
ങാ	1.0	ŋ_B aː_E
ങ്	1.0	ŋ_S
ങ്ക	1.0	ŋ_B k_I a_E
ങ്കം	1.0	ŋ_B k_I a_I m_E
ങ്കാ	1.0	ŋ_B k_I aː_E
ങ്കി	1.0	ŋ_B k_I i_E
ങ്കീ	1.0	ŋ_B k_I iː_E
ങ്കു	1.0	ŋ_B k_I u_E
ങ്കും	1.0	ŋ_B k_I u_I m_E
ങ്കൂ	1.0	ŋ_B k_I uː_E
ങ്കെ	1.0	ŋ_B k_I e_E
ങ്കേ	1.0	ŋ_B k_I eː_E
ങ്കോ	1.0	ŋ_B k_I oː_E
ങ്ക്	1.0	ŋ_B k_E
ങ്ക്ഹെ	1.0	ŋ_B k_I ɦ_I e_E
ങ്ങ	1.0	ŋ_B ŋ_I a_E
ങ്ങം	1.0	ŋ_B ŋ_I a_I m_E
ങ്ങാ	1.0	ŋ_B ŋ_I aː_E
ങ്ങാം	1.0	ŋ_B ŋ_I aː_I m_E
ങ്ങി	1.0	ŋ_B ŋ_I i_E
ങ്ങീ	1.0	ŋ_B ŋ_I iː_E
ങ്ങു	1.0	ŋ_B ŋ_I u_E
ങ്ങും	1.0	ŋ_B ŋ_I u_I m_E
ങ്ങൂ	1.0	ŋ_B ŋ_I uː_E
ങ്ങെ	1.0	ŋ_B ŋ_I e_E
ങ്ങേ	1.0	ŋ_B ŋ_I eː_E
ങ്ങൈ	1.0	ŋ_B ŋ_I ai̯_E
ങ്ങൊ	1.0	ŋ_B ŋ_I o_E
ങ്ങോ	1.0	ŋ_B ŋ_I oː_E
ങ്ങ്	1.0	ŋ_B ŋ_E
ങ്ങ്ട്	1.0	ŋ_B ŋ_I ʈ_E
ങ്ങ്മൂ	1.0	ŋ_B ŋ_I m_I uː_E
ങ്ങ്യാ	1.0	ŋ_B ŋ_I j_I aː_E
ങ്ങ്യോ	1.0	ŋ_B ŋ_I j_I oː_E
ങ്ങ്സ്ട	1.0	ŋ_B ŋ_I s_I ʈ_I a_E
ങ്ട്ട	1.0	ŋ_B ʈ_I ʈ_I a_E
ങ്മൂ	1.0	ŋ_B m_I uː_E
ങ്യാ	1.0	ŋ_B j_I aː_E
ങ്സി	1.0	ŋ_B s_I i_E
ച	1.0	t͡ʃ_B a_E
ചം	1.0	t͡ʃ_B a_I m_E
ചാ	1.0	t͡ʃ_B aː_E
ചി	1.0	t͡ʃ_B i_E
ചീ	1.0	t͡ʃ_B iː_E
ചു	1.0	t͡ʃ_B u_E
ചും	1.0	t͡ʃ_B u_I m_E
ചൂ	1.0	t͡ʃ_B uː_E
ചെ	1.0	t͡ʃ_B e_E
ചേ	1.0	t͡ʃ_B eː_E
ചൈ	1.0	t͡ʃ_B ai̯_E
ചൊ	1.0	t͡ʃ_B o_E
ചോ	1.0	t͡ʃ_B oː_E
ചൌ	1.0	t͡ʃ_B au̯_E
ച്	1.0	t͡ʃ_S
ച്ച	1.0	t͡ʃ_B t͡ʃ_I a_E
ച്ചം	1.0	t͡ʃ_B t͡ʃ_I a_I m_E
ച്ചാ	1.0	t͡ʃ_B t͡ʃ_I aː_E
ച്ചാം	1.0	t͡ʃ_B t͡ʃ_I aː_I m_E
ച്ചി	1.0	t͡ʃ_B t͡ʃ_I i_E
ച്ചീ	1.0	t͡ʃ_B t͡ʃ_I iː_E
ച്ചു	1.0	t͡ʃ_B t͡ʃ_I u_E
ച്ചും	1.0	t͡ʃ_B t͡ʃ_I u_I m_E
ച്ചൂ	1.0	t͡ʃ_B t͡ʃ_I uː_E
ച്ചെ	1.0	t͡ʃ_B t͡ʃ_I e_E
ച്ചേ	1.0	t͡ʃ_B t͡ʃ_I eː_E
ച്ചൈ	1.0	t͡ʃ_B t͡ʃ_I ai̯_E
ച്ചൊ	1.0	t͡ʃ_B t͡ʃ_I o_E
ച്ചോ	1.0	t͡ʃ_B t͡ʃ_I oː_E
ച്ച്	1.0	t͡ʃ_B t͡ʃ_E
ച്ച്ഛ	1.0	t͡ʃ_B t͡ʃ_I t͡ʃʰ_I a_E
ച്ച്യം	1.0	t͡ʃ_B t͡ʃ_I j_I a_I m_E
ച്ച്യേ	1.0	t͡ʃ_B t͡ʃ_I j_I eː_E
ച്ഛ	1.0	t͡ʃ_B t͡ʃʰ_I a_E
ച്ഛം	1.0	t͡ʃ_B t͡ʃʰ_I a_I m_E
ച്ഛാ	1.0	t͡ʃ_B t͡ʃʰ_I aː_E
ച്ഛി	1.0	t͡ʃ_B t͡ʃʰ_I i_E
ച്ഛു	1.0	t͡ʃ_B t͡ʃʰ_I u_E
ച്ഛൃം	1.0	t͡ʃ_B t͡ʃʰ_I rɨ_I m_E
ച്ഛേ	1.0	t͡ʃ_B t͡ʃʰ_I eː_E
ച്ഛ്വ	1.0	t͡ʃ_B t͡ʃʰ_I ʋ_I a_E
ച്ഛ്വാ	1.0	t͡ʃ_B t͡ʃʰ_I ʋ_I aː_E
ച്യ	1.0	t͡ʃ_B j_I a_E
ച്യു	1.0	t͡ʃ_B j_I u_E
ഛ	1.0	t͡ʃʰ_B a_E
ഛം	1.0	t͡ʃʰ_B a_I m_E
ഛാ	1.0	t͡ʃʰ_B aː_E
ഛി	1.0	t͡ʃʰ_B i_E
ഛെ	1.0	t͡ʃʰ_B e_E
ഛേ	1.0	t͡ʃʰ_B eː_E
ഛോ	1.0	t͡ʃʰ_B oː_E
ഛ്വ	1.0	t͡ʃʰ_B ʋ_I a_E
ഛ്വാ	1.0	t͡ʃʰ_B ʋ_I aː_E
ജ	1.0	ɟ_B a_E #1
ജം	1.0	ɟ_B a_I m_E
ജഃ	1.0	ɟ_B a_E #2
ജാ	1.0	ɟ_B aː_E
ജാം	1.0	ɟ_B aː_I m_E
ജി	1.0	ɟ_B i_E
ജീ	1.0	ɟ_B iː_E
ജു	1.0	ɟ_B u_E
ജൂ	1.0	ɟ_B uː_E
ജെ	1.0	ɟ_B e_E
ജേ	1.0	ɟ_B eː_E
ജൈ	1.0	ɟ_B ai̯_E
ജോ	1.0	ɟ_B oː_E
ജ്	1.0	ɟ_S
ജ്കോ	1.0	ɟ_B k_I oː_E
ജ്ജ	1.0	ɟ_B ɟ_I a_E
ജ്ജം	1.0	ɟ_B ɟ_I a_I m_E
ജ്ജാ	1.0	ɟ_B ɟ_I aː_E
ജ്ജി	1.0	ɟ_B ɟ_I i_E
ജ്ജീ	1.0	ɟ_B ɟ_I iː_E
ജ്ജു	1.0	ɟ_B ɟ_I u_E
ജ്ജോ	1.0	ɟ_B ɟ_I oː_E
ജ്ജ്	1.0	ɟ_B ɟ_E
ജ്ജ്യ	1.0	ɟ_B ɟ_I j_I a_E
ജ്ജ്വ	1.0	ɟ_B ɟ_I ʋ_I a_E
ജ്ഞ	1.0	ɟ_B ɲ_I a_E
ജ്ഞം	1.0	ɟ_B ɲ_I a_I m_E
ജ്ഞാ	1.0	ɟ_B ɲ_I aː_E
ജ്ഞി	1.0	ɟ_B ɲ_I i_E
ജ്ഞീ	1.0	ɟ_B ɲ_I iː_E
ജ്പ	1.0	ɟ_B p_I a_E
ജ്ഭ	1.0	ɟ_B bʱ_I a_E
ജ്മ	1.0	ɟ_B m_I a_E
ജ്മാ	1.0	ɟ_B m_I aː_E
ജ്മീ	1.0	ɟ_B m_I iː_E
ജ്യ	1.0	ɟ_B j_I a_E
ജ്യം	1.0	ɟ_B j_I a_I m_E
ജ്യാ	1.0	ɟ_B j_I aː_E
ജ്യേ	1.0	ɟ_B j_I eː_E
ജ്യോ	1.0	ɟ_B j_I oː_E
ജ്യൗ	1.0	ɟ_B j_I au̯_E
ജ്ര	1.0	ɟ_B r_I a_E #1
ജ്രാ	1.0	ɟ_B r_I aː_E
ജ്വ	1.0	ɟ_B ʋ_I a_E
ജ്വാ	1.0	ɟ_B ʋ_I aː_E
ജ്റ	1.0	ɟ_B r_I a_E #2
ഝ	1.0	ɟʱ_B a_E
ഝാ	1.0	ɟʱ_B aː_E
ഞ	1.0	ɲ_B a_E
ഞാ	1.0	ɲ_B aː_E
ഞി	1.0	ɲ_B i_E
ഞെ	1.0	ɲ_B e_E
ഞൊ	1.0	ɲ_B o_E
ഞ്ച	1.0	ɲ_B t͡ʃ_I a_E
ഞ്ചം	1.0	ɲ_B t͡ʃ_I a_I m_E
ഞ്ചാ	1.0	ɲ_B t͡ʃ_I aː_E
ഞ്ചാം	1.0	ɲ_B t͡ʃ_I aː_I m_E
ഞ്ചി	1.0	ɲ_B t͡ʃ_I i_E
ഞ്ചീ	1.0	ɲ_B t͡ʃ_I iː_E
ഞ്ചീം	1.0	ɲ_B t͡ʃ_I iː_I m_E
ഞ്ചു	1.0	ɲ_B t͡ʃ_I u_E
ഞ്ചും	1.0	ɲ_B t͡ʃ_I u_I m_E
ഞ്ചെ	1.0	ɲ_B t͡ʃ_I e_E
ഞ്ചേ	1.0	ɲ_B t͡ʃ_I eː_E
ഞ്ചൊ	1.0	ɲ_B t͡ʃ_I o_E
ഞ്ചോ	1.0	ɲ_B t͡ʃ_I oː_E
ഞ്ച്	1.0	ɲ_B t͡ʃ_E
ഞ്ച്നു	1.0	ɲ_B t͡ʃ_I n̪_I u_E
ഞ്ച്മാ	1.0	ɲ_B t͡ʃ_I m_I aː_E
ഞ്ഛ	1.0	ɲ_B t͡ʃʰ_I a_E
ഞ്ജ	1.0	ɲ_B ɟ_I a_E
ഞ്ജാ	1.0	ɲ_B ɟ_I aː_E
ഞ്ജി	1.0	ɲ_B ɟ_I i_E
ഞ്ജു	1.0	ɲ_B ɟ_I u_E
ഞ്ഞ	1.0	ɲ_B ɲ_I a_E
ഞ്ഞം	1.0	ɲ_B ɲ_I a_I m_E
ഞ്ഞാ	1.0	ɲ_B ɲ_I aː_E
ഞ്ഞി	1.0	ɲ_B ɲ_I i_E
ഞ്ഞീ	1.0	ɲ_B ɲ_I iː_E
ഞ്ഞു	1.0	ɲ_B ɲ_I u_E
ഞ്ഞും	1.0	ɲ_B ɲ_I u_I m_E
ഞ്ഞൂ	1.0	ɲ_B ɲ_I uː_E
ഞ്ഞെ	1.0	ɲ_B ɲ_I e_E
ഞ്ഞേ	1.0	ɲ_B ɲ_I eː_E
ഞ്ഞൊ	1.0	ɲ_B ɲ_I o_E
ഞ്ഞോ	1.0	ɲ_B ɲ_I oː_E
ഞ്ഞ്	1.0	ɲ_B ɲ_E
ഞ്ഞ്ഛ	1.0	ɲ_B ɲ_I t͡ʃʰ_I a_E
ഞ്ഞ്ട്ട്	1.0	ɲ_B ɲ_I ʈ_I ʈ_E
ഞ്ഞ്പു	1.0	ɲ_B ɲ_I p_I u_E
ട	1.0	ʈ_B a_E
ടം	1.0	ʈ_B a_I m_E
ടാ	1.0	ʈ_B aː_E
ടാം	1.0	ʈ_B aː_I m_E
ടി	1.0	ʈ_B i_E
ടീ	1.0	ʈ_B iː_E
ടീം	1.0	ʈ_B iː_I m_E
ടു	1.0	ʈ_B u_E
ടും	1.0	ʈ_B u_I m_E
ടൂ	1.0	ʈ_B uː_E
ടെ	1.0	ʈ_B e_E
ടെം	1.0	ʈ_B e_I m_E
ടേ	1.0	ʈ_B eː_E
ടേം	1.0	ʈ_B eː_I m_E
ടൈ	1.0	ʈ_B ai̯_E
ടൊ	1.0	ʈ_B o_E
ടോ	1.0	ʈ_B oː_E
ടൌ	1.0	ʈ_B au̯_E #1
ടൗ	1.0	ʈ_B au̯_E #2
ട്	1.0	ʈ_S
ട്ക്ക്	1.0	ʈ_B k_I k_E
ട്ട	1.0	ʈ_B ʈ_I a_E
ട്ടം	1.0	ʈ_B ʈ_I a_I m_E
ട്ടാ	1.0	ʈ_B ʈ_I aː_E
ട്ടാം	1.0	ʈ_B ʈ_I aː_I m_E
ട്ടി	1.0	ʈ_B ʈ_I i_E
ട്ടീ	1.0	ʈ_B ʈ_I iː_E
ട്ടു	1.0	ʈ_B ʈ_I u_E
ട്ടും	1.0	ʈ_B ʈ_I u_I m_E
ട്ടൂ	1.0	ʈ_B ʈ_I uː_E
ട്ടെ	1.0	ʈ_B ʈ_I e_E
ട്ടേ	1.0	ʈ_B ʈ_I eː_E
ട്ടൊ	1.0	ʈ_B ʈ_I o_E
ട്ടോ	1.0	ʈ_B ʈ_I oː_E
ട്ടോം	1.0	ʈ_B ʈ_I oː_I m_E
ട്ട്	1.0	ʈ_B ʈ_E
ട്ട്ചീ	1.0	ʈ_B ʈ_I t͡ʃ_I iː_E
ട്ട്ണ്ട്	1.0	ʈ_B ʈ_I ɳ_I ʈ_E
ട്ട്പോ	1.0	ʈ_B ʈ_I p_I oː_E
ട്ട്യാ	1.0	ʈ_B ʈ_I j_I aː_E
ട്ട്യേ	1.0	ʈ_B ʈ_I j_I eː_E
ട്ട്യോ	1.0	ʈ_B ʈ_I j_I oː_E
ട്ഠാ	1.0	ʈ_B ʈʰ_I aː_E
ട്ണി	1.0	ʈ_B ɳ_I i_E
ട്ത്ത്ക്ക്	1.0	ʈ_B t̪_I t̪_I k_I k_E
ട്ത്ത്ണ്ട്	1.0	ʈ_B t̪_I t̪_I ɳ_I ʈ_E
ട്ന്ന്	1.0	ʈ_B n̪_I n̪_E
ട്ബോ	1.0	ʈ_B b_I oː_E
ട്യ	1.0	ʈ_B j_I a_E
ട്യം	1.0	ʈ_B j_I a_I m_E
ട്യാ	1.0	ʈ_B j_I aː_E
ട്യേ	1.0	ʈ_B j_I eː_E
ട്ര	1.0	ʈ_B r_I a_E
ട്രാ	1.0	ʈ_B r_I aː_E
ട്രി	1.0	ʈ_B r_I i_E
ട്രെ	1.0	ʈ_B r_I e_E
ട്രോ	1.0	ʈ_B r_I oː_E
ഠ	1.0	ʈʰ_B a_E
ഠം	1.0	ʈʰ_B a_I m_E
ഠാ	1.0	ʈʰ_B aː_E
ഠി	1.0	ʈʰ_B i_E
ഠോ	1.0	ʈʰ_B oː_E
ഠ്	1.0	ʈʰ_S
ഠ്മ	1.0	ʈʰ_B m_I a_E
ഠ്യ	1.0	ʈʰ_B j_I a_E
ഠ്യം	1.0	ʈʰ_B j_I a_I m_E
ഠ്യേ	1.0	ʈʰ_B j_I eː_E
ഡ	1.0	ɖ_B a_E
ഡം	1.0	ɖ_B a_I m_E
ഡാ	1.0	ɖ_B aː_E
ഡാം	1.0	ɖ_B aː_I m_E
ഡി	1.0	ɖ_B i_E
ഡീ	1.0	ɖ_B iː_E
ഡു	1.0	ɖ_B u_E
ഡും	1.0	ɖ_B u_I m_E
ഡെ	1.0	ɖ_B e_E
ഡേ	1.0	ɖ_B eː_E
ഡോ	1.0	ɖ_B oː_E
ഡ്	1.0	ɖ_S
ഡ്ക	1.0	ɖ_B k_I a_E
ഡ്ജി	1.0	ɖ_B ɟ_I i_E
ഡ്ജ്വു	1.0	ɖ_B ɟ_I ʋ_I u_E
ഡ്ഡ	1.0	ɖ_B ɖ_I a_E
ഡ്ഡു	1.0	ɖ_B ɖ_I u_E
ഡ്ഢ	1.0	ɖ_B ɖʱ_I a_E
ഡ്ഢി	1.0	ɖ_B ɖʱ_I i_E
ഡ്ഢു	1.0	ɖ_B ɖʱ_I u_E
ഡ്നി	1.0	ɖ_B n̪_I i_E
ഡ്പ	1.0	ɖ_B p_I a_E
ഡ്പൂ	1.0	ɖ_B p_I uː_E
ഡ്ഫീ	1.0	ɖ_B pʰ_I iː_E
ഡ്മാ	1.0	ɖ_B m_I aː_E
ഡ്മി	1.0	ɖ_B m_I i_E
ഡ്യ	1.0	ɖ_B j_I a_E
ഡ്യം	1.0	ɖ_B j_I a_I m_E
ഡ്യാ	1.0	ɖ_B j_I aː_E
ഡ്ര	1.0	ɖ_B r_I a_E
ഡ്രോ	1.0	ɖ_B r_I oː_E
ഡ്വ	1.0	ɖ_B ʋ_I a_E
ഡ്വി	1.0	ɖ_B ʋ_I i_E
ഡ്വെ	1.0	ɖ_B ʋ_I e_E
ഡ്വേ	1.0	ɖ_B ʋ_I eː_E
ഡ്സ	1.0	ɖ_B s_I a_E
ഡ്സ്	1.0	ɖ_B s_E
ഢ	1.0	ɖʱ_B a_E
ഢം	1.0	ɖʱ_B a_I m_E
ഢാ	1.0	ɖʱ_B aː_E
ഢി	1.0	ɖʱ_B i_E
ഢീ	1.0	ɖʱ_B iː_E
ഢ്യ	1.0	ɖʱ_B j_I a_E
ഢ്യം	1.0	ɖʱ_B j_I a_I m_E
ണ	1.0	ɳ_B a_E
ണം	1.0	ɳ_B a_I m_E
ണാ	1.0	ɳ_B aː_E
ണാം	1.0	ɳ_B aː_I m_E
ണി	1.0	ɳ_B i_E
ണിം	1.0	ɳ_B i_I m_E
ണീ	1.0	ɳ_B iː_E
ണു	1.0	ɳ_B u_E
ണും	1.0	ɳ_B u_I m_E
ണൂ	1.0	ɳ_B uː_E
ണെ	1.0	ɳ_B e_E
ണേ	1.0	ɳ_B eː_E
ണൈ	1.0	ɳ_B ai̯_E
ണൊ	1.0	ɳ_B o_E
ണോ	1.0	ɳ_B oː_E
ണ്	1.0	ɳ_S #1
ൺ	1.0	ɳ_S #2
ണ്ട	1.0	ɳ_B ʈ_I a_E
ണ്ടം	1.0	ɳ_B ʈ_I a_I m_E
ണ്ടാ	1.0	ɳ_B ʈ_I aː_E
ണ്ടാം	1.0	ɳ_B ʈ_I aː_I m_E
ണ്ടി	1.0	ɳ_B ʈ_I i_E
ണ്ടീ	1.0	ɳ_B ʈ_I iː_E
ണ്ടു	1.0	ɳ_B ʈ_I u_E
ണ്ടും	1.0	ɳ_B ʈ_I u_I m_E
ണ്ടൂ	1.0	ɳ_B ʈ_I uː_E
ണ്ടെ	1.0	ɳ_B ʈ_I e_E
ണ്ടേ	1.0	ɳ_B ʈ_I eː_E
ണ്ടൊ	1.0	ɳ_B ʈ_I o_E
ണ്ടോ	1.0	ɳ_B ʈ_I oː_E
ണ്ട്	1.0	ɳ_B ʈ_E
ണ്ട്തു	1.0	ɳ_B ʈ_I t̪_I u_E
ണ്ട്ന്ന്	1.0	ɳ_B ʈ_I n̪_I n̪_E
ണ്ട്വാ	1.0	ɳ_B ʈ_I ʋ_I aː_E
ണ്ട്സും	1.0	ɳ_B ʈ_I s_I u_I m_E
ണ്ഠ	1.0	ɳ_B ʈʰ_I a_E
ണ്ഠം	1.0	ɳ_B ʈʰ_I a_I m_E
ണ്ഠാ	1.0	ɳ_B ʈʰ_I aː_E
ണ്ഠി	1.0	ɳ_B ʈʰ_I i_E
ണ്ഠ്യേ	1.0	ɳ_B ʈʰ_I j_I eː_E
ണ്ഡ	1.0	ɳ_B ɖ_I a_E
ണ്ഡം	1.0	ɳ_B ɖ_I a_I m_E
ണ്ഡാ	1.0	ɳ_B ɖ_I aː_E
ണ്ഡി	1.0	ɳ_B ɖ_I i_E
ണ്ഡു	1.0	ɳ_B ɖ_I u_E
ണ്ഡൂ	1.0	ɳ_B ɖ_I uː_E
ണ്ഡേ	1.0	ɳ_B ɖ_I eː_E
ണ്ഡോ	1.0	ɳ_B ɖ_I oː_E
ണ്ഡ്യ	1.0	ɳ_B ɖ_I j_I a_E
ണ്ഢ	1.0	ɳ_B ɖʱ_I a_E
ണ്ണ	1.0	ɳ_B ɳ_I a_E
ണ്ണം	1.0	ɳ_B ɳ_I a_I m_E
ണ്ണാ	1.0	ɳ_B ɳ_I aː_E
ണ്ണാം	1.0	ɳ_B ɳ_I aː_I m_E
ണ്ണി	1.0	ɳ_B ɳ_I i_E
ണ്ണീ	1.0	ɳ_B ɳ_I iː_E
ണ്ണു	1.0	ɳ_B ɳ_I u_E
ണ്ണും	1.0	ɳ_B ɳ_I u_I m_E
ണ്ണൂ	1.0	ɳ_B ɳ_I uː_E
ണ്ണെ	1.0	ɳ_B ɳ_I e_E
ണ്ണേ	1.0	ɳ_B ɳ_I eː_E
ണ്ണൊ	1.0	ɳ_B ɳ_I o_E
ണ്ണോ	1.0	ɳ_B ɳ_I oː_E
ണ്ണ്	1.0	ɳ_B ɳ_E
ണ്ണ്യം	1.0	ɳ_B ɳ_I j_I a_I m_E
ണ്മ	1.0	ɳ_B m_I a_E
ണ്മാ	1.0	ɳ_B m_I aː_E
ണ്മു	1.0	ɳ_B m_I u_E
ണ്മെ	1.0	ɳ_B m_I e_E
ണ്മേ	1.0	ɳ_B m_I eː_E
ണ്യ	1.0	ɳ_B j_I a_E
ണ്യം	1.0	ɳ_B j_I a_I m_E
ണ്യാ	1.0	ɳ_B j_I aː_E
ണ്വാ	1.0	ɳ_B ʋ_I aː_E
ത	1.0	t̪_B a_E #1
തം	1.0	t̪_B a_I m_E
തഃ	1.0	t̪_B a_E #2
താ	1.0	t̪_B aː_E
താം	1.0	t̪_B aː_I m_E
തി	1.0	t̪_B i_E
തീ	1.0	t̪_B iː_E
തീം	1.0	t̪_B iː_I m_E
തു	1.0	t̪_B u_E #1
തും	1.0	t̪_B u_I m_E
തു്	1.0	t̪_B u_E #2
തൂ	1.0	t̪_B uː_E
തൃ	1.0	t̪_B rɨ_E
തെ	1.0	t̪_B e_E
തേ	1.0	t̪_B eː_E
തൈ	1.0	t̪_B ai̯_E
തൊ	1.0	t̪_B o_E
തോ	1.0	t̪_B oː_E
ത്	1.0	t̪_S
ത്ക	1.0	t̪_B k_I a_E
ത്കാ	1.0	t̪_B k_I aː_E
ത്ക്ക	1.0	t̪_B k_I k_I a_E
ത്ഖ	1.0	t̪_B kʰ_I a_E
ത്ച	1.0	t̪_B t͡ʃ_I a_E
ത്ത	1.0	t̪_B t̪_I a_E
ത്തം	1.0	t̪_B t̪_I a_I m_E
ത്താ	1.0	t̪_B t̪_I aː_E
ത്താം	1.0	t̪_B t̪_I aː_I m_E
ത്തി	1.0	t̪_B t̪_I i_E
ത്തീ	1.0	t̪_B t̪_I iː_E
ത്തീം	1.0	t̪_B t̪_I iː_I m_E
ത്തു	1.0	t̪_B t̪_I u_E
ത്തും	1.0	t̪_B t̪_I u_I m_E
ത്തൂ	1.0	t̪_B t̪_I uː_E
ത്തൃ	1.0	t̪_B t̪_I rɨ_E
ത്തെ	1.0	t̪_B t̪_I e_E
ത്തേ	1.0	t̪_B t̪_I eː_E
ത്തൈ	1.0	t̪_B t̪_I ai̯_E
ത്തൊ	1.0	t̪_B t̪_I o_E
ത്തോ	1.0	t̪_B t̪_I oː_E
ത്ത്	1.0	t̪_B t̪_E
ത്ത്ന്ന്	1.0	t̪_B t̪_I n̪_I n̪_E
ത്ത്പേ	1.0	t̪_B t̪_I p_I eː_E
ത്ത്പ്ര	1.0	t̪_B t̪_I p_I r_I a_E
ത്ത്യാ	1.0	t̪_B t̪_I j_I aː_E
ത്ത്വ	1.0	t̪_B t̪_I ʋ_I a_E
ത്ത്വം	1.0	t̪_B t̪_I ʋ_I a_I m_E
ത്ഥ	1.0	t̪_B t̪ʰ_I a_E
ത്ഥം	1.0	t̪_B t̪ʰ_I a_I m_E
ത്ഥാ	1.0	t̪_B t̪ʰ_I aː_E
ത്ഥി	1.0	t̪_B t̪ʰ_I i_E
ത്ഥ്	1.0	t̪_B t̪ʰ_E
ത്ഥ്യ	1.0	t̪_B t̪ʰ_I j_I a_E
ത്ഥ്യം	1.0	t̪_B t̪ʰ_I j_I a_I m_E
ത്ന	1.0	t̪_B n̪_I a_E
ത്നം	1.0	t̪_B n̪_I a_I m_E
ത്നാ	1.0	t̪_B n̪_I aː_E
ത്നി	1.0	t̪_B n̪_I i_E
ത്നീ	1.0	t̪_B n̪_I iː_E
ത്പ	1.0	t̪_B p_I a_E
ത്പാ	1.0	t̪_B p_I aː_E
ത്ഫ	1.0	t̪_B pʰ_I a_E
ത്ഭ	1.0	t̪_B bʱ_I a_E
ത്ഭു	1.0	t̪_B bʱ_I u_E
ത്മ	1.0	t̪_B m_I a_E
ത്മാ	1.0	t̪_B m_I aː_E
ത്മി	1.0	t̪_B m_I i_E
ത്മീ	1.0	t̪_B m_I iː_E
ത്മോ	1.0	t̪_B m_I oː_E
ത്മ്യ	1.0	t̪_B m_I j_I a_E
ത്മ്യം	1.0	t̪_B m_I j_I a_I m_E
ത്യ	1.0	t̪_B j_I a_E
ത്യം	1.0	t̪_B j_I a_I m_E
ത്യാ	1.0	t̪_B j_I aː_E
ത്യു	1.0	t̪_B j_I u_E
ത്യേ	1.0	t̪_B j_I eː_E
ത്യോ	1.0	t̪_B j_I oː_E
ത്ര	1.0	t̪_B r_I a_E
ത്രം	1.0	t̪_B r_I a_I m_E
ത്രാ	1.0	t̪_B r_I aː_E
ത്രി	1.0	t̪_B r_I i_E
ത്രീ	1.0	t̪_B r_I iː_E
ത്രു	1.0	t̪_B r_I u_E
ത്രെ	1.0	t̪_B r_I e_E
ത്രേ	1.0	t̪_B r_I eː_E
ത്രേം	1.0	t̪_B r_I eː_I m_E
ത്രൈ	1.0	t̪_B r_I ai̯_E
ത്രോ	1.0	t̪_B r_I oː_E
ത്ര്യ	1.0	t̪_B r_I j_I a_E
ത്ര്യം	1.0	t̪_B r_I j_I a_I m_E
ത്ര്യു	1.0	t̪_B r_I j_I u_E
ത്വ	1.0	t̪_B ʋ_I a_E
ത്വം	1.0	t̪_B ʋ_I a_I m_E
ത്വാ	1.0	t̪_B ʋ_I aː_E
ത്സ	1.0	t̪_B s_I a_E
ത്സം	1.0	t̪_B s_I a_I m_E
ത്സാ	1.0	t̪_B s_I aː_E
ത്സി	1.0	t̪_B s_I i_E
ത്സു	1.0	t̪_B s_I u_E
ത്സ്യ	1.0	t̪_B s_I j_I a_E
ത്സ്യം	1.0	t̪_B s_I j_I a_I m_E
ത്സ്യാ	1.0	t̪_B s_I j_I aː_E
ത്സ്യേ	1.0	t̪_B s_I j_I eː_E
ത്സ്യോ	1.0	t̪_B s_I j_I oː_E
ഥ	1.0	t̪ʰ_B a_E
ഥം	1.0	t̪ʰ_B a_I m_E
ഥാ	1.0	t̪ʰ_B aː_E
ഥി	1.0	t̪ʰ_B i_E
ഥു	1.0	t̪ʰ_B u_E
ഥേ	1.0	t̪ʰ_B eː_E
ഥൈ	1.0	t̪ʰ_B ai̯_E
ഥോ	1.0	t̪ʰ_B oː_E
ഥ്	1.0	t̪ʰ_S
ഥ്യ	1.0	t̪ʰ_B j_I a_E
ഥ്യം	1.0	t̪ʰ_B j_I a_I m_E
ഥ്യാ	1.0	t̪ʰ_B j_I aː_E
ഥ്രി	1.0	t̪ʰ_B r_I i_E
ഥ്വീ	1.0	t̪ʰ_B ʋ_I iː_E
ദ	1.0	d̪_B a_E
ദം	1.0	d̪_B a_I m_E
ദാ	1.0	d̪_B aː_E
ദാം	1.0	d̪_B aː_I m_E
ദി	1.0	d̪_B i_E
ദീ	1.0	d̪_B iː_E
ദു	1.0	d̪_B u_E #1
ദും	1.0	d̪_B u_I m_E
ദുഃ	1.0	d̪_B u_E #2
ദൂ	1.0	d̪_B uː_E
ദൃ	1.0	d̪_B rɨ_E
ദേ	1.0	d̪_B eː_E
ദൈ	1.0	d̪_B ai̯_E
ദോ	1.0	d̪_B oː_E
ദൌ	1.0	d̪_B au̯_E #1
ദൗ	1.0	d̪_B au̯_E #2
ദ്	1.0	d̪_S
ദ്കോ	1.0	d̪_B k_I oː_E
ദ്ഖ	1.0	d̪_B kʰ_I a_E
ദ്ഗ	1.0	d̪_B ɡ_I a_E
ദ്ഗീ	1.0	d̪_B ɡ_I iː_E
ദ്ഗു	1.0	d̪_B ɡ_I u_E
ദ്ഗ്ധ	1.0	d̪_B ɡ_I d̪ʱ_I a_E
ദ്ഗ്ര	1.0	d̪_B ɡ_I ɾ_I a_E
ദ്ഘ	1.0	d̪_B ɡʱ_I a_E
ദ്ഘാ	1.0	d̪_B ɡʱ_I aː_E
ദ്ഘോ	1.0	d̪_B ɡʱ_I oː_E
ദ്ദ	1.0	d̪_B d̪_I a_E
ദ്ദം	1.0	d̪_B d̪_I a_I m_E
ദ്ദാ	1.0	d̪_B d̪_I aː_E
ദ്ദി	1.0	d̪_B d̪_I i_E
ദ്ദീ	1.0	d̪_B d̪_I iː_E
ദ്ദു	1.0	d̪_B d̪_I u_E
ദ്ദേ	1.0	d̪_B d̪_I eː_E
ദ്ദോ	1.0	d̪_B d̪_I oː_E
ദ്ദ്	1.0	d̪_B d̪_E
ദ്ദ്യം	1.0	d̪_B d̪_I j_I a_I m_E
ദ്ദ്യോ	1.0	d̪_B d̪_I j_I oː_E
ദ്ധ	1.0	d̪_B d̪ʱ_I a_E
ദ്ധം	1.0	d̪_B d̪ʱ_I a_I m_E
ദ്ധാ	1.0	d̪_B d̪ʱ_I aː_E
ദ്ധി	1.0	d̪_B d̪ʱ_I i_E
ദ്ധീ	1.0	d̪_B d̪ʱ_I iː_E
ദ്ധീം	1.0	d̪_B d̪ʱ_I iː_I m_E
ദ്ധൃ	1.0	d̪_B d̪ʱ_I rɨ_E
ദ്ധേ	1.0	d̪_B d̪ʱ_I eː_E
ദ്ധോ	1.0	d̪_B d̪ʱ_I oː_E
ദ്ധൌ	1.0	d̪_B d̪ʱ_I au̯_E
ദ്ധ്യ	1.0	d̪_B d̪ʱ_I j_I a_E
ദ്ധ്യം	1.0	d̪_B d̪ʱ_I j_I a_I m_E
ദ്ധ്യാ	1.0	d̪_B d̪ʱ_I j_I aː_E
ദ്ധ്യേ	1.0	d̪_B d̪ʱ_I j_I eː_E
ദ്ധ്യോ	1.0	d̪_B d̪ʱ_I j_I oː_E
ദ്ധ്വ	1.0	d̪_B d̪ʱ_I ʋ_I a_E
ദ്ധ്വാ	1.0	d̪_B d̪ʱ_I ʋ_I aː_E
ദ്പാ	1.0	d̪_B p_I aː_E
ദ്ബ	1.0	d̪_B b_I a_E
ദ്ഭ	1.0	d̪_B bʱ_I a_E
ദ്ഭു	1.0	d̪_B bʱ_I u_E
ദ്മ	1.0	d̪_B m_I a_E
ദ്യ	1.0	d̪_B j_I a_E
ദ്യം	1.0	d̪_B j_I a_I m_E
ദ്യാ	1.0	d̪_B j_I aː_E
ദ്യാം	1.0	d̪_B j_I aː_I m_E
ദ്യു	1.0	d̪_B j_I u_E
ദ്യൂ	1.0	d̪_B j_I uː_E
ദ്യോ	1.0	d̪_B j_I oː_E
ദ്ര	1.0	d̪_B ɾ_I a_E
ദ്രം	1.0	d̪_B ɾ_I a_I m_E
ദ്രാ	1.0	d̪_B ɾ_I aː_E
ദ്രി	1.0	d̪_B ɾ_I i_E
ദ്രീ	1.0	d̪_B ɾ_I iː_E
ദ്രു	1.0	d̪_B ɾ_I u_E
ദ്രൂ	1.0	d̪_B ɾ_I uː_E
ദ്രോ	1.0	d̪_B ɾ_I oː_E
ദ്ര്യ	1.0	d̪_B ɾ_I j_I a_E
ദ്ര്യം	1.0	d̪_B ɾ_I j_I a_I m_E
ദ്ര്യാ	1.0	d̪_B ɾ_I j_I aː_E
ദ്വ	1.0	d̪_B ʋ_I a_E
ദ്വാ	1.0	d̪_B ʋ_I aː_E
ദ്വി	1.0	d̪_B ʋ_I i_E
ദ്വീ	1.0	d̪_B ʋ_I iː_E
ദ്വേ	1.0	d̪_B ʋ_I eː_E
ദ്വൈ	1.0	d̪_B ʋ_I ai̯_E
ദ്വ്യ	1.0	d̪_B ʋ_I j_I a_E
ദ്സ്പ	1.0	d̪_B s_I p_I a_E
ദ്ഹ	1.0	d̪_B ɦ_I a_E
ധ	1.0	d̪ʱ_B a_E #1
ധം	1.0	d̪ʱ_B a_I m_E
ധഃ	1.0	d̪ʱ_B a_E #2
ധാ	1.0	d̪ʱ_B aː_E
ധി	1.0	d̪ʱ_B i_E
ധീ	1.0	d̪ʱ_B iː_E
ധു	1.0	d̪ʱ_B u_E
ധും	1.0	d̪ʱ_B u_I m_E
ധൂ	1.0	d̪ʱ_B uː_E
ധൂം	1.0	d̪ʱ_B uː_I m_E
ധൃ	1.0	d̪ʱ_B rɨ_E
ധേ	1.0	d̪ʱ_B eː_E
ധൈ	1.0	d̪ʱ_B ai̯_E
ധൊ	1.0	d̪ʱ_B o_E
ധോ	1.0	d̪ʱ_B oː_E
ധൗ	1.0	d̪ʱ_B au̯_E
ധ്	1.0	d̪ʱ_S
ധ്യ	1.0	d̪ʱ_B j_I a_E
ധ്യം	1.0	d̪ʱ_B j_I a_I m_E
ധ്യാ	1.0	d̪ʱ_B j_I aː_E
ധ്യേ	1.0	d̪ʱ_B j_I eː_E
ധ്രു	1.0	d̪ʱ_B r_I u_E
ധ്വ	1.0	d̪ʱ_B ʋ_I a_E
ധ്വാ	1.0	d̪ʱ_B ʋ_I aː_E
ധ്വി	1.0	d̪ʱ_B ʋ_I i_E
ന	1.0	n̪_B a_E #1
നം	1.0	n̪_B a_I m_E
നഃ	1.0	n̪_B a_E #2
നാ	1.0	n̪_B aː_E
നാം	1.0	n̪_B aː_I m_E
നി	1.0	n̪_B i_E
നീ	1.0	n̪_B iː_E
നീം	1.0	n̪_B iː_I m_E
നു	1.0	n̪_B u_E #1
നും	1.0	n̪_B u_I m_E
നു്	1.0	n̪_B u_E #2
നൂ	1.0	n̪_B uː_E
നൃ	1.0	n̪_B rɨ_E
നെ	1.0	n̪_B e_E
നേ	1.0	n̪_B eː_E
നേം	1.0	n̪_B eː_I m_E
നൈ	1.0	n̪_B ai̯_E
നൊ	1.0	n̪_B o_E
നോ	1.0	n̪_B oː_E
നൗ	1.0	n̪_B au̯_E
ന്	1.0	n̪_S
ൻ	1.0	n_S
ന്കി	1.0	n̪_B k_I i_E
ന്കു	1.0	n̪_B k_I u_E
ന്ത	1.0	n̪_B t̪_I a_E #1
ന്തം	1.0	n̪_B t̪_I a_I m_E
ന്തഃ	1.0	n̪_B t̪_I a_E #2
ന്താ	1.0	n̪_B t̪_I aː_E
ന്തി	1.0	n̪_B t̪_I i_E
ന്തീ	1.0	n̪_B t̪_I iː_E
ന്തീം	1.0	n̪_B t̪_I iː_I m_E
ന്തു	1.0	n̪_B t̪_I u_E
ന്തും	1.0	n̪_B t̪_I u_I m_E
ന്തൂ	1.0	n̪_B t̪_I uː_E
ന്തെ	1.0	n̪_B t̪_I e_E
ന്തേ	1.0	n̪_B t̪_I eː_E
ന്തൊ	1.0	n̪_B t̪_I o_E
ന്തോ	1.0	n̪_B t̪_I oː_E
ന്ത്	1.0	n̪_B t̪_E
ന്ത്പി	1.0	n̪_B t̪_I p_I i_E
ന്ത്യ	1.0	n̪_B t̪_I j_I a_E
ന്ത്യം	1.0	n̪_B t̪_I j_I a_I m_E
ന്ത്യാ	1.0	n̪_B t̪_I j_I aː_E
ന്ത്യേ	1.0	n̪_B t̪_I j_I eː_E
ന്ത്യോ	1.0	n̪_B t̪_I j_I oː_E
ന്ത്ര	1.0	n̪_B t̪_I r_I a_E
ന്ത്രം	1.0	n̪_B t̪_I r_I a_I m_E
ന്ത്രാ	1.0	n̪_B t̪_I r_I aː_E
ന്ത്രി	1.0	n̪_B t̪_I r_I i_E
ന്ത്രീ	1.0	n̪_B t̪_I r_I iː_E
ന്ത്രോ	1.0	n̪_B t̪_I r_I oː_E
ന്ത്ര്യ	1.0	n̪_B t̪_I r_I j_I a_E
ന്ത്ര്യം	1.0	n̪_B t̪_I r_I j_I a_I m_E
ന്ത്ര്യാ	1.0	n̪_B t̪_I r_I j_I aː_E
ന്ത്വ	1.0	n̪_B t̪_I ʋ_I a_E
ന്ഥ	1.0	n̪_B t̪ʰ_I a_E
ന്ഥം	1.0	n̪_B t̪ʰ_I a_I m_E
ന്ഥാ	1.0	n̪_B t̪ʰ_I aː_E
ന്ഥി	1.0	n̪_B t̪ʰ_I i_E
ന്ദ	1.0	n̪_B d̪_I a_E
ന്ദം	1.0	n̪_B d̪_I a_I m_E
ന്ദാ	1.0	n̪_B d̪_I aː_E
ന്ദി	1.0	n̪_B d̪_I i_E
ന്ദീ	1.0	n̪_B d̪_I iː_E
ന്ദു	1.0	n̪_B d̪_I u_E
ന്ദൂ	1.0	n̪_B d̪_I uː_E
ന്ദേ	1.0	n̪_B d̪_I eː_E
ന്ദോ	1.0	n̪_B d̪_I oː_E
ന്ദ്	1.0	n̪_B d̪_E
ന്ദ്യ	1.0	n̪_B d̪_I j_I a_E
ന്ദ്യം	1.0	n̪_B d̪_I j_I a_I m_E
ന്ദ്ര	1.0	n̪_B d̪_I ɾ_I a_E
ന്ദ്രം	1.0	n̪_B d̪_I ɾ_I a_I m_E
ന്ദ്രാ	1.0	n̪_B d̪_I ɾ_I aː_E
ന്ദ്രി	1.0	n̪_B d̪_I ɾ_I i_E
ന്ദ്രീ	1.0	n̪_B d̪_I ɾ_I iː_E
ന്ദ്രെ	1.0	n̪_B d̪_I ɾ_I e_E
ന്ദ്രോ	1.0	n̪_B d̪_I ɾ_I oː_E
ന്ദ്വ	1.0	n̪_B d̪_I ʋ_I a_E
ന്ധ	1.0	n̪_B d̪ʱ_I a_E
ന്ധം	1.0	n̪_B d̪ʱ_I a_I m_E
ന്ധാ	1.0	n̪_B d̪ʱ_I aː_E
ന്ധി	1.0	n̪_B d̪ʱ_I i_E
ന്ധീ	1.0	n̪_B d̪ʱ_I iː_E
ന്ധു	1.0	n̪_B d̪ʱ_I u_E
ന്ധൂ	1.0	n̪_B d̪ʱ_I uː_E
ന്ധൌ	1.0	n̪_B d̪ʱ_I au̯_E
ന്ധ്യ	1.0	n̪_B d̪ʱ_I j_I a_E
ന്ധ്യാ	1.0	n̪_B d̪ʱ_I j_I aː_E
ന്ധ്ര	1.0	n̪_B d̪ʱ_I r_I a_E
ന്ധ്രാ	1.0	n̪_B d̪ʱ_I r_I aː_E
ന്ധ്രി	1.0	n̪_B d̪ʱ_I r_I i_E
ന്ന	1.0	n̪_B n̪_I a_E
ന്നം	1.0	n̪_B n̪_I a_I m_E
ന്നാ	1.0	n̪_B n̪_I aː_E
ന്നാം	1.0	n̪_B n̪_I aː_I m_E
ന്നി	1.0	n̪_B n̪_I i_E
ന്നിം	1.0	n̪_B n̪_I i_I m_E
ന്നീ	1.0	n̪_B n̪_I iː_E
ന്നു	1.0	n̪_B n̪_I u_E
ന്നും	1.0	n̪_B n̪_I u_I m_E
ന്നൂ	1.0	n̪_B n̪_I uː_E
ന്നെ	1.0	n̪_B n̪_I e_E
ന്നേ	1.0	n̪_B n̪_I eː_E
ന്നേം	1.0	n̪_B n̪_I eː_I m_E
ന്നൈ	1.0	n̪_B n̪_I ai̯_E
ന്നൊ	1.0	n̪_B n̪_I o_E
ന്നോ	1.0	n̪_B n̪_I oː_E
ന്ന്	1.0	n̪_B n̪_E
ന്ന്ച	1.0	n̪_B n̪_I t͡ʃ_I a_E
ന്ന്ന്	1.0	n̪_B n̪_I n̪_E
ന്ന്പോ	1.0	n̪_B n̪_I p_I oː_E
ന്ന്യ	1.0	n̪_B n̪_I j_I a_E
ന്ന്യാ	1.0	n̪_B n̪_I j_I aː_E
ന്ന്വാ	1.0	n̪_B n̪_I ʋ_I aː_E
ന്പി	1.0	n̪_B p_I i_E
ന്പു	1.0	n̪_B p_I u_E
ന്പും	1.0	n̪_B p_I u_I m_E
ന്പൂ	1.0	n̪_B p_I uː_E
ന്പൈ	1.0	n̪_B p_I ai̯_E
ന്പോ	1.0	n̪_B p_I oː_E
ന്പ്	1.0	n̪_B p_E
ന്ഭാ	1.0	n̪_B bʱ_I aː_E
ന്മ	1.0	n̪_B m_I a_E
ന്മം	1.0	n̪_B m_I a_I m_E
ന്മാ	1.0	n̪_B m_I aː_E
ന്മി	1.0	n̪_B m_I i_E
ന്മു	1.0	n̪_B m_I u_E
ന്മൂ	1.0	n̪_B m_I uː_E
ന്മേ	1.0	n̪_B m_I eː_E
ന്മൊ	1.0	n̪_B m_I o_E
ന്യ	1.0	n̪_B j_I a_E
ന്യം	1.0	n̪_B j_I a_I m_E
ന്യാ	1.0	n̪_B j_I aː_E
ന്യു	1.0	n̪_B j_I u_E
ന്യൂ	1.0	n̪_B j_I uː_E
ന്യേ	1.0	n̪_B j_I eː_E
ന്യോ	1.0	n̪_B j_I oː_E
ന്വ	1.0	n̪_B ʋ_I a_E
ന്വേ	1.0	n̪_B ʋ_I eː_E
ന്റ	1.0	n_B ṯ_I a_E
ന്റാ	1.0	n_B ṯ_I aː_E
ന്റി	1.0	n_B ṯ_I i_E
ന്റീ	1.0	n_B ṯ_I iː_E
ന്റെ	1.0	n_B ṯ_I e_E
ന്റേ	1.0	n_B ṯ_I eː_E
ന്റേം	1.0	n_B ṯ_I eː_I m_E
ന്റൊ	1.0	n_B ṯ_I o_E
ന്റ്	1.0	n_B ṯ_E
പ	1.0	p_B a_E
പം	1.0	p_B a_I m_E
പാ	1.0	p_B aː_E
പി	1.0	p_B i_E
പീ	1.0	p_B iː_E
പു	1.0	p_B u_E
പും	1.0	p_B u_I m_E
പൂ	1.0	p_B uː_E
പൃ	1.0	p_B rɨ_E
പെ	1.0	p_B e_E
പേ	1.0	p_B eː_E
പൈ	1.0	p_B ai̯_E
പൊ	1.0	p_B o_E
പോ	1.0	p_B oː_E
പൌ	1.0	p_B au̯_E #1
പൗ	1.0	p_B au̯_E #2
പ്	1.0	p_S
പ്ഗാ	1.0	p_B ɡ_I aː_E
പ്ഡേ	1.0	p_B ɖ_I eː_E
പ്ത	1.0	p_B t̪_I a_E
പ്തം	1.0	p_B t̪_I a_I m_E
പ്താ	1.0	p_B t̪_I aː_E
പ്തി	1.0	p_B t̪_I i_E
പ്ന	1.0	p_B n̪_I a_E
പ്നം	1.0	p_B n̪_I a_I m_E
പ്നാ	1.0	p_B n̪_I aː_E
പ്പ	1.0	p_B p_I a_E
പ്പം	1.0	p_B p_I a_I m_E
പ്പാ	1.0	p_B p_I aː_E
പ്പി	1.0	p_B p_I i_E
പ്പീ	1.0	p_B p_I iː_E
പ്പു	1.0	p_B p_I u_E
പ്പും	1.0	p_B p_I u_I m_E
പ്പൂ	1.0	p_B p_I uː_E
പ്പെ	1.0	p_B p_I e_E
പ്പേ	1.0	p_B p_I eː_E
പ്പൊ	1.0	p_B p_I o_E
പ്പോ	1.0	p_B p_I oː_E
പ്പോം	1.0	p_B p_I oː_I m_E
പ്പ്	1.0	p_B p_E
പ്പ്പൊ	1.0	p_B p_I p_I o_E
പ്ഫ	1.0	p_B pʰ_I a_E
പ്യ	1.0	p_B j_I a_E
പ്യം	1.0	p_B j_I a_I m_E
പ്ര	1.0	p_B r_I a_E
പ്രാ	1.0	p_B r_I aː_E
പ്രി	1.0	p_B r_I i_E
പ്രീ	1.0	p_B r_I iː_E
പ്രീം	1.0	p_B r_I iː_I m_E
പ്രേ	1.0	p_B r_I eː_E
പ്രേം	1.0	p_B r_I eː_I m_E
പ്രൊ	1.0	p_B r_I o_E
പ്രോ	1.0	p_B r_I oː_E
പ്രൌ	1.0	p_B r_I au̯_E #1
പ്രൗ	1.0	p_B r_I au̯_E #2
പ്ല	1.0	p_B l_I a_E
പ്ലാ	1.0	p_B l_I aː_E
പ്ലി	1.0	p_B l_I i_E
പ്ലേ	1.0	p_B l_I eː_E
പ്ലോ	1.0	p_B l_I oː_E
പ്സാ	1.0	p_B s_I aː_E
പ്റ്റ	1.0	p_B ṯ_I ṯ_I a_E
പ്റ്റ്	1.0	p_B ṯ_I ṯ_E
ഫ	1.0	pʰ_B a_E
ഫം	1.0	pʰ_B a_I m_E
ഫാ	1.0	pʰ_B aː_E
ഫാം	1.0	pʰ_B aː_I m_E
ഫി	1.0	pʰ_B i_E
ഫീ	1.0	pʰ_B iː_E
ഫു	1.0	pʰ_B u_E
ഫൂ	1.0	pʰ_B uː_E
ഫെ	1.0	pʰ_B e_E
ഫൈ	1.0	pʰ_B ai̯_E
ഫോ	1.0	pʰ_B oː_E
ഫൗ	1.0	pʰ_B au̯_E
ഫ്	1.0	pʰ_S
ഫ്ഗാ	1.0	pʰ_B ɡ_I aː_E
ഫ്മാ	1.0	pʰ_B m_I aː_E
ഫ്മു	1.0	pʰ_B m_I u_E
ഫ്ര	1.0	pʰ_B r_I a_E
ഫ്രി	1.0	pʰ_B r_I i_E
ഫ്ലാ	1.0	pʰ_B l_I aː_E
ഫ്ലൂ	1.0	pʰ_B l_I uː_E
ഫ്റ്റ	1.0	pʰ_B ṯ_I ṯ_I a_E
ഫ്റ്റി	1.0	pʰ_B ṯ_I ṯ_I i_E
ഫ്റ്റ്	1.0	pʰ_B ṯ_I ṯ_E
ഫ്റ്റ്വെ	1.0	pʰ_B ṯ_I ṯ_I ʋ_I e_E
ബ	1.0	b_B a_E
ബം	1.0	b_B a_I m_E
ബാ	1.0	b_B aː_E
ബാം	1.0	b_B aː_I m_E
ബി	1.0	b_B i_E
ബിം	1.0	b_B i_I m_E
ബീ	1.0	b_B iː_E
ബു	1.0	b_B u_E
ബൂ	1.0	b_B uː_E
ബൃ	1.0	b_B rɨ_E
ബെ	1.0	b_B e_E
ബേ	1.0	b_B eː_E
ബൈ	1.0	b_B ai̯_E
ബൊ	1.0	b_B o_E
ബോ	1.0	b_B oː_E
ബോം	1.0	b_B oː_I m_E
ബൌ	1.0	b_B au̯_E #1
ബൗ	1.0	b_B au̯_E #2
ബ്	1.0	b_S
ബ്കാ	1.0	b_B k_I aː_E
ബ്ടെ	1.0	b_B ʈ_I e_E
ബ്ദ	1.0	b_B d̪_I a_E
ബ്ദം	1.0	b_B d̪_I a_I m_E
ബ്ദാ	1.0	b_B d̪_I aː_E
ബ്ദി	1.0	b_B d̪_I i_E
ബ്ദു	1.0	b_B d̪_I u_E
ബ്ധ	1.0	b_B d̪ʱ_I a_E
ബ്ധം	1.0	b_B d̪ʱ_I a_I m_E
ബ്ധി	1.0	b_B d̪ʱ_I i_E
ബ്ബ	1.0	b_B b_I a_E
ബ്ബാ	1.0	b_B b_I aː_E
ബ്ബി	1.0	b_B b_I i_E
ബ്ബു	1.0	b_B b_I u_E
ബ്യ	1.0	b_B j_I a_E
ബ്യം	1.0	b_B j_I a_I m_E
ബ്യൂ	1.0	b_B j_I uː_E
ബ്ര	1.0	b_B r_I a_E
ബ്രാ	1.0	b_B r_I aː_E
ബ്രി	1.0	b_B r_I i_E
ബ്രു	1.0	b_B r_I u_E
ബ്രൂ	1.0	b_B r_I uː_E
ബ്ലാ	1.0	b_B l_I aː_E
ബ്ലി	1.0	b_B l_I i_E
ബ്ലൂ	1.0	b_B l_I uː_E
ബ്ലെ	1.0	b_B l_I e_E
ബ്ലോ	1.0	b_B l_I oː_E
ബ്ലൌ	1.0	b_B l_I au̯_E
ബ്വേ	1.0	b_B ʋ_I eː_E
ബ്സ	1.0	b_B s_I a_E
ഭ	1.0	bʱ_B a_E
ഭം	1.0	bʱ_B a_I m_E
ഭാ	1.0	bʱ_B aː_E
ഭാം	1.0	bʱ_B aː_I m_E
ഭി	1.0	bʱ_B i_E
ഭീ	1.0	bʱ_B iː_E
ഭു	1.0	bʱ_B u_E
ഭും	1.0	bʱ_B u_I m_E
ഭൂ	1.0	bʱ_B uː_E
ഭൃ	1.0	bʱ_B rɨ_E
ഭേ	1.0	bʱ_B eː_E
ഭൈ	1.0	bʱ_B ai̯_E
ഭോ	1.0	bʱ_B oː_E
ഭൌ	1.0	bʱ_B au̯_E #1
ഭൗ	1.0	bʱ_B au̯_E #2
ഭ്യ	1.0	bʱ_B j_I a_E
ഭ്യം	1.0	bʱ_B j_I a_I m_E
ഭ്യാ	1.0	bʱ_B j_I aː_E
ഭ്യു	1.0	bʱ_B j_I u_E
ഭ്യൂ	1.0	bʱ_B j_I uː_E
ഭ്ര	1.0	bʱ_B r_I a_E
ഭ്രം	1.0	bʱ_B r_I a_I m_E
ഭ്രാ	1.0	bʱ_B r_I aː_E
ഭ്രൂ	1.0	bʱ_B r_I uː_E
മ	1.0	m_B a_E #1
മം	1.0	m_B a_I m_E
മഃ	1.0	m_B a_E #2
മാ	1.0	m_B aː_E
മാം	1.0	m_B aː_I m_E
മി	1.0	m_B i_E
മിം	1.0	m_B i_I m_E
മീ	1.0	m_B iː_E
മു	1.0	m_B u_E
മും	1.0	m_B u_I m_E
മൂ	1.0	m_B uː_E
മൃ	1.0	m_B rɨ_E
മെ	1.0	m_B e_E
മേ	1.0	m_B eː_E
മൈ	1.0	m_B ai̯_E
മൊ	1.0	m_B o_E
മോ	1.0	m_B oː_E
മൌ	1.0	m_B au̯_E #1
മൗ	1.0	m_B au̯_E #2
മ്ന	1.0	m_B n̪_I a_E
മ്നാ	1.0	m_B n̪_I aː_E
മ്നോ	1.0	m_B n̪_I oː_E
മ്പ	1.0	m_B p_I a_E
മ്പം	1.0	m_B p_I a_I m_E
മ്പാ	1.0	m_B p_I aː_E
മ്പാം	1.0	m_B p_I aː_I m_E
മ്പി	1.0	m_B p_I i_E
മ്പീ	1.0	m_B p_I iː_E
മ്പു	1.0	m_B p_I u_E
മ്പും	1.0	m_B p_I u_I m_E
മ്പൂ	1.0	m_B p_I uː_E
മ്പെ	1.0	m_B p_I e_E
മ്പേ	1.0	m_B p_I eː_E
മ്പൊ	1.0	m_B p_I o_E
മ്പോ	1.0	m_B p_I oː_E
മ്പ്	1.0	m_B p_E
മ്പ്പ	1.0	m_B p_I p_I a_E
മ്പ്യ	1.0	m_B p_I j_I a_E
മ്പ്യാ	1.0	m_B p_I j_I aː_E
മ്പ്യൂ	1.0	m_B p_I j_I uː_E
മ്പ്ര	1.0	m_B p_I r_I a_E
മ്പ്രാ	1.0	m_B p_I r_I aː_E
മ്പ്ലേ	1.0	m_B p_I l_I eː_E
മ്മ	1.0	m_B m_I a_E
മ്മം	1.0	m_B m_I a_I m_E
മ്മാ	1.0	m_B m_I aː_E
മ്മാം	1.0	m_B m_I aː_I m_E
മ്മി	1.0	m_B m_I i_E
മ്മീ	1.0	m_B m_I iː_E
മ്മു	1.0	m_B m_I u_E
മ്മും	1.0	m_B m_I u_I m_E
മ്മൂ	1.0	m_B m_I uː_E
മ്മെ	1.0	m_B m_I e_E
മ്മേ	1.0	m_B m_I eː_E
മ്മേം	1.0	m_B m_I eː_I m_E
മ്മോ	1.0	m_B m_I oː_E
മ്മ്യൂ	1.0	m_B m_I j_I uː_E
മ്യ	1.0	m_B j_I a_E
മ്യം	1.0	m_B j_I a_I m_E
മ്യാ	1.0	m_B j_I aː_E
മ്യൂ	1.0	m_B j_I uː_E
മ്യേ	1.0	m_B j_I eː_E
മ്ര	1.0	m_B r_I a_E
മ്രം	1.0	m_B r_I a_I m_E
മ്രാ	1.0	m_B r_I aː_E
മ്ല	1.0	m_B l_I a_E
മ്ലം	1.0	m_B l_I a_I m_E
മ്ലാ	1.0	m_B l_I aː_E
മ്ലാം	1.0	m_B l_I aː_I m_E
യ	1.0	j_B a_E
യം	1.0	j_B a_I m_E
യാ	1.0	j_B aː_E
യാം	1.0	j_B aː_I m_E
യി	1.0	j_B i_E
യിം	1.0	j_B i_I m_E
യീ	1.0	j_B iː_E
യു	1.0	j_B u_E
യും	1.0	j_B u_I m_E
യൂ	1.0	j_B uː_E
യൂം	1.0	j_B uː_I m_E
യെ	1.0	j_B e_E
യേ	1.0	j_B eː_E
യൊ	1.0	j_B o_E
യോ	1.0	j_B oː_E
യൌ	1.0	j_B au̯_E #1
യൗ	1.0	j_B au̯_E #2
യ്	1.0	j_S
യ്ക	1.0	j_B k_I a_E
യ്കാ	1.0	j_B k_I aː_E
യ്കാം	1.0	j_B k_I aː_I m_E
യ്കി	1.0	j_B k_I i_E
യ്കു	1.0	j_B k_I u_E
യ്കും	1.0	j_B k_I u_I m_E
യ്ക്ക	1.0	j_B k_I k_I a_E
യ്ക്കാ	1.0	j_B k_I k_I aː_E
യ്ക്കാം	1.0	j_B k_I k_I aː_I m_E
യ്ക്കി	1.0	j_B k_I k_I i_E
യ്ക്കു	1.0	j_B k_I k_I u_E
യ്ക്കും	1.0	j_B k_I k_I u_I m_E
യ്ക്കൂ	1.0	j_B k_I k_I uː_E
യ്ക്കെ	1.0	j_B k_I k_I e_E
യ്ക്കേ	1.0	j_B k_I k_I eː_E
യ്ക്കൊ	1.0	j_B k_I k_I o_E
യ്ക്കോ	1.0	j_B k_I k_I oː_E
യ്ക്ക്	1.0	j_B k_I k_E
യ്ഗോ	1.0	j_B ɡ_I oː_E
യ്ച	1.0	j_B t͡ʃ_I a_E
യ്ച്ച	1.0	j_B t͡ʃ_I t͡ʃ_I a_E
യ്ച്ചി	1.0	j_B t͡ʃ_I t͡ʃ_I i_E
യ്ച്ചു	1.0	j_B t͡ʃ_I t͡ʃ_I u_E
യ്ച്ച്	1.0	j_B t͡ʃ_I t͡ʃ_E
യ്ഞ്ചി	1.0	j_B ɲ_I t͡ʃ_I i_E
യ്ഞ്ച്	1.0	j_B ɲ_I t͡ʃ_E
യ്ഡി	1.0	j_B ɖ_I i_E
യ്ഡു	1.0	j_B ɖ_I u_E
യ്ത	1.0	j_B t̪_I a_E
യ്താ	1.0	j_B t̪_I aː_E
യ്തി	1.0	j_B t̪_I i_E
യ്തു	1.0	j_B t̪_I u_E
യ്തെ	1.0	j_B t̪_I e_E
യ്തേ	1.0	j_B t̪_I eː_E
യ്തൊ	1.0	j_B t̪_I o_E
യ്തോ	1.0	j_B t̪_I oː_E
യ്ത്	1.0	j_B t̪_E
യ്ത്താ	1.0	j_B t̪_I t̪_I aː_E
യ്ത്തി	1.0	j_B t̪_I t̪_I i_E
യ്ത്തു	1.0	j_B t̪_I t̪_I u_E
യ്ത്തും	1.0	j_B t̪_I t̪_I u_I m_E
യ്ത്ത്	1.0	j_B t̪_I t̪_E
യ്പ	1.0	j_B p_I a_E
യ്പാ	1.0	j_B p_I aː_E
യ്പി	1.0	j_B p_I i_E
യ്പു	1.0	j_B p_I u_E
യ്പെ	1.0	j_B p_I e_E
യ്പോ	1.0	j_B p_I oː_E
യ്പ്	1.0	j_B p_E
യ്പ്പ	1.0	j_B p_I p_I a_E
യ്പ്പി	1.0	j_B p_I p_I i_E
യ്പ്പു	1.0	j_B p_I p_I u_E
യ്പ്പും	1.0	j_B p_I p_I u_I m_E
യ്പ്പെ	1.0	j_B p_I p_I e_E
യ്പ്പോ	1.0	j_B p_I p_I oː_E
യ്പ്പ്	1.0	j_B p_I p_E
യ്ഭാ	1.0	j_B bʱ_I aː_E
യ്മ	1.0	j_B m_I a_E
യ്മാ	1.0	j_B m_I aː_E
യ്മീ	1.0	j_B m_I iː_E
യ്മു	1.0	j_B m_I u_E
യ്മേ	1.0	j_B m_I eː_E
യ്മൊ	1.0	j_B m_I o_E
യ്യ	1.0	j_B j_I a_E
യ്യം	1.0	j_B j_I a_I m_E
യ്യാ	1.0	j_B j_I aː_E
യ്യാം	1.0	j_B j_I aː_I m_E
യ്യി	1.0	j_B j_I i_E
യ്യീ	1.0	j_B j_I iː_E
യ്യു	1.0	j_B j_I u_E
യ്യും	1.0	j_B j_I u_I m_E
യ്യൂ	1.0	j_B j_I uː_E
യ്യെ	1.0	j_B j_I e_E
യ്യേ	1.0	j_B j_I eː_E
യ്യൊ	1.0	j_B j_I o_E
യ്യോ	1.0	j_B j_I oː_E
യ്യ്	1.0	j_B j_E
യ്യ്താ	1.0	j_B j_I t̪_I aː_E
യ്ലി	1.0	j_B l_I i_E
യ്വ	1.0	j_B ʋ_I a_E
യ്വു	1.0	j_B ʋ_I u_E
യ്വും	1.0	j_B ʋ_I u_I m_E
യ്സു	1.0	j_B s_I u_E
ര	1.0	ɾ_B a_E
രം	1.0	ɾ_B a_I m_E
രാ	1.0	ɾ_B aː_E
രാം	1.0	ɾ_B aː_I m_E
രി	1.0	ɾ_B i_E
രിം	1.0	ɾ_B i_I m_E
രീ	1.0	ɾ_B iː_E
രീം	1.0	ɾ_B iː_I m_E
രു	1.0	ɾ_B u_E
രും	1.0	ɾ_B u_I m_E
രൂ	1.0	ɾ_B uː_E
രെ	1.0	ɾ_B e_E
രേ	1.0	ɾ_B eː_E
രേം	1.0	ɾ_B eː_I m_E
രൈ	1.0	ɾ_B ai̯_E
രൊ	1.0	ɾ_B o_E
രോ	1.0	ɾ_B oː_E
രൌ	1.0	ɾ_B au̯_E #1
രൗ	1.0	ɾ_B au̯_E #2
ര്	1.0	ɾ_S
ർ	1.0	r_S #1
ര്ക്കീ	1.0	ɾ_B k_I k_I iː_E
ര്ണം	1.0	ɾ_B ɳ_I a_I m_E
ര്യ	1.0	ɾ_B j_I a_E
ര്യം	1.0	ɾ_B j_I a_I m_E
ര്യാ	1.0	ɾ_B j_I aː_E
ര്യു	1.0	ɾ_B j_I u_E
ര്യേ	1.0	ɾ_B j_I eː_E
ര്യോ	1.0	ɾ_B j_I oː_E
ര്വോ	1.0	ɾ_B ʋ_I oː_E
ല	1.0	l_B a_E
ലം	1.0	l_B a_I m_E
ലാ	1.0	l_B aː_E
ലാം	1.0	l_B aː_I m_E
ലി	1.0	l_B i_E
ലിം	1.0	l_B i_I m_E
ലീ	1.0	l_B iː_E
ലീം	1.0	l_B iː_I m_E
ലു	1.0	l_B u_E
ലും	1.0	l_B u_I m_E
ലൂ	1.0	l_B uː_E
ലെ	1.0	l_B e_E
ലേ	1.0	l_B eː_E
ലേം	1.0	l_B eː_I m_E
ലൈ	1.0	l_B ai̯_E
ലൈം	1.0	l_B ai̯_I m_E
ലൊ	1.0	l_B o_E
ലോ	1.0	l_B oː_E
ലോം	1.0	l_B oː_I m_E
ലൌ	1.0	l_B au̯_E #1
ലൗ	1.0	l_B au̯_E #2
ല്	1.0	l_S #1
ൽ	1.0	l_S #2
ല്ക	1.0	l_B k_I a_E
ല്കാ	1.0	l_B k_I aː_E
ല്കി	1.0	l_B k_I i_E
ല്കു	1.0	l_B k_I u_E
ല്കും	1.0	l_B k_I u_I m_E
ല്ക്കം	1.0	l_B k_I k_I a_I m_E
ല്ക്കാ	1.0	l_B k_I k_I aː_E
ല്ക്കു	1.0	l_B k_I k_I u_E
ല്പ	1.0	l_B p_I a_E
ല്പം	1.0	l_B p_I a_I m_E
ല്പാ	1.0	l_B p_I aː_E
ല്പി	1.0	l_B p_I i_E
ല്പ്	1.0	l_B p_E
ല്മീ	1.0	l_B m_I iː_E
ല്യ	1.0	l_B j_I a_E
ല്യം	1.0	l_B j_I a_I m_E
ല്യാ	1.0	l_B j_I aː_E
ല്യേ	1.0	l_B j_I eː_E
ല്ല	1.0	l_B l_I a_E
ല്ലം	1.0	l_B l_I a_I m_E
ല്ലാ	1.0	l_B l_I aː_E
ല്ലാം	1.0	l_B l_I aː_I m_E
ല്ലി	1.0	l_B l_I i_E
ല്ലീ	1.0	l_B l_I iː_E
ല്ലു	1.0	l_B l_I u_E
ല്ലും	1.0	l_B l_I u_I m_E
ല്ലൂ	1.0	l_B l_I uː_E
ല്ലെ	1.0	l_B l_I e_E
ല്ലേ	1.0	l_B l_I eː_E
ല്ലൊ	1.0	l_B l_I o_E
ല്ലോ	1.0	l_B l_I oː_E
ല്ലോം	1.0	l_B l_I oː_I m_E
ല്ല്	1.0	l_B l_E
ല്ല്യ	1.0	l_B l_I j_I a_E
ല്ല്യം	1.0	l_B l_I j_I a_I m_E
ല്ല്യാ	1.0	l_B l_I j_I aː_E
ല്ല്യേ	1.0	l_B l_I j_I eː_E
ല്ല്വാ	1.0	l_B l_I ʋ_I aː_E
ല്വ	1.0	l_B ʋ_I a_E
വ	1.0	ʋ_B a_E
വം	1.0	ʋ_B a_I m_E
വാ	1.0	ʋ_B aː_E
വാം	1.0	ʋ_B aː_I m_E
വി	1.0	ʋ_B i_E
വീ	1.0	ʋ_B iː_E
വീം	1.0	ʋ_B iː_I m_E
വു	1.0	ʋ_B u_E
വും	1.0	ʋ_B u_I m_E
വൂ	1.0	ʋ_B uː_E
വൃ	1.0	ʋ_B rɨ_E
വെ	1.0	ʋ_B e_E
വേ	1.0	ʋ_B eː_E
വൈ	1.0	ʋ_B ai̯_E
വൊ	1.0	ʋ_B o_E
വോ	1.0	ʋ_B oː_E
വ്	1.0	ʋ_S
വ്ക	1.0	ʋ_B k_I a_E
വ്ടെ	1.0	ʋ_B ʈ_I e_E
വ്യ	1.0	ʋ_B j_I a_E
വ്യം	1.0	ʋ_B j_I a_I m_E
വ്യാ	1.0	ʋ_B j_I aː_E
വ്യു	1.0	ʋ_B j_I u_E
വ്യൂ	1.0	ʋ_B j_I uː_E
വ്യോ	1.0	ʋ_B j_I oː_E
വ്ര	1.0	ʋ_B r_I a_E
വ്രാ	1.0	ʋ_B r_I aː_E
വ്വ	1.0	ʋ_B ʋ_I a_E
വ്വം	1.0	ʋ_B ʋ_I a_I m_E
വ്വാ	1.0	ʋ_B ʋ_I aː_E
വ്വി	1.0	ʋ_B ʋ_I i_E
വ്വീ	1.0	ʋ_B ʋ_I iː_E
വ്വു	1.0	ʋ_B ʋ_I u_E
വ്വെ	1.0	ʋ_B ʋ_I e_E
വ്വേ	1.0	ʋ_B ʋ_I eː_E
വ്വൈ	1.0	ʋ_B ʋ_I ai̯_E
വ്വോ	1.0	ʋ_B ʋ_I oː_E
വ്വ്	1.0	ʋ_B ʋ_E
വ്സ്കി	1.0	ʋ_B s_I k_I i_E
ശ	1.0	ʃ_B a_E
ശം	1.0	ʃ_B a_I m_E
ശാ	1.0	ʃ_B aː_E
ശാം	1.0	ʃ_B aː_I m_E
ശി	1.0	ʃ_B i_E
ശിം	1.0	ʃ_B i_I m_E
ശീ	1.0	ʃ_B iː_E
ശു	1.0	ʃ_B u_E
ശും	1.0	ʃ_B u_I m_E
ശൂ	1.0	ʃ_B uː_E
ശൃ	1.0	ʃ_B rɨ_E
ശൃം	1.0	ʃ_B rɨ_I m_E
ശെ	1.0	ʃ_B e_E
ശേ	1.0	ʃ_B eː_E
ശൈ	1.0	ʃ_B ai̯_E
ശൊ	1.0	ʃ_B o_E
ശോ	1.0	ʃ_B oː_E
ശൌ	1.0	ʃ_B au̯_E #1
ശൗ	1.0	ʃ_B au̯_E #2
ശ്	1.0	ʃ_S
ശ്ച	1.0	ʃ_B t͡ʃ_I a_E
ശ്ചാ	1.0	ʃ_B t͡ʃ_I aː_E
ശ്ചി	1.0	ʃ_B t͡ʃ_I i_E
ശ്ചീ	1.0	ʃ_B t͡ʃ_I iː_E
ശ്ചേ	1.0	ʃ_B t͡ʃ_I eː_E
ശ്ചോ	1.0	ʃ_B t͡ʃ_I oː_E
ശ്ച്യം	1.0	ʃ_B t͡ʃ_I j_I a_I m_E
ശ്ച്യാ	1.0	ʃ_B t͡ʃ_I j_I aː_E
ശ്ന	1.0	ʃ_B n̪_I a_E
ശ്നം	1.0	ʃ_B n̪_I a_I m_E
ശ്നാ	1.0	ʃ_B n̪_I aː_E
ശ്നോ	1.0	ʃ_B n̪_I oː_E
ശ്മ	1.0	ʃ_B m_I a_E
ശ്മാ	1.0	ʃ_B m_I aː_E
ശ്മി	1.0	ʃ_B m_I i_E
ശ്മീ	1.0	ʃ_B m_I iː_E
ശ്യ	1.0	ʃ_B j_I a_E
ശ്യം	1.0	ʃ_B j_I a_I m_E
ശ്യാ	1.0	ʃ_B j_I aː_E
ശ്ര	1.0	ʃ_B r_I a_E
ശ്രം	1.0	ʃ_B r_I a_I m_E
ശ്രാ	1.0	ʃ_B r_I aː_E
ശ്രി	1.0	ʃ_B r_I i_E
ശ്രീ	1.0	ʃ_B r_I iː_E
ശ്രു	1.0	ʃ_B r_I u_E
ശ്രൂ	1.0	ʃ_B r_I uː_E
ശ്രേ	1.0	ʃ_B r_I eː_E
ശ്രോ	1.0	ʃ_B r_I oː_E
ശ്ലാ	1.0	ʃ_B l_I aː_E
ശ്ലീ	1.0	ʃ_B l_I iː_E
ശ്ലേ	1.0	ʃ_B l_I eː_E
ശ്ലോ	1.0	ʃ_B l_I oː_E
ശ്വ	1.0	ʃ_B ʋ_I a_E
ശ്വം	1.0	ʃ_B ʋ_I a_I m_E
ശ്വാ	1.0	ʃ_B ʋ_I aː_E
ശ്വി	1.0	ʃ_B ʋ_I i_E
ശ്വേ	1.0	ʃ_B ʋ_I eː_E
ശ്വോ	1.0	ʃ_B ʋ_I oː_E
ശ്ശ	1.0	ʃ_B ʃ_I a_E
ശ്ശാ	1.0	ʃ_B ʃ_I aː_E
ശ്ശി	1.0	ʃ_B ʃ_I i_E
ശ്ശീ	1.0	ʃ_B ʃ_I iː_E
ശ്ശൂ	1.0	ʃ_B ʃ_I uː_E
ശ്ശെ	1.0	ʃ_B ʃ_I e_E
ശ്ശേ	1.0	ʃ_B ʃ_I eː_E
ശ്ശ്	1.0	ʃ_B ʃ_E
ശ്ശ്യോ	1.0	ʃ_B ʃ_I j_I oː_E
ശ്ശ്ശ്	1.0	ʃ_B ʃ_I ʃ_E
ശ്ളാ	1.0	ʃ_B ɭ_I aː_E
ഷ	1.0	ʂ_B a_E
ഷം	1.0	ʂ_B a_I m_E
ഷാ	1.0	ʂ_B aː_E
ഷാം	1.0	ʂ_B aː_I m_E
ഷി	1.0	ʂ_B i_E
ഷീ	1.0	ʂ_B iː_E
ഷു	1.0	ʂ_B u_E
ഷൂ	1.0	ʂ_B uː_E
ഷെ	1.0	ʂ_B e_E
ഷേ	1.0	ʂ_B eː_E
ഷോ	1.0	ʂ_B oː_E
ഷ്	1.0	ʂ_S
ഷ്ക	1.0	ʂ_B k_I a_E
ഷ്കം	1.0	ʂ_B k_I a_I m_E
ഷ്കാ	1.0	ʂ_B k_I aː_E
ഷ്കി	1.0	ʂ_B k_I i_E
ഷ്കൃ	1.0	ʂ_B k_I rɨ_E
ഷ്ക്ക	1.0	ʂ_B k_I k_I a_E
ഷ്ക്കം	1.0	ʂ_B k_I k_I a_I m_E
ഷ്ക്കാ	1.0	ʂ_B k_I k_I aː_E
ഷ്ക്ക്	1.0	ʂ_B k_I k_E
ഷ്ക്രി	1.0	ʂ_B k_I r_I i_E
ഷ്ട	1.0	ʂ_B ʈ_I a_E
ഷ്ടം	1.0	ʂ_B ʈ_I a_I m_E
ഷ്ടാ	1.0	ʂ_B ʈ_I aː_E
ഷ്ടാം	1.0	ʂ_B ʈ_I aː_I m_E
ഷ്ടി	1.0	ʂ_B ʈ_I i_E
ഷ്ടീ	1.0	ʂ_B ʈ_I iː_E
ഷ്ടു	1.0	ʂ_B ʈ_I u_E
ഷ്ടും	1.0	ʂ_B ʈ_I u_I m_E
ഷ്ട്ട	1.0	ʂ_B ʈ_I ʈ_I a_E
ഷ്ട്ടി	1.0	ʂ_B ʈ_I ʈ_I i_E
ഷ്ട്യ	1.0	ʂ_B ʈ_I j_I a_E
ഷ്ട്യം	1.0	ʂ_B ʈ_I j_I a_I m_E
ഷ്ട്യാ	1.0	ʂ_B ʈ_I j_I aː_E
ഷ്ട്യു	1.0	ʂ_B ʈ_I j_I u_E
ഷ്ട്ര	1.0	ʂ_B ʈ_I r_I a_E
ഷ്ട്രം	1.0	ʂ_B ʈ_I r_I a_I m_E
ഷ്ട്രാ	1.0	ʂ_B ʈ_I r_I aː_E
ഷ്ട്രി	1.0	ʂ_B ʈ_I r_I i_E
ഷ്ട്രീ	1.0	ʂ_B ʈ_I r_I iː_E
ഷ്ഠ	1.0	ʂ_B ʈʰ_I a_E
ഷ്ഠം	1.0	ʂ_B ʈʰ_I a_I m_E
ഷ്ഠാ	1.0	ʂ_B ʈʰ_I aː_E
ഷ്ഠി	1.0	ʂ_B ʈʰ_I i_E
ഷ്ഠൂ	1.0	ʂ_B ʈʰ_I uː_E
ഷ്ണ	1.0	ʂ_B ɳ_I a_E
ഷ്ണം	1.0	ʂ_B ɳ_I a_I m_E
ഷ്ണാ	1.0	ʂ_B ɳ_I aː_E
ഷ്ണി	1.0	ʂ_B ɳ_I i_E
ഷ്ണു	1.0	ʂ_B ɳ_I u_E
ഷ്ണൂ	1.0	ʂ_B ɳ_I uː_E
ഷ്ണേ	1.0	ʂ_B ɳ_I eː_E
ഷ്പ	1.0	ʂ_B p_I a_E
ഷ്പം	1.0	ʂ_B p_I a_I m_E
ഷ്പാ	1.0	ʂ_B p_I aː_E
ഷ്പി	1.0	ʂ_B p_I i_E
ഷ്പീ	1.0	ʂ_B p_I iː_E
ഷ്പേ	1.0	ʂ_B p_I eː_E
ഷ്പോ	1.0	ʂ_B p_I oː_E
ഷ്പ്പ	1.0	ʂ_B p_I p_I a_E
ഷ്പ്പേ	1.0	ʂ_B p_I p_I eː_E
ഷ്പ്ര	1.0	ʂ_B p_I r_I a_E
ഷ്ഫ	1.0	ʂ_B pʰ_I a_E
ഷ്മ	1.0	ʂ_B m_I a_E
ഷ്മം	1.0	ʂ_B m_I a_I m_E
ഷ്മാ	1.0	ʂ_B m_I aː_E
ഷ്മീ	1.0	ʂ_B m_I iː_E
ഷ്യ	1.0	ʂ_B j_I a_E
ഷ്യം	1.0	ʂ_B j_I a_I m_E
ഷ്യാ	1.0	ʂ_B j_I aː_E
ഷ്ര്ട	1.0	ʂ_B r_I ʈ_I a_E
ഷ്വാ	1.0	ʂ_B ʋ_I aː_E
സ	1.0	s_B a_E
സം	1.0	s_B a_I m_E
സാ	1.0	s_B aː_E
സാം	1.0	s_B aː_I m_E
സി	1.0	s_B i_E
സിം	1.0	s_B i_I m_E
സീ	1.0	s_B iː_E
സീം	1.0	s_B iː_I m_E
സു	1.0	s_B u_E
സും	1.0	s_B u_I m_E
സൂ	1.0	s_B uː_E
സൃ	1.0	s_B rɨ_E
സെ	1.0	s_B e_E
സേ	1.0	s_B eː_E
സൈ	1.0	s_B ai̯_E
സോ	1.0	s_B oː_E
സോം	1.0	s_B oː_I m_E
സൌ	1.0	s_B au̯_E #1
സൗ	1.0	s_B au̯_E #2
സ്	1.0	s_S
സ്ക	1.0	s_B k_I a_E
സ്കാ	1.0	s_B k_I aː_E
സ്കൂ	1.0	s_B k_I uː_E
സ്കൃ	1.0	s_B k_I rɨ_E
സ്കോ	1.0	s_B k_I oː_E
സ്കൗ	1.0	s_B k_I au̯_E
സ്ക്ക	1.0	s_B k_I k_I a_E
സ്ക്കാ	1.0	s_B k_I k_I aː_E
സ്ക്രി	1.0	s_B k_I r_I i_E
സ്ക്രീ	1.0	s_B k_I r_I iː_E
സ്ഖ	1.0	s_B kʰ_I a_E
സ്ചൈ	1.0	s_B t͡ʃ_I ai̯_E
സ്ജി	1.0	s_B ɟ_I i_E
സ്ട്രേ	1.0	s_B ʈ_I r_I eː_E
സ്ട്രോ	1.0	s_B ʈ_I r_I oː_E
സ്ത	1.0	s_B t̪_I a_E
സ്തം	1.0	s_B t̪_I a_I m_E
സ്താ	1.0	s_B t̪_I aː_E #1
സ്താഃ	1.0	s_B t̪_I aː_E #2
സ്തി	1.0	s_B t̪_I i_E
സ്തീ	1.0	s_B t̪_I iː_E
സ്തു	1.0	s_B t̪_I u_E
സ്തൂ	1.0	s_B t̪_I uː_E
സ്തൃ	1.0	s_B t̪_I rɨ_E
സ്തേ	1.0	s_B t̪_I eː_E
സ്തോ	1.0	s_B t̪_I oː_E
സ്ത്	1.0	s_B t̪_E
സ്ത്മ	1.0	s_B t̪_I m_I a_E
സ്ത്മാ	1.0	s_B t̪_I m_I aː_E
സ്ത്യ	1.0	s_B t̪_I j_I a_E
സ്ത്യം	1.0	s_B t̪_I j_I a_I m_E
സ്ത്യാ	1.0	s_B t̪_I j_I aː_E
സ്ത്ര	1.0	s_B t̪_I r_I a_E
സ്ത്രം	1.0	s_B t̪_I r_I a_I m_E
സ്ത്രാ	1.0	s_B t̪_I r_I aː_E
സ്ത്രി	1.0	s_B t̪_I r_I i_E
സ്ത്രീ	1.0	s_B t̪_I r_I iː_E
സ്ത്രു	1.0	s_B t̪_I r_I u_E
സ്ത്രൈ	1.0	s_B t̪_I r_I ai̯_E
സ്ഥ	1.0	s_B t̪ʰ_I a_E
സ്ഥം	1.0	s_B t̪ʰ_I a_I m_E
സ്ഥാ	1.0	s_B t̪ʰ_I aː_E
സ്ഥി	1.0	s_B t̪ʰ_I i_E
സ്ഥീ	1.0	s_B t̪ʰ_I iː_E
സ്ഥൂ	1.0	s_B t̪ʰ_I uː_E
സ്ഥൈ	1.0	s_B t̪ʰ_I ai̯_E
സ്ഥോ	1.0	s_B t̪ʰ_I oː_E
സ്ഥ്യ	1.0	s_B t̪ʰ_I j_I a_E
സ്ഥ്യം	1.0	s_B t̪ʰ_I j_I a_I m_E
സ്ഥ്യാ	1.0	s_B t̪ʰ_I j_I aː_E
സ്നാ	1.0	s_B n̪_I aː_E
സ്നു	1.0	s_B n̪_I u_E
സ്നേ	1.0	s_B n̪_I eː_E
സ്പ	1.0	s_B p_I a_E
സ്പാ	1.0	s_B p_I aː_E
സ്പി	1.0	s_B p_I i_E
സ്പൂ	1.0	s_B p_I uː_E
സ്പൃ	1.0	s_B p_I rɨ_E
സ്പെ	1.0	s_B p_I e_E
സ്പൈ	1.0	s_B p_I ai̯_E
സ്പ്ത്രി	1.0	s_B p_I t̪_I r_I i_E
സ്പ്പ	1.0	s_B p_I p_I a_E
സ്ഫ	1.0	s_B pʰ_I a_E
സ്ഫു	1.0	s_B pʰ_I u_E
സ്ഫോ	1.0	s_B pʰ_I oː_E
സ്ബാ	1.0	s_B b_I aː_E
സ്മ	1.0	s_B m_I a_E
സ്മം	1.0	s_B m_I a_I m_E
സ്മാ	1.0	s_B m_I aː_E
സ്മി	1.0	s_B m_I i_E
സ്മൂ	1.0	s_B m_I uː_E
സ്മൃ	1.0	s_B m_I rɨ_E
സ്മേ	1.0	s_B m_I eː_E
സ്യ	1.0	s_B j_I a_E
സ്യം	1.0	s_B j_I a_I m_E
സ്യാ	1.0	s_B j_I aː_E
സ്യൂ	1.0	s_B j_I uː_E
സ്യേ	1.0	s_B j_I eː_E
സ്യോ	1.0	s_B j_I oː_E
സ്ര	1.0	s_B r_I a_E #1
സ്രാ	1.0	s_B r_I aː_E
സ്രോ	1.0	s_B r_I oː_E
സ്ലാ	1.0	s_B l_I aː_E
സ്ലാം	1.0	s_B l_I aː_I m_E
സ്ലി	1.0	s_B l_I i_E
സ്ലിം	1.0	s_B l_I i_I m_E
സ്ലീ	1.0	s_B l_I iː_E
സ്ലീം	1.0	s_B l_I iː_I m_E
സ്ല്യാ	1.0	s_B l_I j_I aː_E
സ്വ	1.0	s_B ʋ_I a_E
സ്വം	1.0	s_B ʋ_I a_I m_E
സ്വാ	1.0	s_B ʋ_I aː_E
സ്വി	1.0	s_B ʋ_I i_E
സ്വീ	1.0	s_B ʋ_I iː_E
സ്വേ	1.0	s_B ʋ_I eː_E
സ്വൈ	1.0	s_B ʋ_I ai̯_E
സ്സ	1.0	s_B s_I a_E
സ്സം	1.0	s_B s_I a_I m_E
സ്സാ	1.0	s_B s_I aː_E
സ്സാം	1.0	s_B s_I aː_I m_E
സ്സി	1.0	s_B s_I i_E
സ്സീ	1.0	s_B s_I iː_E
സ്സു	1.0	s_B s_I u_E
സ്സും	1.0	s_B s_I u_I m_E
സ്സൂ	1.0	s_B s_I uː_E
സ്സെ	1.0	s_B s_I e_E
സ്സേ	1.0	s_B s_I eː_E
സ്സൊ	1.0	s_B s_I o_E
സ്സോ	1.0	s_B s_I oː_E
സ്സ്	1.0	s_B s_E
സ്ഹ	1.0	s_B ɦ_I a_E
സ്റ	1.0	s_B r_I a_E #2
സ്റ്റ	1.0	s_B ṯ_I ṯ_I a_E
സ്റ്റം	1.0	s_B ṯ_I ṯ_I a_I m_E
സ്റ്റാ	1.0	s_B ṯ_I ṯ_I aː_E
സ്റ്റി	1.0	s_B ṯ_I ṯ_I i_E
സ്റ്റീ	1.0	s_B ṯ_I ṯ_I iː_E
സ്റ്റു	1.0	s_B ṯ_I ṯ_I u_E
സ്റ്റും	1.0	s_B ṯ_I ṯ_I u_I m_E
സ്റ്റേ	1.0	s_B ṯ_I ṯ_I eː_E
സ്റ്റൈ	1.0	s_B ṯ_I ṯ_I ai̯_E
സ്റ്റ്	1.0	s_B ṯ_I ṯ_E
സ്റ്റ്യ	1.0	s_B ṯ_I ṯ_I j_I a_E
ഹ	1.0	ɦ_B a_E
ഹം	1.0	ɦ_B a_I m_E
ഹാ	1.0	ɦ_B aː_E
ഹാം	1.0	ɦ_B aː_I m_E
ഹി	1.0	ɦ_B i_E
ഹിം	1.0	ɦ_B i_I m_E
ഹീ	1.0	ɦ_B iː_E
ഹു	1.0	ɦ_B u_E
ഹും	1.0	ɦ_B u_I m_E
ഹൂ	1.0	ɦ_B uː_E
ഹൂം	1.0	ɦ_B uː_I m_E
ഹൃ	1.0	ɦ_B rɨ_E
ഹെ	1.0	ɦ_B e_E
ഹേ	1.0	ɦ_B eː_E
ഹൈ	1.0	ɦ_B ai̯_E
ഹൊ	1.0	ɦ_B o_E
ഹോ	1.0	ɦ_B oː_E
ഹ്	1.0	ɦ_S
ഹ്ങാ	1.0	ɦ_B ŋ_I aː_E
ഹ്ന	1.0	ɦ_B n̪_I a_E
ഹ്നം	1.0	ɦ_B n̪_I a_I m_E
ഹ്മ	1.0	ɦ_B m_I a_E
ഹ്മാ	1.0	ɦ_B m_I aː_E
ഹ്മ്മ	1.0	ɦ_B m_I m_I a_E
ഹ്യ	1.0	ɦ_B j_I a_E
ഹ്യം	1.0	ɦ_B j_I a_I m_E
ഹ്യാ	1.0	ɦ_B j_I aː_E
ഹ്യൂ	1.0	ɦ_B j_I uː_E
ഹ്ര	1.0	ɦ_B r_I a_E
ഹ്രു	1.0	ɦ_B r_I u_E #1
ഹ്ലാ	1.0	ɦ_B l_I aː_E
ഹ്ലി	1.0	ɦ_B l_I i_E
ഹ്വ	1.0	ɦ_B ʋ_I a_E
ഹ്വാ	1.0	ɦ_B ʋ_I aː_E
ഹ്സാ	1.0	ɦ_B s_I aː_E
ഹ്ളാ	1.0	ɦ_B ɭ_I aː_E
ഹ്റം	1.0	ɦ_B r_I a_I m_E
ഹ്റാം	1.0	ɦ_B r_I aː_I m_E
ഹ്റു	1.0	ɦ_B r_I u_E #2
ള	1.0	ɭ_B a_E
ളം	1.0	ɭ_B a_I m_E
ളാ	1.0	ɭ_B aː_E
ളാം	1.0	ɭ_B aː_I m_E
ളി	1.0	ɭ_B i_E
ളീ	1.0	ɭ_B iː_E
ളു	1.0	ɭ_B u_E
ളും	1.0	ɭ_B u_I m_E
ളൂ	1.0	ɭ_B uː_E
ളൂം	1.0	ɭ_B uː_I m_E
ളെ	1.0	ɭ_B e_E
ളേ	1.0	ɭ_B eː_E
ളേം	1.0	ɭ_B eː_I m_E
ളൊ	1.0	ɭ_B o_E
ളോ	1.0	ɭ_B oː_E
ള്	1.0	ɭ_S #1
ൾ	1.0	ɭ_S #2
ള്ക്കാ	1.0	ɭ_B k_I k_I aː_E
ള്ക്കി	1.0	ɭ_B k_I k_I i_E
ള്ക്കു	1.0	ɭ_B k_I k_I u_E
ള്ക്കേ	1.0	ɭ_B k_I k_I eː_E
ള്ക്ക്	1.0	ɭ_B k_I k_E
ള്ണ്ടാ	1.0	ɭ_B ɳ_I ʈ_I aː_E
ള്പ്പെ	1.0	ɭ_B p_I p_I e_E
ള്യ	1.0	ɭ_B j_I a_E
ള്യം	1.0	ɭ_B j_I a_I m_E
ള്ള	1.0	ɭ_B ɭ_I a_E
ള്ളം	1.0	ɭ_B ɭ_I a_I m_E
ള്ളാ	1.0	ɭ_B ɭ_I aː_E
ള്ളാം	1.0	ɭ_B ɭ_I aː_I m_E
ള്ളി	1.0	ɭ_B ɭ_I i_E
ള്ളീ	1.0	ɭ_B ɭ_I iː_E
ള്ളു	1.0	ɭ_B ɭ_I u_E
ള്ളും	1.0	ɭ_B ɭ_I u_I m_E
ള്ളൂ	1.0	ɭ_B ɭ_I uː_E
ള്ളെ	1.0	ɭ_B ɭ_I e_E
ള്ളേ	1.0	ɭ_B ɭ_I eː_E
ള്ളൊ	1.0	ɭ_B ɭ_I o_E
ള്ളോ	1.0	ɭ_B ɭ_I oː_E
ള്ളോം	1.0	ɭ_B ɭ_I oː_I m_E
ള്ള്	1.0	ɭ_B ɭ_E
ള്ള്ക	1.0	ɭ_B ɭ_I k_I a_E
ള്ള്യാ	1.0	ɭ_B ɭ_I j_I aː_E
ഴ	1.0	ɻ_B a_E
ഴം	1.0	ɻ_B a_I m_E
ഴാ	1.0	ɻ_B aː_E
ഴാം	1.0	ɻ_B aː_I m_E
ഴി	1.0	ɻ_B i_E
ഴീ	1.0	ɻ_B iː_E
ഴു	1.0	ɻ_B u_E
ഴും	1.0	ɻ_B u_I m_E
ഴൂ	1.0	ɻ_B uː_E
ഴെ	1.0	ɻ_B e_E
ഴേ	1.0	ɻ_B eː_E
ഴൊ	1.0	ɻ_B o_E
ഴോ	1.0	ɻ_B oː_E
ഴ്	1.0	ɻ_S
ഴ്ക്കാം	1.0	ɻ_B k_I k_I aː_I m_E
ഴ്ക്കോ	1.0	ɻ_B k_I k_I oː_E
ഴ്ച	1.0	ɻ_B t͡ʃ_I a_E
ഴ്ചാ	1.0	ɻ_B t͡ʃ_I aː_E
ഴ്ചി	1.0	ɻ_B t͡ʃ_I i_E
ഴ്ചു	1.0	ɻ_B t͡ʃ_I u_E
ഴ്ച്ച	1.0	ɻ_B t͡ʃ_I t͡ʃ_I a_E
ഴ്ച്ചെ	1.0	ɻ_B t͡ʃ_I t͡ʃ_I e_E
ഴ്ജീ	1.0	ɻ_B ɟ_I iː_E
ഴ്ത്ത	1.0	ɻ_B t̪_I t̪_I a_E
ഴ്ത്താ	1.0	ɻ_B t̪_I t̪_I aː_E
ഴ്ത്താം	1.0	ɻ_B t̪_I t̪_I aː_I m_E
ഴ്ത്തി	1.0	ɻ_B t̪_I t̪_I i_E
ഴ്ത്തു	1.0	ɻ_B t̪_I t̪_I u_E
ഴ്ത്തും	1.0	ɻ_B t̪_I t̪_I u_I m_E
ഴ്ദ്ര	1.0	ɻ_B d̪_I ɾ_I a_E
ഴ്നാ	1.0	ɻ_B n̪_I aː_E
ഴ്ന്ന	1.0	ɻ_B n̪_I n̪_I a_E
ഴ്ന്നാ	1.0	ɻ_B n̪_I n̪_I aː_E
ഴ്ന്നി	1.0	ɻ_B n̪_I n̪_I i_E
ഴ്ന്നു	1.0	ɻ_B n̪_I n̪_I u_E
ഴ്ന്നും	1.0	ɻ_B n̪_I n̪_I u_I m_E
ഴ്ന്നേ	1.0	ɻ_B n̪_I n̪_I eː_E
ഴ്ന്ന്	1.0	ɻ_B n̪_I n̪_E
ഴ്പാ	1.0	ɻ_B p_I aː_E
ഴ്പു	1.0	ɻ_B p_I u_E
ഴ്പെ	1.0	ɻ_B p_I e_E
ഴ്പോ	1.0	ɻ_B p_I oː_E
ഴ്പ്പ	1.0	ɻ_B p_I p_I a_E
ഴ്പ്പെ	1.0	ɻ_B p_I p_I e_E
ഴ്ഭാ	1.0	ɻ_B bʱ_I aː_E
ഴ്മ	1.0	ɻ_B m_I a_E
ഴ്മു	1.0	ɻ_B m_I u_E
ഴ്മേ	1.0	ɻ_B m_I eː_E
ഴ്വ	1.0	ɻ_B ʋ_I a_E
ഴ്വാ	1.0	ɻ_B ʋ_I aː_E
ഴ്ശ്വാ	1.0	ɻ_B ʃ_I ʋ_I aː_E
ഴ്സ	1.0	ɻ_B s_I a_E
ഴ്സി	1.0	ɻ_B s_I i_E
ഴ്സ്	1.0	ɻ_B s_E
റ	1.0	r_B a_E
റം	1.0	r_B a_I m_E
റാ	1.0	r_B aː_E
റാം	1.0	r_B aː_I m_E
റി	1.0	r_B i_E
റീ	1.0	r_B iː_E
റീം	1.0	r_B iː_I m_E
റു	1.0	r_B u_E
റും	1.0	r_B u_I m_E
റൂ	1.0	r_B uː_E
റെ	1.0	r_B e_E
റേ	1.0	r_B eː_E
റൊ	1.0	r_B o_E
റോ	1.0	r_B oː_E
റോം	1.0	r_B oː_I m_E
റൗ	1.0	r_B au̯_E
റ്	1.0	r_S #2
റ്ക	1.0	r_B k_I a_E
റ്തെ	1.0	r_B t̪_I e_E
റ്റ	1.0	ṯ_B ṯ_I a_E
റ്റം	1.0	ṯ_B ṯ_I a_I m_E
റ്റാ	1.0	ṯ_B ṯ_I aː_E
റ്റാം	1.0	ṯ_B ṯ_I aː_I m_E
റ്റി	1.0	ṯ_B ṯ_I i_E
റ്റീ	1.0	ṯ_B ṯ_I iː_E
റ്റു	1.0	ṯ_B ṯ_I u_E
റ്റും	1.0	ṯ_B ṯ_I u_I m_E
റ്റൂ	1.0	ṯ_B ṯ_I uː_E
റ്റെ	1.0	ṯ_B ṯ_I e_E
റ്റേ	1.0	ṯ_B ṯ_I eː_E
റ്റൊ	1.0	ṯ_B ṯ_I o_E
റ്റോ	1.0	ṯ_B ṯ_I oː_E
റ്റ്	1.0	ṯ_B ṯ_E
റ്റ്നാ	1.0	ṯ_B ṯ_I n̪_I aː_E
റ്റ്ഫീ	1.0	ṯ_B ṯ_I pʰ_I iː_E
റ്റ്യാ	1.0	ṯ_B ṯ_I j_I aː_E
റ്റ്യൂ	1.0	ṯ_B ṯ_I j_I uː_E
റ്റ്ല	1.0	ṯ_B ṯ_I l_I a_E
റ്റ്ലാ	1.0	ṯ_B ṯ_I l_I aː_E
റ്റ്സി	1.0	ṯ_B ṯ_I s_I i_E
റ്റ്സ്	1.0	ṯ_B ṯ_I s_E
റ്റ്സ്മാ	1.0	ṯ_B ṯ_I s_I m_I aː_E
