അകത്തുകടന്ന്
അച്ഛനാണ്
അച്ഛനെയല്ല
അഞ്ചുറുപ്പിക
അഞ്ചെട്ടു
അടുത്തകാലത്തിന്നുള്ളിൽ
അതികേമമായിരുന്നു
അതിപ്രേമമായിരുന്നു
അതിസൗഭാഗ്യവതിയായ
അതുണ്ടായില്ല
അനന്തസേവാ
അനുഭവിക്കുന്നതിൽ
അനുഭവിക്കുന്നവരും
അനുഭവിച്ചവരും
അനുഭവിച്ചിട്ടുള്ളതിൽ
അനുരാഗമുണ്ടായിരുന്നു
അപമാനമില്ല
അപമാനമേയുള്ളൂ
അഭിപ്രായക്കാരനായിരുന്നില്ല
അഭ്യസിച്ചിരിക്കണം
അമര്യാദക്കാരുമായിട്ടാണ്
അമര്യാദതാവഴിയിലാണ്
അമര്യാദതാവഴിയിൽ
അമാനുഷൻ
അമ്മാവനും
അർജുനന്റെ
അവനായിട്ട്
അവമാനം
അവരിൽ
അവളേയും
അവിടെച്ചെന്നാൽ
അശേഷം
അസ്വാധീനത്തിങ്കലും
അറിയാവുന്നതായിരുന്നാൽ
അറിവാൻ
ആപത്തിനുള്ള
ആപത്തുകളെ
ആഭരണപ്പെട്ടി
ആലോചിച്ചു
ആറുമാസവും
ഇക്കണ്ടകുറുപ്പിന്റെ
ഇക്കണ്ടക്കുറുപ്പ്
ഇടയുണ്ട്
ഇടയ്‌ക്കിടെ
ഇടുവിച്ചു
ഇട്ടിനാരായണൻ
ഇട്യാറാണന്റെ
ഇട്യാറാണാൻ
ഇതിലൊന്നിലും
ഇതുപോലെയാണ്
ഇത്രവളരെക്കാലം
ഇദ്ദേഹത്തിനെ
ഇനിക്കവിടെ
ഇനിക്കു
ഇനിക്ക്
ഇരിങ്ങാലക്കുട
ഇരിപ്പാൻ
ഇരുന്നാൽ
ഇല്ലത്തെ
ഇല്ലാഞ്ഞാൽ
ഇല്ലാതെവശായി
ഇല്ലെന്നല്ല
ഇവനു
ഈരാറു
ഉച്ചതിരിഞ്ഞ
ഉണരാതിരിപ്പാൻ
ഉണരാത്ത
ഉണരുന്നത്
ഉണരുമോ
ഉണർന്നു
ഉണ്ടായില്ല
ഉത്സാഹിച്ചു
ഉദ്യോഗസ്ഥന്മാരാൽ
ഉദ്യോഗസ്ഥന്മാർക്ക്
ഉറക്കമാണ്
ഉറങ്ങിയിരുന്നത്
ഊരാഞ്ചാടിയായിരുന്നാലും
ഊരാറില്ല
എങ്ങനെയാണെന്നു
എടത്തെ
എടത്തെക്കൈയിന്റെ
എടുക്കണമെന്നുണ്ടായിരുന്നില്ല
എനിക്കിട്ടിട്ടുള്ളതും
എനിക്കുണ്ടായി
എനിക്കുണ്ടായില്ല
എന്നിട്ടാണ്
എന്നുമാത്രമല്ല
എന്നുലള്ളതിലേക്ക്
എന്നെക്കാൾ
എന്നെപ്പോലെ
എന്നേയും
എവിടെപ്പോയിരിക്കാമെന്ന്
എഴുതുന്നില്ല
ഏകസംബന്ധിജ്ഞാനമപരസംബന്ധിസ്‌മാരകമെന്ന
ഒതുക്കാവുന്നതെല്ലാം
ഒപ്പ്
ഒരതിരും
ഒരില്ലത്താണ്
ഒരുപോലെ
ഒരുവകക്കാര്
ഒഴിഞ്ഞുപോകണമെന്നു
ഒറ്റയ്ക്കുപോയി
ഒറ്റയ്ക്കുള്ളതായിരിക്കുകയാണ്
ഒറ്റ്
ഓർമവന്നപ്പോൾ
ഓർമവന്നു
ഓർമ്മയ്‌ക്കു
ഓഹരിയും
കക്കാറും
കക്കുക
കണ്ടപ്പോൾത്തന്നെ
കണ്ടിട്ടുള്ള
കണ്ടുനിന്നു
കണ്ടെത്താതിരിക്കയില്ല
കണ്ടെത്തിക്കിട്ടായാൽ
കഥയില്ലായ്മ
കയ്‌പീത്തുകൊടുക്കാം
കയ്യിട്ടു
കയ്യിലെടുത്തു
കരുതിയാണ്
കല്യാണിക്കുട്ടിയെ
കല്ല്യാണിക്കുട്ടിക്കു
കഷ്‌ടമല്ല
കളവിൽ
കളവു
കളവുകവിഞ്ഞതിൽ
കളവുകളും
കളവുണ്ടായത്
കളവുനടത്തി
കളവുപോയി
കളവുവിട്ട്
കളവ്
കള്ളനാവാനുള്ള
കഴിയില്ലെന്നു
കറപറ്റിയ
കറുത്തും
കറുപ്പുകൂടിയ
കാടരികായിട്ടുള്ള
കാടരികിൽ
കാട്ടിൽപോകുവാനും
കാരണവന്മാരുടെ
കാലത്തും
കാലത്തേ
കാവ്യം
കാഴ്‌ച
കിടന്നുറങ്ങുമ്പോൾ
കിട്ടണമെന്നാണെന്നു
കിട്ടിയെന്ന്
കിട്ടീട്ടുള്ള
കിട്ടുവാൻ
കുടുങ്ങുന്ന
കുട്ടികൾക്കുകൂടി
കുറച്ചുദിവസത്തേക്ക്
കൂട്ടത്തിലേക്ക്
കെട്ടിയിരുന്നത്
കെണിയാണെന്ന്
കേട്ടിരിക്കാതിരിക്കയില്ല
കേൾക്കാത്ത
കൈക്കലാക്കി
കൈയിന്മേൽ
കൈവശത്തിൽ
കൈവിലങ്ങും
കൊച്ചിശ്ശീമയിലാണ്
കൊടുക്കാവു
കൊടുങ്ങല്ലൂർ
കൊടുത്തിട്ടുണ്ടായിരുന്നു
കൊണ്ടുപിടിച്ചു
കൊല്ലത്തോളം
കൊള്ളരുതാത്ത
കൊള്ളാറും
കോടതിപൂട്ടൽപ്പോലെ
കോണം
കോൺസ്റ്റബിൾ
കോന്ത്രമ്പല്ലും
ഗംഗാസ്നാനവും
ഗണാഷ്‌ടകവ്യുൽപ്പത്തി
ഗന്തർ
ഗംഭീരന്മാർ
ഗുജിലിത്തെരുവിൽ
ഗൃഹസ്ഥന്റെ
ഗ്രാമക്കാർ
ചാടിപ്പോന്നതിൽപ്പിന്നെ
ചിലരെങ്കിലും
ചീത്തയാണെന്നല്ലേ
ചുരുക്കമായിരിക്കും
ചെന്നുചാടുന്നത്
ചെയ്‌ത
ചെയ്‌തിട്ടുണ്ടായിരുന്നു
ചെയ്‌ത്
ചെയ്വാൻ
ചെല്ലുകയുള്ളൂ
ചൊല്ലാറുണ്ട്
ചോടു
ചോദിക്കയും
ജനത്തിരിക്കും
ഞാനിതാ
ഞാനെന്റെ
ഞെട്ടി
തടസ്സവും
തട്ടണമെന്ന്
തന്നെയാകുന്നു
തപ്പിനോക്കിയപ്പോൾ
തരമാകുന്നത്
തരമില്ലെന്നുതോന്നി
തലയ്ക്കൽ
തലേ
തലേക്കെട്ടും
തറവാട്ടിലും
തറവാട്ടിൽ
താമസവും
താമസിക്കുന്നേടത്തു
താവഴിക്കാർ
താവഴിയും
തിരുമനസ്സുകൊണ്ട്
തു
തുടങ്ങിയതല്ല
തുമ്പും
തൃശ്ശിവപേരൂർക്ക്
തെണ്ടിനായാട്ടും
തെളിനായാട്ടായാൽ
തെളിനായാട്ടും
തെറ്റിപ്പോകുവാൻ
തേവിടിശ്ശി
തേവിടിശ്ശിയുടെ
തൊഴിലിൽ
തോന്നാതിരിപ്പാനും
തോൽപ്പിക്കപ്പെടുന്നതും
ത്വൽപുരുഷാ
ദിക്കിലെല്ലാം
ദിവ്യപുരുഷന്മാരെ
ദീവട്ടിക്കൊള്ള
ദുസ്സഹമായിട്ടുള്ളതല്ലേ
ദേഹത്തിനല്ല
ദേഹപരിശോധന
ദ്വയീ
ദ്വേധാ
നമ്പൂതിരിയെന്നു
നവീനനും
നവീനബുദ്ധിയുണ്ടായിരിക്കുന്നത്
നാരായണീയം
നാലാമച്ഛനായ
നാലാമച്ഛന്
നാലാമച്ഛൻ
നികൃന്തതി
നിങ്ങളിൽ
നിങ്ങൾക്കു
നിങ്ങൾക്കുണ്ടായിരിക്കണം
നിവൃത്തിയും
നിശ്ചയം
നിശ്ചയിച്ച്
നിറഭേദമുള്ളത്
നേരിടുവാനും
നോക്കട്ടെ
നോക്കിനിന്നിരുന്നു
നോട്ടുപുസ്തകവും
ന്യായേന
പകരക്കാരില്ല
പകുതിവായയും
പട്ടേരി
പത്തുകൊല്ലംകൊണ്ട്
പന്ത്രണ്ടടിയും
പന്ത്രണ്ടുതന്നെ
പരിവാരങ്ങൾക്ക്
പലതരങ്ങളും
പലരോടും
പലേടത്തും
പറഞ്ഞുകൂടാ
പറയുന്നതു
പറയേണ്ടതായി
പറവാനുള്ളൂ
പറ്റിക്കാതെ
പാപമോചനത്തിനും
പാരമ്പര്യമാഹാത്മ്യത്തെ
പാലിലിട്ടു
പാശികളിക്കാരനായിരുന്നു
പിന്തുടർന്നിരുന്നത്
പിന്നെയുണ്ടാകുന്ന
പിറ്റേന്നാൾ
പീടികയിൽ
പുനന്തി
പുറത്തുകാട്ടി
പുറത്തുവന്നിരിക്കുന്നു
പുറപ്പെടണ്ടാ
പൂട്ടിയാൽ
പൂവെച്ചമോതിരം
പോകുന്നതായാൽ
പോക്കറ്റിൽ
പോലീസുകാരുടെ
പോലീസ്
പോലീസ്സുക്കാർക്ക്
പോലെയാകുന്നു
പ്രകൃതം
പ്രയത്നക്കുറവല്ലെന്ന്
പ്രയോഗത്തിന്നു
പ്രയോഗിപ്പാൻ
പ്രവർത്തിച്ചത്
പ്രഹരം
പ്രാചീനൻതന്നെ
പ്രാപിച്ചത്
ബഭാഷിരെ
ബാല്യത്തിൽത്തന്നെ
ബുദ്ധികുറഞ്ഞവരായിരുന്നു
ബുദ്ധിമാന്മാരായ
ബുദ്ധിയുള്ള
ഭയമുണ്ടായിരുന്നു
ഭവനങ്ങളും
ഭാഗ്യഹീനന്മാരായി
മകനായിരുന്നു
മക്കത്തായ
മടക്കിത്തരുവാനുള്ള
മടങ്ങിപ്പോരികയും
മടികണ്ടപ്പോൾ
മടിയനായിരുന്നു
മതക്കാരനായിരുന്നു
മദിരാശിക്ക്
മദിരാശിയിൽ
മനസ്സിലാകത്തക്ക
മനസ്സിലായോ
മനോരഥം
മന്നന്റെ
മരുമക്കത്തായ
മര്യാദക്കാരും
മര്യാദയ്ക്കാണ്
മഹൻ
മഹാപാപി
മറന്നുപോയി
മറ്റാരും
മിതിപ്രഭോ
മുതലിൽ
മുതൽക്കു
മുതൽക്ക്
മുത്തച്ഛനായിരുന്നു
മുപ്പതുസർഗം
മുമ്പിലത്തെ
മുഴുവനെ
മൃഗങ്ങളായി
മൃഗത്തിന്റെ
മൃഗത്തെയെങ്കിലും
മേനി
മേലിൽ
മേശപ്പുറത്തു
മോതിരത്തെപ്പറ്റി
മോതിരവിരലിന്മേൽ
മോഹമില്ലാതെ
യോഗവും
രണ്ടുകൈകൊണ്ടും
രണ്ടുവഴിക്കും
രസമായില്ലപോൽ
രാജശിക്ഷ
രാമൻ
ലുനന്തി
വകക്കാര്
വച്ചിരിക്കുന്നു
വച്ചിരുന്നതും
വൻതരത്തിൽ
വന്നിട്ടുള്ളവർ
വരരുതെന്നു
വരുത്തുന്ന
വഴിക്കും
വാങ്ങുവാൻ
വായിക്കുന്ന
വാസനകൊണ്ട്
വാസനയും
വാസനാം
വാസനാബലം
വാസനാവികൃതി
വിചാരിക്കുന്നുള്ളൂ
വിചാരിക്കുമ്പോൾ
വിചാരിച്ചാണ്
വിചാരിച്ചു
വിചാരിച്ച്
വിഡ്‌ഢിത്തം
വിഡ്‌ഢിത്തത്തിന്റെ
വിഡ്‌ഢിയുണ്ടെങ്കിൽ
വിഡ്‌ഢ്യാൻ
വിദ്യയും
വിദ്യാഭ്യാസവിഷയത്തിൽ
വിധമാണ്
വിധേനയും
വിശ്വനാഥദർശനവും
വിഹിതാ
വീടായതുകൊണ്ട്
വീട്ടിലുള്ളവരിൽ
വീട്ടിൽനിന്നു
വീട്ടുന്നതിന്
വെടിവയ്ക്കുവാൻ
വെളുത്തും
വേണ്ടാസനത്തിനു
വേർതിരിവ്
വേർപെടുത്തുവാൻ
വൈകുന്നേരത്തെ
വൈഷമ്യത്തിലും
വൈഷമ്യവും
വ്യസനമായി
വ്യാഖ്യാനമുണ്ടെങ്കിൽ
വ്യുൽപ്പത്തി
വ്യുൽപ്പന്നനായിയെന്ന്
വ്രതാദയഃ
ശട്ടം
ശബ്‌ദത്തിന്
ശരണം
ശരിയായിരിക്കാം
ശിക്ഷായോഗ്യന്മാരായി
ശ്രുതിസ്മൃതിഭ്യാം
സംഗതി
സംഗതിയുണ്ടെന്നു
സങ്കടത്തിന്
സങ്കടമാണ്
സഞ്ചരിക്കുകയല്ലേ
സന്ധ്യാസമയത്ത്
സംബന്ധിച്ചിടത്തോളം
സമ്പാദിച്ചപ്പോഴേക്കും
സമ്മാനവും
സർഗ്ഗം
സവ്യസാചിത്വവും
സഹപാഠികളിൽ
സഹിക്കാവുന്ന
സാധനമായാലേ
സാധിക്കുന്നതിന്ന്
സാധിച്ചില്ലെങ്കിൽ
സാമർഥ്യം
സാമർഥ്യമുണ്ടാകണമെങ്കിൽ
സാമാനം
സൗഖ്യവും
സ്തംഭാകാരമായിട്ടു
സ്ഥലത്താണെന്നു
സ്‌നേഹിതയായ
സ്റ്റേഷനിൽ
